CPU/cpu_pipeline.vcd
$date
	Wed Feb 05 18:35:08 2025
$end
$version
	Icarus Verilog
$end
$timescale
	1s
$end
$scope module cpu_testbench $end
$var reg 1 ! CLK $end
$var reg 1 " RESET $end
$scope module cpu_inst $end
$var wire 1 ! CLK $end
$var wire 1 " RESET $end
$var wire 1 # WRITEENABLE_MEMOUT $end
$var wire 1 $ WRITEENABLE_IDOUT $end
$var wire 1 % WRITEENABLE_EXOUT $end
$var wire 1 & WRITEENABLE $end
$var wire 32 ' WRITEDATA [31:0] $end
$var wire 5 ( WRITEADDRESS_MEMOUT [4:0] $end
$var wire 5 ) WRITEADDRESS_IDOUT [4:0] $end
$var wire 5 * WRITEADDRESS_EXOUT [4:0] $end
$var wire 32 + TARGETEDADDRESS [31:0] $end
$var wire 5 , RS2 [4:0] $end
$var wire 5 - RS1 [4:0] $end
$var wire 32 . READDATA_MEMOUT [31:0] $end
$var wire 32 / PC_PLUS_4_OUT [31:0] $end
$var wire 32 0 PC_PLUS_4_IDOUT [31:0] $end
$var wire 32 1 PC_PLUS_4 [31:0] $end
$var wire 32 2 PC_OUT [31:0] $end
$var wire 32 3 PC_MUX_OUT [31:0] $end
$var wire 32 4 PC_IDOUT [31:0] $end
$var wire 32 5 PCOUT [31:0] $end
$var wire 1 6 PCADDRESSCONTROLLER $end
$var wire 2 7 OFFSETGENARATOR_IDOUT [1:0] $end
$var wire 2 8 OFFSETGENARATOR [1:0] $end
$var wire 1 9 MEMWRITE_IDOUT $end
$var wire 1 : MEMWRITE_EXOUT $end
$var wire 1 ; MEMWRITE $end
$var wire 1 < MEMREAD_IDOUT $end
$var wire 1 = MEMREAD_EXOUT $end
$var wire 1 > MEMREAD $end
$var wire 1 ? MEMORYACCESS_MEMOUT $end
$var wire 1 @ MEMORYACCESS_IDOUT $end
$var wire 1 A MEMORYACCESS_EXOUT $end
$var wire 1 B MEMORYACCESS $end
$var wire 1 C JUMP_IDOUT $end
$var wire 1 D JUMPANDLINK $end
$var wire 1 E JUMP $end
$var wire 32 F JAL_MUX_OUT [31:0] $end
$var wire 1 G JAL_IDOUT $end
$var wire 32 H INSTRUCTION_OUT [31:0] $end
$var wire 32 I INSTRUCTION [31:0] $end
$var wire 32 J IMMEDIATE_VALUE_IDOUT [31:0] $end
$var wire 32 K IMMEDIATE_VALUE [31:0] $end
$var wire 3 L IMMEDIATE_TYPE [2:0] $end
$var wire 2 M IMMEDIATESELECT_IDOUT [1:0] $end
$var wire 2 N IMMEDIATESELECT [1:0] $end
$var wire 3 O FUNCT3_IDOUT [2:0] $end
$var wire 3 P FUNCT3_EXOUT [2:0] $end
$var wire 32 Q Data2_MUX_OUT [31:0] $end
$var wire 32 R Data1_MUX_OUT [31:0] $end
$var wire 32 S DATA_OUT [31:0] $end
$var wire 32 T DATA2_IDOUT [31:0] $end
$var wire 32 U DATA2_EXOUT [31:0] $end
$var wire 32 V DATA2 [31:0] $end
$var wire 32 W DATA1_IDOUT [31:0] $end
$var wire 32 X DATA1 [31:0] $end
$var wire 2 Y ControlUnitOFFSETGENARATOR [1:0] $end
$var wire 2 Z ControlUnitIMMEDIATESELECT [1:0] $end
$var wire 1 [ BUSYWAIT $end
$var wire 1 \ BRANCH_IDOUT $end
$var wire 1 ] BRANCH $end
$var wire 5 ^ ALU_OPCODE_IDOUT [4:0] $end
$var wire 5 _ ALU_OPCODE [4:0] $end
$var wire 32 ` ALURESULT_MEMOUT [31:0] $end
$var wire 32 a ALURESULT_EXOUT [31:0] $end
$var wire 32 b ALURESULT [31:0] $end
$scope module ALU $end
$var wire 64 c mulhu_result [63:0] $end
$var wire 64 d mulhsu_result [63:0] $end
$var wire 64 e mulh_result [63:0] $end
$var wire 32 f data2 [31:0] $end
$var wire 32 g data1 [31:0] $end
$var wire 32 h MULH_result [31:0] $end
$var wire 32 i MULHU_result [31:0] $end
$var wire 32 j MULHSU_result [31:0] $end
$var wire 5 k ALU_OPCODE [4:0] $end
$var reg 32 l Output [31:0] $end
$upscope $end
$scope module BranchController1 $end
$var wire 32 m ALUresult [31:0] $end
$var wire 3 n func3 [2:0] $end
$var wire 32 o data2 [31:0] $end
$var wire 32 p data1 [31:0] $end
$var wire 1 C Jump $end
$var wire 1 \ Branch $end
$var reg 1 6 PCAddressController $end
$var reg 32 q TargetedAddress [31:0] $end
$upscope $end
$scope module Data1_MUX $end
$var wire 2 r SELECT [1:0] $end
$var wire 32 s INPUT_2 [31:0] $end
$var wire 32 t INPUT_1 [31:0] $end
$var wire 32 u INPUT_0 [31:0] $end
$var reg 32 v OUTPUT [31:0] $end
$upscope $end
$scope module Data2_MUX $end
$var wire 2 w SELECT [1:0] $end
$var wire 32 x INPUT_2 [31:0] $end
$var wire 32 y INPUT_1 [31:0] $end
$var wire 32 z INPUT_0 [31:0] $end
$var reg 32 { OUTPUT [31:0] $end
$upscope $end
$scope module EX_MEM_pipeline1 $end
$var wire 1 ! CLK $end
$var wire 1 " RESET $end
$var wire 1 $ WRITE_ENABLE $end
$var wire 5 | WRITE_ADDRESS [4:0] $end
$var wire 1 9 MEM_WRITE $end
$var wire 1 < MEM_READ $end
$var wire 1 @ MEM_ACCESS $end
$var wire 3 } FUNCT3 [2:0] $end
$var wire 32 ~ DATA2 [31:0] $end
$var wire 32 !" ALU_OUTPUT [31:0] $end
$var reg 32 "" ALU_OUTPUT_OUT [31:0] $end
$var reg 32 #" DATA2_OUT [31:0] $end
$var reg 3 $" FUNCT3_OUT [2:0] $end
$var reg 1 A MEM_ACCESS_OUT $end
$var reg 1 = MEM_READ_OUT $end
$var reg 1 : MEM_WRITE_OUT $end
$var reg 5 %" WRITE_ADDRESS_OUT [4:0] $end
$var reg 1 % WRITE_ENABLE_OUT $end
$upscope $end
$scope module Forwarding $end
$var wire 5 &" SR2 [4:0] $end
$var wire 5 '" SR1 [4:0] $end
$var wire 5 (" RD [4:0] $end
$var wire 7 )" OPCODE [6:0] $end
$var wire 32 *" INSTRUCTION [31:0] $end
$var wire 2 +" ControlUnit_OFFSET_GENARATOR [1:0] $end
$var wire 2 ," ControlUnit_IMMEDIATE_SELECT [1:0] $end
$var reg 2 -" Data1_OffsetGenarator [1:0] $end
$var reg 2 ." Data2_ImmediateSelect [1:0] $end
$var reg 5 /" RD_old [4:0] $end
$upscope $end
$scope module ID_EXPipeline1 $end
$var wire 1 ! CLK $end
$var wire 2 0" Immediate_Select [1:0] $end
$var wire 2 1" Offset_Generate [1:0] $end
$var wire 1 " Reset $end
$var wire 32 2" instruction [31:0] $end
$var wire 1 & Write_Enable $end
$var wire 32 3" PC_next [31:0] $end
$var wire 32 4" PC [31:0] $end
$var wire 1 B Memory_Access $end
$var wire 1 ; Mem_Write $end
$var wire 1 > Mem_Read $end
$var wire 1 D Jump_and_Link $end
$var wire 1 E Jump $end
$var wire 32 5" Immediate_value [31:0] $end
$var wire 32 6" Data2 [31:0] $end
$var wire 32 7" Data1 [31:0] $end
$var wire 1 ] Branch $end
$var wire 5 8" ALU_Opcode [4:0] $end
$var reg 5 9" Out_ALU_Opcode [4:0] $end
$var reg 1 \ Out_Branch $end
$var reg 32 :" Out_Data1 [31:0] $end
$var reg 32 ;" Out_Data2 [31:0] $end
$var reg 2 <" Out_Immediate_Select [1:0] $end
$var reg 32 =" Out_Immediate_value [31:0] $end
$var reg 1 C Out_Jump $end
$var reg 1 G Out_Jump_and_Link $end
$var reg 1 < Out_Mem_Read $end
$var reg 1 9 Out_Mem_Write $end
$var reg 1 @ Out_Memory_Access $end
$var reg 2 >" Out_Offset_Generate [1:0] $end
$var reg 32 ?" Out_PC [31:0] $end
$var reg 32 @" Out_PC_next [31:0] $end
$var reg 5 A" Out_WriteAddress [4:0] $end
$var reg 1 $ Out_Write_Enable $end
$var reg 3 B" Out_func3 [2:0] $end
$upscope $end
$scope module ID_IF_register1 $end
$var wire 1 ! CLK $end
$var wire 1 " RESET $end
$var wire 32 C" PC_PLUS_4 [31:0] $end
$var wire 32 D" PC [31:0] $end
$var wire 32 E" INSTRUCTION [31:0] $end
$var reg 32 F" INSTRUCTION_OUT [31:0] $end
$var reg 32 G" PC_OUT [31:0] $end
$var reg 32 H" PC_PLUS_4_OUT [31:0] $end
$upscope $end
$scope module JAL_MUX $end
$var wire 32 I" INPUT_0 [31:0] $end
$var wire 32 J" INPUT_1 [31:0] $end
$var wire 1 G SELECT $end
$var reg 32 K" OUTPUT [31:0] $end
$upscope $end
$scope module MEM_WBPipeline1 $end
$var wire 32 L" ALU_Output [31:0] $end
$var wire 1 ! CLK $end
$var wire 1 A Memory_access $end
$var wire 1 " Reset $end
$var wire 5 M" Write_Address [4:0] $end
$var wire 1 % Write_enable $end
$var wire 32 N" Memory_Data [31:0] $end
$var reg 32 O" ALU_Output_Out [31:0] $end
$var reg 32 P" Memory_Data_Out [31:0] $end
$var reg 1 ? Memory_access_Out $end
$var reg 5 Q" Write_Address_out [4:0] $end
$var reg 1 # Write_Enable_Out $end
$upscope $end
$scope module Memory_access_MUX $end
$var wire 32 R" INPUT_0 [31:0] $end
$var wire 32 S" INPUT_1 [31:0] $end
$var wire 1 ? SELECT $end
$var reg 32 T" OUTPUT [31:0] $end
$upscope $end
$scope module PC_MUX $end
$var wire 32 U" INPUT_1 [31:0] $end
$var wire 1 6 SELECT $end
$var wire 32 V" INPUT_0 [31:0] $end
$var reg 32 W" OUTPUT [31:0] $end
$upscope $end
$scope module controlunit1 $end
$var wire 32 X" INSTRUCTION [31:0] $end
$var wire 7 Y" OPCODE [6:0] $end
$var wire 7 Z" FUNCT7 [6:0] $end
$var wire 3 [" FUNCT3 [2:0] $end
$var reg 5 \" ALU_OPCODE [4:0] $end
$var reg 1 ] BRANCH $end
$var reg 2 ]" IMMEDIATE_SELECT [1:0] $end
$var reg 3 ^" IMMEDIATE_TYPE [2:0] $end
$var reg 1 E JUMP $end
$var reg 1 D JUMP_AND_LINK $end
$var reg 1 B MEMORY_ACCESS $end
$var reg 1 > MEM_READ $end
$var reg 1 ; MEM_WRITE $end
$var reg 2 _" OFFSET_GENARATOR [1:0] $end
$var reg 1 & WRITE_ENABLE $end
$upscope $end
$scope module datamemory1 $end
$var wire 32 `" ADDRESS [31:0] $end
$var wire 1 ! CLK $end
$var wire 3 a" FUNCT3 [2:0] $end
$var wire 1 = READ $end
$var wire 1 " RESET $end
$var wire 1 : WRITE $end
$var wire 32 b" WRITEDATA [31:0] $end
$var reg 1 [ BUSYWAIT $end
$var reg 32 c" READDATA [31:0] $end
$var integer 32 d" i [31:0] $end
$upscope $end
$scope module imidiateGenarator1 $end
$var wire 3 e" IMMEDIATE_TYPE [2:0] $end
$var wire 32 f" INSTRUCTION [31:0] $end
$var reg 32 g" IMMEDIATE_VALUE [31:0] $end
$upscope $end
$scope module instructionmem1 $end
$var wire 1 " RESET $end
$var wire 32 h" PC [31:0] $end
$var reg 32 i" INSTRUCTION [31:0] $end
$upscope $end
$scope module pc1 $end
$var wire 1 ! CLK $end
$var wire 32 j" PCIN [31:0] $end
$var wire 1 " RESET $end
$var reg 32 k" PCOUT [31:0] $end
$upscope $end
$scope module pc_4_adder $end
$var wire 32 l" PC [31:0] $end
$var wire 32 m" PCPLUS4 [31:0] $end
$upscope $end
$scope module registerfile1 $end
$var wire 1 ! CLK $end
$var wire 1 " RESET $end
$var wire 5 n" RS1 [4:0] $end
$var wire 5 o" RS2 [4:0] $end
$var wire 5 p" WRITEADDRESS [4:0] $end
$var wire 32 q" WRITEDATA [31:0] $end
$var wire 1 # WRITEENABLE $end
$var reg 32 r" DATA1 [31:0] $end
$var reg 32 s" DATA2 [31:0] $end
$upscope $end
$upscope $end
$scope begin $ivl_for_loop0 $end
$var integer 32 t" i [31:0] $end
$upscope $end
$scope begin $ivl_for_loop1 $end
$var integer 32 u" i [31:0] $end
$upscope $end
$upscope $end
$scope module cpu_testbench $end
$scope module cpu_inst $end
$scope module registerfile1 $end
$var reg 32 v" \registers[0] [31:0] $end
$upscope $end
$upscope $end
$upscope $end
$scope module cpu_testbench $end
$scope module cpu_inst $end
$scope module registerfile1 $end
$var reg 32 w" \registers[1] [31:0] $end
$upscope $end
$upscope $end
$upscope $end
$scope module cpu_testbench $end
$scope module cpu_inst $end
$scope module registerfile1 $end
$var reg 32 x" \registers[2] [31:0] $end
$upscope $end
$upscope $end
$upscope $end
$scope module cpu_testbench $end
$scope module cpu_inst $end
$scope module registerfile1 $end
$var reg 32 y" \registers[3] [31:0] $end
$upscope $end
$upscope $end
$upscope $end
$scope module cpu_testbench $end
$scope module cpu_inst $end
$scope module registerfile1 $end
$var reg 32 z" \registers[4] [31:0] $end
$upscope $end
$upscope $end
$upscope $end
$scope module cpu_testbench $end
$scope module cpu_inst $end
$scope module registerfile1 $end
$var reg 32 {" \registers[5] [31:0] $end
$upscope $end
$upscope $end
$upscope $end
$scope module cpu_testbench $end
$scope module cpu_inst $end
$scope module registerfile1 $end
$var reg 32 |" \registers[6] [31:0] $end
$upscope $end
$upscope $end
$upscope $end
$scope module cpu_testbench $end
$scope module cpu_inst $end
$scope module registerfile1 $end
$var reg 32 }" \registers[7] [31:0] $end
$upscope $end
$upscope $end
$upscope $end
$scope module cpu_testbench $end
$scope module cpu_inst $end
$scope module registerfile1 $end
$var reg 32 ~" \registers[8] [31:0] $end
$upscope $end
$upscope $end
$upscope $end
$scope module cpu_testbench $end
$scope module cpu_inst $end
$scope module registerfile1 $end
$var reg 32 !# \registers[9] [31:0] $end
$upscope $end
$upscope $end
$upscope $end
$scope module cpu_testbench $end
$scope module cpu_inst $end
$scope module registerfile1 $end
$var reg 32 "# \registers[10] [31:0] $end
$upscope $end
$upscope $end
$upscope $end
$scope module cpu_testbench $end
$scope module cpu_inst $end
$scope module registerfile1 $end
$var reg 32 ## \registers[11] [31:0] $end
$upscope $end
$upscope $end
$upscope $end
$scope module cpu_testbench $end
$scope module cpu_inst $end
$scope module registerfile1 $end
$var reg 32 $# \registers[12] [31:0] $end
$upscope $end
$upscope $end
$upscope $end
$scope module cpu_testbench $end
$scope module cpu_inst $end
$scope module registerfile1 $end
$var reg 32 %# \registers[13] [31:0] $end
$upscope $end
$upscope $end
$upscope $end
$scope module cpu_testbench $end
$scope module cpu_inst $end
$scope module registerfile1 $end
$var reg 32 &# \registers[14] [31:0] $end
$upscope $end
$upscope $end
$upscope $end
$scope module cpu_testbench $end
$scope module cpu_inst $end
$scope module registerfile1 $end
$var reg 32 '# \registers[15] [31:0] $end
$upscope $end
$upscope $end
$upscope $end
$scope module cpu_testbench $end
$scope module cpu_inst $end
$scope module registerfile1 $end
$var reg 32 (# \registers[16] [31:0] $end
$upscope $end
$upscope $end
$upscope $end
$scope module cpu_testbench $end
$scope module cpu_inst $end
$scope module registerfile1 $end
$var reg 32 )# \registers[17] [31:0] $end
$upscope $end
$upscope $end
$upscope $end
$scope module cpu_testbench $end
$scope module cpu_inst $end
$scope module registerfile1 $end
$var reg 32 *# \registers[18] [31:0] $end
$upscope $end
$upscope $end
$upscope $end
$scope module cpu_testbench $end
$scope module cpu_inst $end
$scope module registerfile1 $end
$var reg 32 +# \registers[19] [31:0] $end
$upscope $end
$upscope $end
$upscope $end
$scope module cpu_testbench $end
$scope module cpu_inst $end
$scope module registerfile1 $end
$var reg 32 ,# \registers[20] [31:0] $end
$upscope $end
$upscope $end
$upscope $end
$scope module cpu_testbench $end
$scope module cpu_inst $end
$scope module registerfile1 $end
$var reg 32 -# \registers[21] [31:0] $end
$upscope $end
$upscope $end
$upscope $end
$scope module cpu_testbench $end
$scope module cpu_inst $end
$scope module registerfile1 $end
$var reg 32 .# \registers[22] [31:0] $end
$upscope $end
$upscope $end
$upscope $end
$scope module cpu_testbench $end
$scope module cpu_inst $end
$scope module registerfile1 $end
$var reg 32 /# \registers[23] [31:0] $end
$upscope $end
$upscope $end
$upscope $end
$scope module cpu_testbench $end
$scope module cpu_inst $end
$scope module registerfile1 $end
$var reg 32 0# \registers[24] [31:0] $end
$upscope $end
$upscope $end
$upscope $end
$scope module cpu_testbench $end
$scope module cpu_inst $end
$scope module registerfile1 $end
$var reg 32 1# \registers[25] [31:0] $end
$upscope $end
$upscope $end
$upscope $end
$scope module cpu_testbench $end
$scope module cpu_inst $end
$scope module registerfile1 $end
$var reg 32 2# \registers[26] [31:0] $end
$upscope $end
$upscope $end
$upscope $end
$scope module cpu_testbench $end
$scope module cpu_inst $end
$scope module registerfile1 $end
$var reg 32 3# \registers[27] [31:0] $end
$upscope $end
$upscope $end
$upscope $end
$scope module cpu_testbench $end
$scope module cpu_inst $end
$scope module registerfile1 $end
$var reg 32 4# \registers[28] [31:0] $end
$upscope $end
$upscope $end
$upscope $end
$scope module cpu_testbench $end
$scope module cpu_inst $end
$scope module registerfile1 $end
$var reg 32 5# \registers[29] [31:0] $end
$upscope $end
$upscope $end
$upscope $end
$scope module cpu_testbench $end
$scope module cpu_inst $end
$scope module registerfile1 $end
$var reg 32 6# \registers[30] [31:0] $end
$upscope $end
$upscope $end
$upscope $end
$scope module cpu_testbench $end
$scope module cpu_inst $end
$scope module registerfile1 $end
$var reg 32 7# \registers[31] [31:0] $end
$upscope $end
$upscope $end
$upscope $end
$scope module cpu_testbench $end
$scope module cpu_inst $end
$scope module datamemory1 $end
$var reg 8 8# \memory_array[0] [7:0] $end
$upscope $end
$upscope $end
$upscope $end
$scope module cpu_testbench $end
$scope module cpu_inst $end
$scope module datamemory1 $end
$var reg 8 9# \memory_array[1] [7:0] $end
$upscope $end
$upscope $end
$upscope $end
$scope module cpu_testbench $end
$scope module cpu_inst $end
$scope module datamemory1 $end
$var reg 8 :# \memory_array[2] [7:0] $end
$upscope $end
$upscope $end
$upscope $end
$scope module cpu_testbench $end
$scope module cpu_inst $end
$scope module datamemory1 $end
$var reg 8 ;# \memory_array[3] [7:0] $end
$upscope $end
$upscope $end
$upscope $end
$scope module cpu_testbench $end
$scope module cpu_inst $end
$scope module datamemory1 $end
$var reg 8 <# \memory_array[4] [7:0] $end
$upscope $end
$upscope $end
$upscope $end
$scope module cpu_testbench $end
$scope module cpu_inst $end
$scope module datamemory1 $end
$var reg 8 =# \memory_array[5] [7:0] $end
$upscope $end
$upscope $end
$upscope $end
$scope module cpu_testbench $end
$scope module cpu_inst $end
$scope module datamemory1 $end
$var reg 8 ># \memory_array[6] [7:0] $end
$upscope $end
$upscope $end
$upscope $end
$scope module cpu_testbench $end
$scope module cpu_inst $end
$scope module datamemory1 $end
$var reg 8 ?# \memory_array[7] [7:0] $end
$upscope $end
$upscope $end
$upscope $end
$scope module cpu_testbench $end
$scope module cpu_inst $end
$scope module datamemory1 $end
$var reg 8 @# \memory_array[8] [7:0] $end
$upscope $end
$upscope $end
$upscope $end
$scope module cpu_testbench $end
$scope module cpu_inst $end
$scope module datamemory1 $end
$var reg 8 A# \memory_array[9] [7:0] $end
$upscope $end
$upscope $end
$upscope $end
$scope module cpu_testbench $end
$scope module cpu_inst $end
$scope module datamemory1 $end
$var reg 8 B# \memory_array[10] [7:0] $end
$upscope $end
$upscope $end
$upscope $end
$scope module cpu_testbench $end
$scope module cpu_inst $end
$scope module datamemory1 $end
$var reg 8 C# \memory_array[11] [7:0] $end
$upscope $end
$upscope $end
$upscope $end
$scope module cpu_testbench $end
$scope module cpu_inst $end
$scope module datamemory1 $end
$var reg 8 D# \memory_array[12] [7:0] $end
$upscope $end
$upscope $end
$upscope $end
$scope module cpu_testbench $end
$scope module cpu_inst $end
$scope module datamemory1 $end
$var reg 8 E# \memory_array[13] [7:0] $end
$upscope $end
$upscope $end
$upscope $end
$scope module cpu_testbench $end
$scope module cpu_inst $end
$scope module datamemory1 $end
$var reg 8 F# \memory_array[14] [7:0] $end
$upscope $end
$upscope $end
$upscope $end
$scope module cpu_testbench $end
$scope module cpu_inst $end
$scope module datamemory1 $end
$var reg 8 G# \memory_array[15] [7:0] $end
$upscope $end
$upscope $end
$upscope $end
$scope module cpu_testbench $end
$scope module cpu_inst $end
$scope module datamemory1 $end
$var reg 8 H# \memory_array[16] [7:0] $end
$upscope $end
$upscope $end
$upscope $end
$scope module cpu_testbench $end
$scope module cpu_inst $end
$scope module datamemory1 $end
$var reg 8 I# \memory_array[17] [7:0] $end
$upscope $end
$upscope $end
$upscope $end
$scope module cpu_testbench $end
$scope module cpu_inst $end
$scope module datamemory1 $end
$var reg 8 J# \memory_array[18] [7:0] $end
$upscope $end
$upscope $end
$upscope $end
$scope module cpu_testbench $end
$scope module cpu_inst $end
$scope module datamemory1 $end
$var reg 8 K# \memory_array[19] [7:0] $end
$upscope $end
$upscope $end
$upscope $end
$enddefinitions $end
$comment Show the parameter values. $end
$dumpall
$end
#0
$dumpvars
b0 K#
b0 J#
b0 I#
b0 H#
b0 G#
b0 F#
b0 E#
b0 D#
b0 C#
b0 B#
b0 A#
b0 @#
b0 ?#
b0 >#
b0 =#
b0 <#
b0 ;#
b0 :#
b0 9#
b0 8#
bx 7#
bx 6#
bx 5#
bx 4#
bx 3#
bx 2#
bx 1#
bx 0#
bx /#
bx .#
bx -#
bx ,#
bx +#
bx *#
bx )#
bx (#
bx '#
bx &#
bx %#
bx $#
bx ##
bx "#
bx !#
bx ~"
bx }"
bx |"
bx {"
bx z"
bx y"
bx x"
bx w"
bx v"
b10100 u"
b100000 t"
bx s"
bx r"
bx q"
bx p"
bx o"
bx n"
bx m"
bx l"
bx k"
bx j"
bx i"
bx h"
bx g"
bx f"
bx e"
b10000000000 d"
bx c"
bx b"
bx a"
bx `"
bx _"
bx ^"
bx ]"
bx \"
bx ["
bx Z"
bx Y"
bx X"
bx W"
bx V"
bx U"
bx T"
bx S"
bx R"
bx Q"
bx P"
bx O"
bx N"
bx M"
bx L"
bx K"
bx J"
bx I"
bx H"
bx G"
bx F"
bx E"
bx D"
bx C"
bx B"
bx A"
bx @"
bx ?"
bx >"
bx ="
bx <"
bx ;"
bx :"
bx 9"
bx 8"
bx 7"
bx 6"
bx 5"
bx 4"
bx 3"
bx 2"
bx 1"
bx 0"
bx /"
bx ."
bx -"
bx ,"
bx +"
bx *"
bx )"
bx ("
bx '"
bx &"
bx %"
bx $"
bx #"
bx ""
bx !"
bx ~
bx }
bx |
bx {
bx z
bx y
bx x
bx w
bx v
bx u
bx t
bx s
bx r
bx q
bx p
bx o
bx n
bx m
bx l
bx k
bx j
bx i
bx h
bx g
bx f
bx e
bx d
bx c
bx b
bx a
bx `
bx _
bx ^
x]
x\
x[
bx Z
bx Y
bx X
bx W
bx V
bx U
bx T
bx S
bx R
bx Q
bx P
bx O
bx N
bx M
bx L
bx K
bx J
bx I
bx H
xG
bx F
xE
xD
xC
xB
xA
x@
x?
x>
x=
x<
x;
x:
x9
bx 8
bx 7
x6
bx 5
bx 4
bx 3
bx 2
bx 1
bx 0
bx /
bx .
bx -
bx ,
bx +
bx *
bx )
bx (
bx '
x&
x%
x$
x#
1"
0!
$end
#1
b0 I
b0 E"
b0 i"
b0 7#
b0 6#
b0 5#
b0 4#
b0 3#
b0 2#
b0 1#
b0 0#
b0 /#
b0 .#
b0 -#
b0 ,#
b0 +#
b0 *#
b0 )#
b0 (#
b0 '#
b0 &#
b0 %#
b0 $#
b0 ##
b0 "#
b0 !#
b0 ~"
b0 }"
b0 |"
b0 {"
b0 z"
b0 y"
b0 x"
b0 w"
b0 v"
#2
06
#4
1!
#5
b0 /"
b0 Y"
b0 ["
b0 Z"
b0 ("
b0 &"
b0 '"
b0 )"
b0 ,
b0 o"
b0 -
b0 n"
b0 /
b0 3"
b0 H"
b0 2
b0 4"
b0 G"
b0 H
b0 *"
b0 2"
b0 F"
b0 X"
b0 f"
0"
#6
bx I
bx E"
bx i"
b0 5
b0 D"
b0 h"
b0 k"
b0 l"
#7
b10100000000001100010011 I
b10100000000001100010011 E"
b10100000000001100010011 i"
b0 V
b0 6"
b0 s"
b0 X
b0 7"
b0 r"
b100 3
b100 W"
b100 j"
b100 1
b100 C"
b100 V"
b100 m"
#8
0!
#12
1!
#14
b110 /"
b0 F
b0 !"
b0 K"
b0 R
b0 g
b0 v
b10011 Y"
b110 ("
b101 &"
b10011 )"
b101 ,
b101 o"
b0 O
b0 n
b0 }
b0 B"
b0 )
b0 |
b0 A"
b0 T
b0 o
b0 z
b0 ~
b0 ;"
b0 W
b0 p
b0 u
b0 :"
b0 0
b0 @"
b0 J"
b0 4
b0 t
b0 ?"
b100 /
b100 3"
b100 H"
b10100000000001100010011 H
b10100000000001100010011 *"
b10100000000001100010011 2"
b10100000000001100010011 F"
b10100000000001100010011 X"
b10100000000001100010011 f"
b100 5
b100 D"
b100 h"
b100 k"
b100 l"
#15
b110000000000001000010011 I
b110000000000001000010011 E"
b110000000000001000010011 i"
b10 N
b10 ."
b10 0"
b0 8
b0 -"
b0 1"
b1000 3
b1000 W"
b1000 j"
b0 b
b0 l
b0 m
b0 I"
b0 _
b0 8"
b0 \"
0E
0]
b0 Y
b0 +"
b0 _"
b10 Z
b10 ,"
b10 ]"
0D
0>
0;
0B
1&
b0 L
b0 ^"
b0 e"
b1000 1
b1000 C"
b1000 V"
b1000 m"
#16
b0 +
b0 q
b0 U"
b101 K
b101 5"
b101 g"
0!
#20
1!
#22
b100 /"
b0 j
b0 i
b0 h
b100 ("
b1100 &"
b1100 ,
b1100 o"
b0 d
b0 c
b0 e
b101 Q
b101 f
b101 {
b1000 5
b1000 D"
b1000 h"
b1000 k"
b1000 l"
b1000 /
b1000 3"
b1000 H"
b100 2
b100 4"
b100 G"
b110000000000001000010011 H
b110000000000001000010011 *"
b110000000000001000010011 2"
b110000000000001000010011 F"
b110000000000001000010011 X"
b110000000000001000010011 f"
b101 J
b101 y
b101 ="
b110 )
b110 |
b110 A"
b100 0
b100 @"
b100 J"
b0 ^
b0 k
b0 9"
0C
0\
b0 7
b0 r
b0 >"
b10 M
b10 w
b10 <"
0G
0<
09
0@
1$
b0 U
b0 #"
b0 b"
b0 P
b0 $"
b0 a"
b0 *
b0 %"
b0 M"
b0 a
b0 s
b0 x
b0 ""
b0 L"
b0 `"
#23
b110000000000001010010011 I
b110000000000001010010011 E"
b110000000000001010010011 i"
b1100 3
b1100 W"
b1100 j"
b1100 1
b1100 C"
b1100 V"
b1100 m"
#24
b101 F
b101 !"
b101 K"
b1100 K
b1100 5"
b1100 g"
b101 b
b101 l
b101 m
b101 I"
0!
#25
b101 +
b101 q
b101 U"
#28
1!
#30
b101 /"
0[
b1100 Q
b1100 f
b1100 {
b101 ("
b0 (
b0 Q"
b0 p"
b0 `
b0 O"
b0 R"
b110 *
b110 %"
b110 M"
b101 a
b101 s
b101 x
b101 ""
b101 L"
b101 `"
0=
0:
0A
1%
b1100 J
b1100 y
b1100 ="
b100 )
b100 |
b100 A"
b1000 0
b1000 @"
b1000 J"
b100 4
b100 t
b100 ?"
b1100 /
b1100 3"
b1100 H"
b1000 2
b1000 4"
b1000 G"
b110000000000001010010011 H
b110000000000001010010011 *"
b110000000000001010010011 2"
b110000000000001010010011 F"
b110000000000001010010011 X"
b110000000000001010010011 f"
b1100 5
b1100 D"
b1100 h"
b1100 k"
b1100 l"
#31
b11000110000001110110011 I
b11000110000001110110011 E"
b11000110000001110110011 i"
b10000 3
b10000 W"
b10000 j"
b10000 1
b10000 C"
b10000 V"
b10000 m"
#32
b1100 F
b1100 !"
b1100 K"
b1100 b
b1100 l
b1100 m
b1100 I"
0!
#33
b1100 +
b1100 q
b1100 U"
#36
1!
#38
b111 /"
b110011 Y"
b111 ("
b110 &"
b110 '"
b110011 )"
b110 ,
b110 o"
b110 -
b110 n"
b101 '
b101 T"
b101 q"
b10000 5
b10000 D"
b10000 h"
b10000 k"
b10000 l"
b10000 /
b10000 3"
b10000 H"
b1100 2
b1100 4"
b1100 G"
b11000110000001110110011 H
b11000110000001110110011 *"
b11000110000001110110011 2"
b11000110000001110110011 F"
b11000110000001110110011 X"
b11000110000001110110011 f"
b101 )
b101 |
b101 A"
b1100 0
b1100 @"
b1100 J"
b1000 4
b1000 t
b1000 ?"
b100 *
b100 %"
b100 M"
b1100 a
b1100 s
b1100 x
b1100 ""
b1100 L"
b1100 `"
b110 (
b110 Q"
b110 p"
b101 `
b101 O"
b101 R"
0?
1#
#39
b1000000011000100000010000110011 I
b1000000011000100000010000110011 E"
b1000000011000100000010000110011 i"
b101 |"
b0 N
b0 ."
b0 0"
b10100 3
b10100 W"
b10100 j"
b0 Z
b0 ,"
b0 ]"
bx L
bx ^"
bx e"
b10100 1
b10100 C"
b10100 V"
b10100 m"
#40
b101 V
b101 6"
b101 s"
b101 X
b101 7"
b101 r"
0!
#44
1!
#46
b1000 /"
b1100 '
b1100 T"
b1100 q"
b11001 d
b11001 c
b11001 e
b101 R
b101 g
b101 v
b101 Q
b101 f
b101 {
b100000 Z"
b1000 ("
b100 '"
b100 -
b100 n"
b100 (
b100 Q"
b100 p"
b1100 `
b1100 O"
b1100 R"
b101 *
b101 %"
b101 M"
b111 )
b111 |
b111 A"
b101 T
b101 o
b101 z
b101 ~
b101 ;"
b101 W
b101 p
b101 u
b101 :"
b10000 0
b10000 @"
b10000 J"
b1100 4
b1100 t
b1100 ?"
b0 M
b0 w
b0 <"
b10100 /
b10100 3"
b10100 H"
b10000 2
b10000 4"
b10000 G"
b1000000011000100000010000110011 H
b1000000011000100000010000110011 *"
b1000000011000100000010000110011 2"
b1000000011000100000010000110011 F"
b1000000011000100000010000110011 X"
b1000000011000100000010000110011 f"
b10100 5
b10100 D"
b10100 h"
b10100 k"
b10100 l"
#47
b1100 z"
b100000100000001000110011 I
b100000100000001000110011 E"
b100000100000001000110011 i"
b11000 3
b11000 W"
b11000 j"
b1 _
b1 8"
b1 \"
b11000 1
b11000 C"
b11000 V"
b11000 m"
