CPU/cpu_pipeline.vcd
$date
	Mon Feb 10 13:55:21 2025
$end
$version
	Icarus Verilog
$end
$timescale
	1s
$end
$scope module cpu_testbench $end
$var reg 1 ! CLK $end
$var reg 1 " RESET $end
$scope module cpu_inst $end
$var wire 1 ! CLK $end
$var wire 1 " RESET $end
$var wire 1 # WRITEENABLE_MEMOUT $end
$var wire 1 $ WRITEENABLE_IDOUT $end
$var wire 1 % WRITEENABLE_EXOUT $end
$var wire 1 & WRITEENABLE $end
$var wire 32 ' WRITEDATA [31:0] $end
$var wire 5 ( WRITEADDRESS_MEMOUT [4:0] $end
$var wire 5 ) WRITEADDRESS_IDOUT [4:0] $end
$var wire 5 * WRITEADDRESS_EXOUT [4:0] $end
$var wire 32 + TARGETEDADDRESS [31:0] $end
$var wire 5 , RS2 [4:0] $end
$var wire 5 - RS1 [4:0] $end
$var wire 32 . READDATA_MEMOUT [31:0] $end
$var wire 32 / PC_PLUS_4_OUT [31:0] $end
$var wire 32 0 PC_PLUS_4_IDOUT [31:0] $end
$var wire 32 1 PC_PLUS_4 [31:0] $end
$var wire 32 2 PC_OUT [31:0] $end
$var wire 32 3 PC_MUX_OUT [31:0] $end
$var wire 32 4 PC_IDOUT [31:0] $end
$var wire 32 5 PCOUT [31:0] $end
$var wire 1 6 PCADDRESSCONTROLLER $end
$var wire 2 7 OFFSETGENARATOR_IDOUT [1:0] $end
$var wire 2 8 OFFSETGENARATOR [1:0] $end
$var wire 1 9 MEMWRITE_IDOUT $end
$var wire 1 : MEMWRITE_EXOUT $end
$var wire 1 ; MEMWRITE $end
$var wire 1 < MEMREAD_IDOUT $end
$var wire 1 = MEMREAD_EXOUT $end
$var wire 1 > MEMREAD $end
$var wire 1 ? MEMORYACCESS_MEMOUT $end
$var wire 1 @ MEMORYACCESS_IDOUT $end
$var wire 1 A MEMORYACCESS_EXOUT $end
$var wire 1 B MEMORYACCESS $end
$var wire 1 C JUMP_IDOUT $end
$var wire 1 D JUMPANDLINK $end
$var wire 1 E JUMP $end
$var wire 32 F JAL_MUX_OUT [31:0] $end
$var wire 1 G JAL_IDOUT $end
$var wire 32 H INSTRUCTION_OUT [31:0] $end
$var wire 32 I INSTRUCTION [31:0] $end
$var wire 32 J IMMEDIATE_VALUE_IDOUT [31:0] $end
$var wire 32 K IMMEDIATE_VALUE [31:0] $end
$var wire 3 L IMMEDIATE_TYPE [2:0] $end
$var wire 2 M IMMEDIATESELECT_IDOUT [1:0] $end
$var wire 2 N IMMEDIATESELECT [1:0] $end
$var wire 3 O FUNCT3_IDOUT [2:0] $end
$var wire 3 P FUNCT3_EXOUT [2:0] $end
$var wire 32 Q Data2_MUX_OUT [31:0] $end
$var wire 32 R Data1_MUX_OUT [31:0] $end
$var wire 32 S DATA_OUT [31:0] $end
$var wire 32 T DATA2_IDOUT [31:0] $end
$var wire 32 U DATA2_EXOUT [31:0] $end
$var wire 32 V DATA2 [31:0] $end
$var wire 32 W DATA1_IDOUT [31:0] $end
$var wire 32 X DATA1 [31:0] $end
$var wire 2 Y ControlUnitOFFSETGENARATOR [1:0] $end
$var wire 2 Z ControlUnitIMMEDIATESELECT [1:0] $end
$var wire 1 [ BUSYWAIT $end
$var wire 1 \ BRANCH_IDOUT $end
$var wire 1 ] BRANCH $end
$var wire 5 ^ ALU_OPCODE_IDOUT [4:0] $end
$var wire 5 _ ALU_OPCODE [4:0] $end
$var wire 32 ` ALURESULT_MEMOUT [31:0] $end
$var wire 32 a ALURESULT_EXOUT [31:0] $end
$var wire 32 b ALURESULT [31:0] $end
$scope module ALU $end
$var wire 64 c mulhu_result [63:0] $end
$var wire 64 d mulhsu_result [63:0] $end
$var wire 64 e mulh_result [63:0] $end
$var wire 32 f data2 [31:0] $end
$var wire 32 g data1 [31:0] $end
$var wire 32 h MULH_result [31:0] $end
$var wire 32 i MULHU_result [31:0] $end
$var wire 32 j MULHSU_result [31:0] $end
$var wire 5 k ALU_OPCODE [4:0] $end
$var reg 32 l Output [31:0] $end
$upscope $end
$scope module BranchController1 $end
$var wire 32 m ALUresult [31:0] $end
$var wire 3 n func3 [2:0] $end
$var wire 32 o data2 [31:0] $end
$var wire 32 p data1 [31:0] $end
$var wire 1 C Jump $end
$var wire 1 \ Branch $end
$var reg 1 6 PCAddressController $end
$var reg 32 q TargetedAddress [31:0] $end
$upscope $end
$scope module Data1_MUX $end
$var wire 2 r SELECT [1:0] $end
$var wire 32 s INPUT_3 [31:0] $end
$var wire 32 t INPUT_2 [31:0] $end
$var wire 32 u INPUT_1 [31:0] $end
$var wire 32 v INPUT_0 [31:0] $end
$var reg 32 w OUTPUT [31:0] $end
$upscope $end
$scope module Data2_MUX $end
$var wire 2 x SELECT [1:0] $end
$var wire 32 y INPUT_3 [31:0] $end
$var wire 32 z INPUT_2 [31:0] $end
$var wire 32 { INPUT_1 [31:0] $end
$var wire 32 | INPUT_0 [31:0] $end
$var reg 32 } OUTPUT [31:0] $end
$upscope $end
$scope module EX_MEM_pipeline1 $end
$var wire 1 ! CLK $end
$var wire 1 " RESET $end
$var wire 1 $ WRITE_ENABLE $end
$var wire 5 ~ WRITE_ADDRESS [4:0] $end
$var wire 1 9 MEM_WRITE $end
$var wire 1 < MEM_READ $end
$var wire 1 @ MEM_ACCESS $end
$var wire 3 !" FUNCT3 [2:0] $end
$var wire 32 "" DATA2 [31:0] $end
$var wire 32 #" ALU_OUTPUT [31:0] $end
$var reg 32 $" ALU_OUTPUT_OUT [31:0] $end
$var reg 32 %" DATA2_OUT [31:0] $end
$var reg 3 &" FUNCT3_OUT [2:0] $end
$var reg 1 A MEM_ACCESS_OUT $end
$var reg 1 = MEM_READ_OUT $end
$var reg 1 : MEM_WRITE_OUT $end
$var reg 5 '" WRITE_ADDRESS_OUT [4:0] $end
$var reg 1 % WRITE_ENABLE_OUT $end
$upscope $end
$scope module ID_EXPipeline1 $end
$var wire 1 ! CLK $end
$var wire 1 " Reset $end
$var wire 32 (" instruction [31:0] $end
$var wire 1 & Write_Enable $end
$var wire 32 )" PC_next [31:0] $end
$var wire 32 *" PC [31:0] $end
$var wire 2 +" Offset_Generate [1:0] $end
$var wire 1 B Memory_Access $end
$var wire 1 ; Mem_Write $end
$var wire 1 > Mem_Read $end
$var wire 1 D Jump_and_Link $end
$var wire 1 E Jump $end
$var wire 32 ," Immediate_value [31:0] $end
$var wire 2 -" Immediate_Select [1:0] $end
$var wire 32 ." Data2 [31:0] $end
$var wire 32 /" Data1 [31:0] $end
$var wire 1 ] Branch $end
$var wire 5 0" ALU_Opcode [4:0] $end
$var reg 5 1" Out_ALU_Opcode [4:0] $end
$var reg 1 \ Out_Branch $end
$var reg 32 2" Out_Data1 [31:0] $end
$var reg 32 3" Out_Data2 [31:0] $end
$var reg 2 4" Out_Immediate_Select [1:0] $end
$var reg 32 5" Out_Immediate_value [31:0] $end
$var reg 1 C Out_Jump $end
$var reg 1 G Out_Jump_and_Link $end
$var reg 1 < Out_Mem_Read $end
$var reg 1 9 Out_Mem_Write $end
$var reg 1 @ Out_Memory_Access $end
$var reg 2 6" Out_Offset_Generate [1:0] $end
$var reg 32 7" Out_PC [31:0] $end
$var reg 32 8" Out_PC_next [31:0] $end
$var reg 5 9" Out_WriteAddress [4:0] $end
$var reg 1 $ Out_Write_Enable $end
$var reg 3 :" Out_func3 [2:0] $end
$upscope $end
$scope module ID_IF_register1 $end
$var wire 1 ! CLK $end
$var wire 1 " RESET $end
$var wire 32 ;" PC_PLUS_4 [31:0] $end
$var wire 32 <" PC [31:0] $end
$var wire 32 =" INSTRUCTION [31:0] $end
$var reg 32 >" INSTRUCTION_OUT [31:0] $end
$var reg 32 ?" PC_OUT [31:0] $end
$var reg 32 @" PC_PLUS_4_OUT [31:0] $end
$upscope $end
$scope module JAL_MUX $end
$var wire 32 A" INPUT_0 [31:0] $end
$var wire 32 B" INPUT_1 [31:0] $end
$var wire 1 G SELECT $end
$var reg 32 C" OUTPUT [31:0] $end
$upscope $end
$scope module MEM_WBPipeline1 $end
$var wire 32 D" ALU_Output [31:0] $end
$var wire 1 ! CLK $end
$var wire 1 A Memory_access $end
$var wire 1 " Reset $end
$var wire 5 E" Write_Address [4:0] $end
$var wire 1 % Write_enable $end
$var wire 32 F" Memory_Data [31:0] $end
$var reg 32 G" ALU_Output_Out [31:0] $end
$var reg 32 H" Memory_Data_Out [31:0] $end
$var reg 1 ? Memory_access_Out $end
$var reg 5 I" Write_Address_out [4:0] $end
$var reg 1 # Write_Enable_Out $end
$upscope $end
$scope module Memory_access_MUX $end
$var wire 32 J" INPUT_0 [31:0] $end
$var wire 32 K" INPUT_1 [31:0] $end
$var wire 1 ? SELECT $end
$var reg 32 L" OUTPUT [31:0] $end
$upscope $end
$scope module PC_MUX $end
$var wire 32 M" INPUT_1 [31:0] $end
$var wire 1 6 SELECT $end
$var wire 32 N" INPUT_0 [31:0] $end
$var reg 32 O" OUTPUT [31:0] $end
$upscope $end
$scope module controlunit1 $end
$var wire 32 P" INSTRUCTION [31:0] $end
$var wire 7 Q" OPCODE [6:0] $end
$var wire 7 R" FUNCT7 [6:0] $end
$var wire 3 S" FUNCT3 [2:0] $end
$var reg 5 T" ALU_OPCODE [4:0] $end
$var reg 1 ] BRANCH $end
$var reg 2 U" IMMEDIATE_SELECT [1:0] $end
$var reg 3 V" IMMEDIATE_TYPE [2:0] $end
$var reg 1 E JUMP $end
$var reg 1 D JUMP_AND_LINK $end
$var reg 1 B MEMORY_ACCESS $end
$var reg 1 > MEM_READ $end
$var reg 1 ; MEM_WRITE $end
$var reg 2 W" OFFSET_GENARATOR [1:0] $end
$var reg 1 & WRITE_ENABLE $end
$upscope $end
$scope module datamemory1 $end
$var wire 32 X" ADDRESS [31:0] $end
$var wire 1 ! CLK $end
$var wire 3 Y" FUNCT3 [2:0] $end
$var wire 1 = READ $end
$var wire 1 " RESET $end
$var wire 1 : WRITE $end
$var wire 32 Z" WRITEDATA [31:0] $end
$var reg 1 [ BUSYWAIT $end
$var reg 32 [" READDATA [31:0] $end
$var integer 32 \" i [31:0] $end
$upscope $end
$scope module imidiateGenarator1 $end
$var wire 3 ]" IMMEDIATE_TYPE [2:0] $end
$var wire 32 ^" INSTRUCTION [31:0] $end
$var reg 32 _" IMMEDIATE_VALUE [31:0] $end
$upscope $end
$scope module immForwarding $end
$var wire 2 `" ControlUnit_IMMEDIATE_SELECT [1:0] $end
$var wire 2 a" ControlUnit_OFFSET_GENARATOR [1:0] $end
$var wire 32 b" INSTRUCTION [31:0] $end
$var wire 5 c" SR2 [4:0] $end
$var wire 5 d" SR1 [4:0] $end
$var wire 5 e" RD [4:0] $end
$var wire 7 f" OPCODE [6:0] $end
$var reg 2 g" Data1_OffsetGenarator [1:0] $end
$var reg 2 h" Data2_ImmediateSelect [1:0] $end
$var reg 5 i" RD_imm_old [4:0] $end
$var reg 5 j" RD_old_old [4:0] $end
$upscope $end
$scope module instructionmem1 $end
$var wire 1 " RESET $end
$var wire 32 k" PC [31:0] $end
$var reg 32 l" INSTRUCTION [31:0] $end
$upscope $end
$scope module pc1 $end
$var wire 1 ! CLK $end
$var wire 32 m" PCIN [31:0] $end
$var wire 1 " RESET $end
$var reg 32 n" PCOUT [31:0] $end
$upscope $end
$scope module pc_4_adder $end
$var wire 32 o" PC [31:0] $end
$var wire 32 p" PCPLUS4 [31:0] $end
$upscope $end
$scope module registerfile1 $end
$var wire 1 ! CLK $end
$var wire 1 " RESET $end
$var wire 5 q" RS1 [4:0] $end
$var wire 5 r" RS2 [4:0] $end
$var wire 5 s" WRITEADDRESS [4:0] $end
$var wire 32 t" WRITEDATA [31:0] $end
$var wire 1 # WRITEENABLE $end
$var reg 32 u" DATA1 [31:0] $end
$var reg 32 v" DATA2 [31:0] $end
$upscope $end
$upscope $end
$scope begin $ivl_for_loop0 $end
$var integer 32 w" i [31:0] $end
$upscope $end
$scope begin $ivl_for_loop1 $end
$var integer 32 x" i [31:0] $end
$upscope $end
$upscope $end
$scope module cpu_testbench $end
$scope module cpu_inst $end
$scope module registerfile1 $end
$var reg 32 y" \registers[0] [31:0] $end
$upscope $end
$upscope $end
$upscope $end
$scope module cpu_testbench $end
$scope module cpu_inst $end
$scope module registerfile1 $end
$var reg 32 z" \registers[1] [31:0] $end
$upscope $end
$upscope $end
$upscope $end
$scope module cpu_testbench $end
$scope module cpu_inst $end
$scope module registerfile1 $end
$var reg 32 {" \registers[2] [31:0] $end
$upscope $end
$upscope $end
$upscope $end
$scope module cpu_testbench $end
$scope module cpu_inst $end
$scope module registerfile1 $end
$var reg 32 |" \registers[3] [31:0] $end
$upscope $end
$upscope $end
$upscope $end
$scope module cpu_testbench $end
$scope module cpu_inst $end
$scope module registerfile1 $end
$var reg 32 }" \registers[4] [31:0] $end
$upscope $end
$upscope $end
$upscope $end
$scope module cpu_testbench $end
$scope module cpu_inst $end
$scope module registerfile1 $end
$var reg 32 ~" \registers[5] [31:0] $end
$upscope $end
$upscope $end
$upscope $end
$scope module cpu_testbench $end
$scope module cpu_inst $end
$scope module registerfile1 $end
$var reg 32 !# \registers[6] [31:0] $end
$upscope $end
$upscope $end
$upscope $end
$scope module cpu_testbench $end
$scope module cpu_inst $end
$scope module registerfile1 $end
$var reg 32 "# \registers[7] [31:0] $end
$upscope $end
$upscope $end
$upscope $end
$scope module cpu_testbench $end
$scope module cpu_inst $end
$scope module registerfile1 $end
$var reg 32 ## \registers[8] [31:0] $end
$upscope $end
$upscope $end
$upscope $end
$scope module cpu_testbench $end
$scope module cpu_inst $end
$scope module registerfile1 $end
$var reg 32 $# \registers[9] [31:0] $end
$upscope $end
$upscope $end
$upscope $end
$scope module cpu_testbench $end
$scope module cpu_inst $end
$scope module registerfile1 $end
$var reg 32 %# \registers[10] [31:0] $end
$upscope $end
$upscope $end
$upscope $end
$scope module cpu_testbench $end
$scope module cpu_inst $end
$scope module registerfile1 $end
$var reg 32 &# \registers[11] [31:0] $end
$upscope $end
$upscope $end
$upscope $end
$scope module cpu_testbench $end
$scope module cpu_inst $end
$scope module registerfile1 $end
$var reg 32 '# \registers[12] [31:0] $end
$upscope $end
$upscope $end
$upscope $end
$scope module cpu_testbench $end
$scope module cpu_inst $end
$scope module registerfile1 $end
$var reg 32 (# \registers[13] [31:0] $end
$upscope $end
$upscope $end
$upscope $end
$scope module cpu_testbench $end
$scope module cpu_inst $end
$scope module registerfile1 $end
$var reg 32 )# \registers[14] [31:0] $end
$upscope $end
$upscope $end
$upscope $end
$scope module cpu_testbench $end
$scope module cpu_inst $end
$scope module registerfile1 $end
$var reg 32 *# \registers[15] [31:0] $end
$upscope $end
$upscope $end
$upscope $end
$scope module cpu_testbench $end
$scope module cpu_inst $end
$scope module registerfile1 $end
$var reg 32 +# \registers[16] [31:0] $end
$upscope $end
$upscope $end
$upscope $end
$scope module cpu_testbench $end
$scope module cpu_inst $end
$scope module registerfile1 $end
$var reg 32 ,# \registers[17] [31:0] $end
$upscope $end
$upscope $end
$upscope $end
$scope module cpu_testbench $end
$scope module cpu_inst $end
$scope module registerfile1 $end
$var reg 32 -# \registers[18] [31:0] $end
$upscope $end
$upscope $end
$upscope $end
$scope module cpu_testbench $end
$scope module cpu_inst $end
$scope module registerfile1 $end
$var reg 32 .# \registers[19] [31:0] $end
$upscope $end
$upscope $end
$upscope $end
$scope module cpu_testbench $end
$scope module cpu_inst $end
$scope module registerfile1 $end
$var reg 32 /# \registers[20] [31:0] $end
$upscope $end
$upscope $end
$upscope $end
$scope module cpu_testbench $end
$scope module cpu_inst $end
$scope module registerfile1 $end
$var reg 32 0# \registers[21] [31:0] $end
$upscope $end
$upscope $end
$upscope $end
$scope module cpu_testbench $end
$scope module cpu_inst $end
$scope module registerfile1 $end
$var reg 32 1# \registers[22] [31:0] $end
$upscope $end
$upscope $end
$upscope $end
$scope module cpu_testbench $end
$scope module cpu_inst $end
$scope module registerfile1 $end
$var reg 32 2# \registers[23] [31:0] $end
$upscope $end
$upscope $end
$upscope $end
$scope module cpu_testbench $end
$scope module cpu_inst $end
$scope module registerfile1 $end
$var reg 32 3# \registers[24] [31:0] $end
$upscope $end
$upscope $end
$upscope $end
$scope module cpu_testbench $end
$scope module cpu_inst $end
$scope module registerfile1 $end
$var reg 32 4# \registers[25] [31:0] $end
$upscope $end
$upscope $end
$upscope $end
$scope module cpu_testbench $end
$scope module cpu_inst $end
$scope module registerfile1 $end
$var reg 32 5# \registers[26] [31:0] $end
$upscope $end
$upscope $end
$upscope $end
$scope module cpu_testbench $end
$scope module cpu_inst $end
$scope module registerfile1 $end
$var reg 32 6# \registers[27] [31:0] $end
$upscope $end
$upscope $end
$upscope $end
$scope module cpu_testbench $end
$scope module cpu_inst $end
$scope module registerfile1 $end
$var reg 32 7# \registers[28] [31:0] $end
$upscope $end
$upscope $end
$upscope $end
$scope module cpu_testbench $end
$scope module cpu_inst $end
$scope module registerfile1 $end
$var reg 32 8# \registers[29] [31:0] $end
$upscope $end
$upscope $end
$upscope $end
$scope module cpu_testbench $end
$scope module cpu_inst $end
$scope module registerfile1 $end
$var reg 32 9# \registers[30] [31:0] $end
$upscope $end
$upscope $end
$upscope $end
$scope module cpu_testbench $end
$scope module cpu_inst $end
$scope module registerfile1 $end
$var reg 32 :# \registers[31] [31:0] $end
$upscope $end
$upscope $end
$upscope $end
$scope module cpu_testbench $end
$scope module cpu_inst $end
$scope module datamemory1 $end
$var reg 8 ;# \memory_array[0] [7:0] $end
$upscope $end
$upscope $end
$upscope $end
$scope module cpu_testbench $end
$scope module cpu_inst $end
$scope module datamemory1 $end
$var reg 8 <# \memory_array[1] [7:0] $end
$upscope $end
$upscope $end
$upscope $end
$scope module cpu_testbench $end
$scope module cpu_inst $end
$scope module datamemory1 $end
$var reg 8 =# \memory_array[2] [7:0] $end
$upscope $end
$upscope $end
$upscope $end
$scope module cpu_testbench $end
$scope module cpu_inst $end
$scope module datamemory1 $end
$var reg 8 ># \memory_array[3] [7:0] $end
$upscope $end
$upscope $end
$upscope $end
$scope module cpu_testbench $end
$scope module cpu_inst $end
$scope module datamemory1 $end
$var reg 8 ?# \memory_array[4] [7:0] $end
$upscope $end
$upscope $end
$upscope $end
$scope module cpu_testbench $end
$scope module cpu_inst $end
$scope module datamemory1 $end
$var reg 8 @# \memory_array[5] [7:0] $end
$upscope $end
$upscope $end
$upscope $end
$scope module cpu_testbench $end
$scope module cpu_inst $end
$scope module datamemory1 $end
$var reg 8 A# \memory_array[6] [7:0] $end
$upscope $end
$upscope $end
$upscope $end
$scope module cpu_testbench $end
$scope module cpu_inst $end
$scope module datamemory1 $end
$var reg 8 B# \memory_array[7] [7:0] $end
$upscope $end
$upscope $end
$upscope $end
$scope module cpu_testbench $end
$scope module cpu_inst $end
$scope module datamemory1 $end
$var reg 8 C# \memory_array[8] [7:0] $end
$upscope $end
$upscope $end
$upscope $end
$scope module cpu_testbench $end
$scope module cpu_inst $end
$scope module datamemory1 $end
$var reg 8 D# \memory_array[9] [7:0] $end
$upscope $end
$upscope $end
$upscope $end
$scope module cpu_testbench $end
$scope module cpu_inst $end
$scope module datamemory1 $end
$var reg 8 E# \memory_array[10] [7:0] $end
$upscope $end
$upscope $end
$upscope $end
$scope module cpu_testbench $end
$scope module cpu_inst $end
$scope module datamemory1 $end
$var reg 8 F# \memory_array[11] [7:0] $end
$upscope $end
$upscope $end
$upscope $end
$scope module cpu_testbench $end
$scope module cpu_inst $end
$scope module datamemory1 $end
$var reg 8 G# \memory_array[12] [7:0] $end
$upscope $end
$upscope $end
$upscope $end
$scope module cpu_testbench $end
$scope module cpu_inst $end
$scope module datamemory1 $end
$var reg 8 H# \memory_array[13] [7:0] $end
$upscope $end
$upscope $end
$upscope $end
$scope module cpu_testbench $end
$scope module cpu_inst $end
$scope module datamemory1 $end
$var reg 8 I# \memory_array[14] [7:0] $end
$upscope $end
$upscope $end
$upscope $end
$scope module cpu_testbench $end
$scope module cpu_inst $end
$scope module datamemory1 $end
$var reg 8 J# \memory_array[15] [7:0] $end
$upscope $end
$upscope $end
$upscope $end
$scope module cpu_testbench $end
$scope module cpu_inst $end
$scope module datamemory1 $end
$var reg 8 K# \memory_array[16] [7:0] $end
$upscope $end
$upscope $end
$upscope $end
$scope module cpu_testbench $end
$scope module cpu_inst $end
$scope module datamemory1 $end
$var reg 8 L# \memory_array[17] [7:0] $end
$upscope $end
$upscope $end
$upscope $end
$scope module cpu_testbench $end
$scope module cpu_inst $end
$scope module datamemory1 $end
$var reg 8 M# \memory_array[18] [7:0] $end
$upscope $end
$upscope $end
$upscope $end
$scope module cpu_testbench $end
$scope module cpu_inst $end
$scope module datamemory1 $end
$var reg 8 N# \memory_array[19] [7:0] $end
$upscope $end
$upscope $end
$upscope $end
$enddefinitions $end
$comment Show the parameter values. $end
$dumpall
$end
#0
$dumpvars
b0 N#
b0 M#
b0 L#
b0 K#
b0 J#
b0 I#
b0 H#
b0 G#
b0 F#
b0 E#
b0 D#
b0 C#
b0 B#
b0 A#
b0 @#
b0 ?#
b0 >#
b0 =#
b0 <#
b0 ;#
bx :#
bx 9#
bx 8#
bx 7#
bx 6#
bx 5#
bx 4#
bx 3#
bx 2#
bx 1#
bx 0#
bx /#
bx .#
bx -#
bx ,#
bx +#
bx *#
bx )#
bx (#
bx '#
bx &#
bx %#
bx $#
bx ##
bx "#
bx !#
bx ~"
bx }"
bx |"
bx {"
bx z"
bx y"
b10100 x"
b100000 w"
bx v"
bx u"
bx t"
bx s"
bx r"
bx q"
bx p"
bx o"
bx n"
bx m"
bx l"
bx k"
bx j"
bx i"
bx h"
bx g"
bx f"
bx e"
bx d"
bx c"
bx b"
bx a"
bx `"
bx _"
bx ^"
bx ]"
b10000000000 \"
bx ["
bx Z"
bx Y"
bx X"
bx W"
bx V"
bx U"
bx T"
bx S"
bx R"
bx Q"
bx P"
bx O"
bx N"
bx M"
bx L"
bx K"
bx J"
bx I"
bx H"
bx G"
bx F"
bx E"
bx D"
bx C"
bx B"
bx A"
bx @"
bx ?"
bx >"
bx ="
bx <"
bx ;"
bx :"
bx 9"
bx 8"
bx 7"
bx 6"
bx 5"
bx 4"
bx 3"
bx 2"
bx 1"
bx 0"
bx /"
bx ."
bx -"
bx ,"
bx +"
bx *"
bx )"
bx ("
bx '"
bx &"
bx %"
bx $"
bx #"
bx ""
bx !"
bx ~
bx }
bx |
bx {
bx z
bx y
bx x
bx w
bx v
bx u
bx t
bx s
bx r
bx q
bx p
bx o
bx n
bx m
bx l
bx k
bx j
bx i
bx h
bx g
bx f
bx e
bx d
bx c
bx b
bx a
bx `
bx _
bx ^
x]
x\
x[
bx Z
bx Y
bx X
bx W
bx V
bx U
bx T
bx S
bx R
bx Q
bx P
bx O
bx N
bx M
bx L
bx K
bx J
bx I
bx H
xG
bx F
xE
xD
xC
xB
xA
x@
x?
x>
x=
x<
x;
x:
x9
bx 8
bx 7
x6
bx 5
bx 4
bx 3
bx 2
bx 1
bx 0
bx /
bx .
bx -
bx ,
bx +
bx *
bx )
bx (
bx '
x&
x%
x$
x#
1"
0!
$end
#1
b0 I
b0 ="
b0 l"
b0 :#
b0 9#
b0 8#
b0 7#
b0 6#
b0 5#
b0 4#
b0 3#
b0 2#
b0 1#
b0 0#
b0 /#
b0 .#
b0 -#
b0 ,#
b0 +#
b0 *#
b0 )#
b0 (#
b0 '#
b0 &#
b0 %#
b0 $#
b0 ##
b0 "#
b0 !#
b0 ~"
b0 }"
b0 |"
b0 {"
b0 z"
b0 y"
#2
06
#4
1!
#5
b0 Q"
b0 S"
b0 R"
b0 f"
b0 d"
b0 c"
b0 e"
b0 ,
b0 r"
b0 -
b0 q"
b0 /
b0 )"
b0 @"
b0 2
b0 *"
b0 ?"
b0 H
b0 ("
b0 >"
b0 P"
b0 ^"
b0 b"
0"
#6
bx I
bx ="
bx l"
b0 5
b0 <"
b0 k"
b0 n"
b0 o"
#7
b11100000000001100010011 I
b11100000000001100010011 ="
b11100000000001100010011 l"
b0 V
b0 ."
b0 v"
b0 X
b0 /"
b0 u"
b100 3
b100 O"
b100 m"
b100 1
b100 ;"
b100 N"
b100 p"
#8
0!
#12
1!
#14
b0 F
b0 #"
b0 C"
b0 R
b0 g
b0 w
b10011 Q"
b10011 f"
b111 c"
b110 e"
b111 ,
b111 r"
b0 i"
b0 O
b0 n
b0 !"
b0 :"
b0 )
b0 ~
b0 9"
b0 T
b0 o
b0 |
b0 ""
b0 3"
b0 W
b0 p
b0 v
b0 2"
b0 0
b0 8"
b0 B"
b0 4
b0 u
b0 7"
b100 /
b100 )"
b100 @"
b11100000000001100010011 H
b11100000000001100010011 ("
b11100000000001100010011 >"
b11100000000001100010011 P"
b11100000000001100010011 ^"
b11100000000001100010011 b"
b100 5
b100 <"
b100 k"
b100 n"
b100 o"
#15
b101100000000001000010011 I
b101100000000001000010011 ="
b101100000000001000010011 l"
b10 N
b10 -"
b10 h"
b0 8
b0 +"
b0 g"
b1000 3
b1000 O"
b1000 m"
b0 b
b0 l
b0 m
b0 A"
b0 _
b0 0"
b0 T"
0E
0]
b0 Y
b0 W"
b0 a"
b10 Z
b10 U"
b10 `"
0D
0>
0;
0B
1&
b0 L
b0 V"
b0 ]"
b1000 1
b1000 ;"
b1000 N"
b1000 p"
#16
b0 +
b0 q
b0 M"
b111 K
b111 ,"
b111 _"
0!
#20
1!
#22
b0 j
b0 i
b0 h
b1011 c"
b100 e"
b1011 ,
b1011 r"
b110 i"
b0 j"
b0 d
b0 c
b0 e
b111 Q
b111 f
b111 }
b1000 5
b1000 <"
b1000 k"
b1000 n"
b1000 o"
b1000 /
b1000 )"
b1000 @"
b100 2
b100 *"
b100 ?"
b101100000000001000010011 H
b101100000000001000010011 ("
b101100000000001000010011 >"
b101100000000001000010011 P"
b101100000000001000010011 ^"
b101100000000001000010011 b"
b111 J
b111 {
b111 5"
b110 )
b110 ~
b110 9"
b100 0
b100 8"
b100 B"
b0 ^
b0 k
b0 1"
0C
0\
b0 7
b0 r
b0 6"
b10 M
b10 x
b10 4"
0G
0<
09
0@
1$
b0 U
b0 %"
b0 Z"
b0 P
b0 &"
b0 Y"
b0 *
b0 '"
b0 E"
b0 a
b0 t
b0 z
b0 $"
b0 D"
b0 X"
#23
b110000000000001010010011 I
b110000000000001010010011 ="
b110000000000001010010011 l"
b1100 3
b1100 O"
b1100 m"
b1100 1
b1100 ;"
b1100 N"
b1100 p"
#24
b111 F
b111 #"
b111 C"
b1011 K
b1011 ,"
b1011 _"
b111 b
b111 l
b111 m
b111 A"
0!
#25
b111 +
b111 q
b111 M"
#28
1!
#30
0[
b1011 Q
b1011 f
b1011 }
b1100 c"
b101 e"
b1100 ,
b1100 r"
b100 i"
b110 j"
b0 (
b0 I"
b0 s"
b0 `
b0 s
b0 y
b0 G"
b0 J"
b110 *
b110 '"
b110 E"
b111 a
b111 t
b111 z
b111 $"
b111 D"
b111 X"
0=
0:
0A
1%
b1011 J
b1011 {
b1011 5"
b100 )
b100 ~
b100 9"
b1000 0
b1000 8"
b1000 B"
b100 4
b100 u
b100 7"
b1100 /
b1100 )"
b1100 @"
b1000 2
b1000 *"
b1000 ?"
b110000000000001010010011 H
b110000000000001010010011 ("
b110000000000001010010011 >"
b110000000000001010010011 P"
b110000000000001010010011 ^"
b110000000000001010010011 b"
b1100 5
b1100 <"
b1100 k"
b1100 n"
b1100 o"
#31
b10000110000001110110011 I
b10000110000001110110011 ="
b10000110000001110110011 l"
b10000 3
b10000 O"
b10000 m"
b10000 1
b10000 ;"
b10000 N"
b10000 p"
#32
b1011 F
b1011 #"
b1011 C"
b1011 b
b1011 l
b1011 m
b1011 A"
b1100 K
b1100 ,"
b1100 _"
0!
#33
b1011 +
b1011 q
b1011 M"
#36
1!
#38
b1 N
b1 -"
b1 h"
b110011 Q"
b110011 f"
b110 d"
b100 c"
b111 e"
b100 ,
b100 r"
b110 -
b110 q"
b101 i"
b100 j"
b1100 Q
b1100 f
b1100 }
b111 '
b111 L"
b111 t"
b10000 5
b10000 <"
b10000 k"
b10000 n"
b10000 o"
b10000 /
b10000 )"
b10000 @"
b1100 2
b1100 *"
b1100 ?"
b10000110000001110110011 H
b10000110000001110110011 ("
b10000110000001110110011 >"
b10000110000001110110011 P"
b10000110000001110110011 ^"
b10000110000001110110011 b"
b1100 J
b1100 {
b1100 5"
b101 )
b101 ~
b101 9"
b1100 0
b1100 8"
b1100 B"
b1000 4
b1000 u
b1000 7"
b100 *
b100 '"
b100 E"
b1011 a
b1011 t
b1011 z
b1011 $"
b1011 D"
b1011 X"
b110 (
b110 I"
b110 s"
b111 `
b111 s
b111 y
b111 G"
b111 J"
0?
1#
#39
b1000000011000100000010000110011 I
b1000000011000100000010000110011 ="
b1000000011000100000010000110011 l"
b111 !#
b10100 3
b10100 O"
b10100 m"
b0 Z
b0 U"
b0 `"
bx L
bx V"
bx ]"
b10100 1
b10100 ;"
b10100 N"
b10100 p"
#40
b111 X
b111 /"
b111 u"
b1100 F
b1100 #"
b1100 C"
b1100 b
b1100 l
b1100 m
b1100 A"
0!
#41
b1100 +
b1100 q
b1100 M"
#44
1!
