CPU/cpu_pipeline.vcd
$date
	Mon Jan 06 13:12:52 2025
$end
$version
	Icarus Verilog
$end
$timescale
	1s
$end
$scope module cpu_testbench $end
$var reg 1 ! CLK $end
$var reg 1 " RESET $end
$scope module cpu_inst $end
$var wire 1 ! CLK $end
$var wire 1 " RESET $end
$var wire 1 # WRITEENABLE_MEMOUT $end
$var wire 1 $ WRITEENABLE_IDOUT $end
$var wire 1 % WRITEENABLE_EXOUT $end
$var wire 1 & WRITEENABLE $end
$var wire 32 ' WRITEDATA [31:0] $end
$var wire 5 ( WRITEADDRESS_MEMOUT [4:0] $end
$var wire 5 ) WRITEADDRESS_IDOUT [4:0] $end
$var wire 5 * WRITEADDRESS_EXOUT [4:0] $end
$var wire 32 + TARGETEDADDRESS [31:0] $end
$var wire 5 , RS2 [4:0] $end
$var wire 5 - RS1 [4:0] $end
$var wire 32 . READDATA_MEMOUT [31:0] $end
$var wire 32 / PC_PLUS_4_OUT [31:0] $end
$var wire 32 0 PC_PLUS_4_IDOUT [31:0] $end
$var wire 32 1 PC_PLUS_4 [31:0] $end
$var wire 32 2 PC_OUT [31:0] $end
$var wire 32 3 PC_MUX_OUT [31:0] $end
$var wire 32 4 PC_IDOUT [31:0] $end
$var wire 32 5 PCOUT [31:0] $end
$var wire 1 6 PCADDRESSCONTROLLER $end
$var wire 1 7 OFFSETGENARATOR_IDOUT $end
$var wire 1 8 OFFSETGENARATOR $end
$var wire 1 9 MEMWRITE_IDOUT $end
$var wire 1 : MEMWRITE_EXOUT $end
$var wire 1 ; MEMWRITE $end
$var wire 1 < MEMREAD_IDOUT $end
$var wire 1 = MEMREAD_EXOUT $end
$var wire 1 > MEMREAD $end
$var wire 1 ? MEMORYACCESS_MEMOUT $end
$var wire 1 @ MEMORYACCESS_IDOUT $end
$var wire 1 A MEMORYACCESS_EXOUT $end
$var wire 1 B MEMORYACCESS $end
$var wire 1 C JUMP_IDOUT $end
$var wire 1 D JUMPANDLINK $end
$var wire 1 E JUMP $end
$var wire 32 F JAL_MUX_OUT [31:0] $end
$var wire 1 G JAL_IDOUT $end
$var wire 32 H INSTRUCTION_OUT [31:0] $end
$var wire 32 I INSTRUCTION [31:0] $end
$var wire 32 J IMMEDIATE_VALUE_IDOUT [31:0] $end
$var wire 32 K IMMEDIATE_VALUE [31:0] $end
$var wire 3 L IMMEDIATE_TYPE [2:0] $end
$var wire 1 M IMMEDIATESELECT_IDOUT $end
$var wire 1 N IMMEDIATESELECT $end
$var wire 3 O FUNCT3_IDOUT [2:0] $end
$var wire 3 P FUNCT3_EXOUT [2:0] $end
$var wire 32 Q Data2_MUX_OUT [31:0] $end
$var wire 32 R Data1_MUX_OUT [31:0] $end
$var wire 32 S DATA_OUT [31:0] $end
$var wire 32 T DATA2_IDOUT [31:0] $end
$var wire 32 U DATA2_EXOUT [31:0] $end
$var wire 32 V DATA2 [31:0] $end
$var wire 32 W DATA1_IDOUT [31:0] $end
$var wire 32 X DATA1 [31:0] $end
$var wire 1 Y BUSYWAIT $end
$var wire 1 Z BRANCH_IDOUT $end
$var wire 1 [ BRANCH $end
$var wire 5 \ ALU_OPCODE_IDOUT [4:0] $end
$var wire 5 ] ALU_OPCODE [4:0] $end
$var wire 32 ^ ALURESULT_MEMOUT [31:0] $end
$var wire 32 _ ALURESULT_EXOUT [31:0] $end
$var wire 32 ` ALURESULT [31:0] $end
$scope module ALU $end
$var wire 64 a mulhu_result [63:0] $end
$var wire 64 b mulhsu_result [63:0] $end
$var wire 64 c mulh_result [63:0] $end
$var wire 32 d data2 [31:0] $end
$var wire 32 e data1 [31:0] $end
$var wire 32 f MULH_result [31:0] $end
$var wire 32 g MULHU_result [31:0] $end
$var wire 32 h MULHSU_result [31:0] $end
$var wire 5 i ALU_OPCODE [4:0] $end
$var reg 32 j Output [31:0] $end
$upscope $end
$scope module BranchController1 $end
$var wire 32 k ALUresult [31:0] $end
$var wire 3 l func3 [2:0] $end
$var wire 32 m data2 [31:0] $end
$var wire 32 n data1 [31:0] $end
$var wire 1 C Jump $end
$var wire 1 Z Branch $end
$var reg 1 6 PCAddressController $end
$var reg 32 o TargetedAddress [31:0] $end
$upscope $end
$scope module Data1_MUX $end
$var wire 1 7 SELECT $end
$var wire 32 p INPUT_1 [31:0] $end
$var wire 32 q INPUT_0 [31:0] $end
$var reg 32 r OUTPUT [31:0] $end
$upscope $end
$scope module Data2_MUX $end
$var wire 1 M SELECT $end
$var wire 32 s INPUT_1 [31:0] $end
$var wire 32 t INPUT_0 [31:0] $end
$var reg 32 u OUTPUT [31:0] $end
$upscope $end
$scope module EX_MEM_pipeline1 $end
$var wire 1 ! CLK $end
$var wire 1 " RESET $end
$var wire 1 $ WRITE_ENABLE $end
$var wire 5 v WRITE_ADDRESS [4:0] $end
$var wire 1 9 MEM_WRITE $end
$var wire 1 < MEM_READ $end
$var wire 1 @ MEM_ACCESS $end
$var wire 3 w FUNCT3 [2:0] $end
$var wire 32 x DATA2 [31:0] $end
$var wire 32 y ALU_OUTPUT [31:0] $end
$var reg 32 z ALU_OUTPUT_OUT [31:0] $end
$var reg 32 { DATA2_OUT [31:0] $end
$var reg 3 | FUNCT3_OUT [2:0] $end
$var reg 1 A MEM_ACCESS_OUT $end
$var reg 1 = MEM_READ_OUT $end
$var reg 1 : MEM_WRITE_OUT $end
$var reg 5 } WRITE_ADDRESS_OUT [4:0] $end
$var reg 1 % WRITE_ENABLE_OUT $end
$upscope $end
$scope module ID_EXPipeline1 $end
$var wire 1 ! CLK $end
$var wire 1 " Reset $end
$var wire 32 ~ instruction [31:0] $end
$var wire 1 & Write_Enable $end
$var wire 32 !" PC_next [31:0] $end
$var wire 32 "" PC [31:0] $end
$var wire 1 8 Offset_Generate $end
$var wire 1 B Memory_Access $end
$var wire 1 ; Mem_Write $end
$var wire 1 > Mem_Read $end
$var wire 1 D Jump_and_Link $end
$var wire 1 E Jump $end
$var wire 32 #" Immediate_value [31:0] $end
$var wire 1 N Immediate_Select $end
$var wire 32 $" Data2 [31:0] $end
$var wire 32 %" Data1 [31:0] $end
$var wire 1 [ Branch $end
$var wire 5 &" ALU_Opcode [4:0] $end
$var reg 5 '" Out_ALU_Opcode [4:0] $end
$var reg 1 Z Out_Branch $end
$var reg 32 (" Out_Data1 [31:0] $end
$var reg 32 )" Out_Data2 [31:0] $end
$var reg 1 M Out_Immediate_Select $end
$var reg 32 *" Out_Immediate_value [31:0] $end
$var reg 1 C Out_Jump $end
$var reg 1 G Out_Jump_and_Link $end
$var reg 1 < Out_Mem_Read $end
$var reg 1 9 Out_Mem_Write $end
$var reg 1 @ Out_Memory_Access $end
$var reg 1 7 Out_Offset_Generate $end
$var reg 32 +" Out_PC [31:0] $end
$var reg 32 ," Out_PC_next [31:0] $end
$var reg 5 -" Out_WriteAddress [4:0] $end
$var reg 1 $ Out_Write_Enable $end
$var reg 3 ." Out_func3 [2:0] $end
$upscope $end
$scope module ID_IF_register1 $end
$var wire 1 ! CLK $end
$var wire 1 " RESET $end
$var wire 32 /" PC_PLUS_4 [31:0] $end
$var wire 32 0" PC [31:0] $end
$var wire 32 1" INSTRUCTION [31:0] $end
$var reg 32 2" INSTRUCTION_OUT [31:0] $end
$var reg 32 3" PC_OUT [31:0] $end
$var reg 32 4" PC_PLUS_4_OUT [31:0] $end
$upscope $end
$scope module JAL_MUX $end
$var wire 32 5" INPUT_0 [31:0] $end
$var wire 32 6" INPUT_1 [31:0] $end
$var wire 1 G SELECT $end
$var reg 32 7" OUTPUT [31:0] $end
$upscope $end
$scope module MEM_WBPipeline1 $end
$var wire 32 8" ALU_Output [31:0] $end
$var wire 1 ! CLK $end
$var wire 1 A Memory_access $end
$var wire 1 " Reset $end
$var wire 5 9" Write_Address [4:0] $end
$var wire 1 % Write_enable $end
$var wire 32 :" Memory_Data [31:0] $end
$var reg 32 ;" ALU_Output_Out [31:0] $end
$var reg 32 <" Memory_Data_Out [31:0] $end
$var reg 1 ? Memory_access_Out $end
$var reg 5 =" Write_Address_out [4:0] $end
$var reg 1 # Write_Enable_Out $end
$upscope $end
$scope module Memory_access_MUX $end
$var wire 32 >" INPUT_0 [31:0] $end
$var wire 32 ?" INPUT_1 [31:0] $end
$var wire 1 ? SELECT $end
$var reg 32 @" OUTPUT [31:0] $end
$upscope $end
$scope module PC_MUX $end
$var wire 32 A" INPUT_1 [31:0] $end
$var wire 1 6 SELECT $end
$var wire 32 B" INPUT_0 [31:0] $end
$var reg 32 C" OUTPUT [31:0] $end
$upscope $end
$scope module controlunit1 $end
$var wire 32 D" INSTRUCTION [31:0] $end
$var wire 7 E" OPCODE [6:0] $end
$var wire 7 F" FUNCT7 [6:0] $end
$var wire 3 G" FUNCT3 [2:0] $end
$var reg 5 H" ALU_OPCODE [4:0] $end
$var reg 1 [ BRANCH $end
$var reg 1 N IMMEDIATE_SELECT $end
$var reg 3 I" IMMEDIATE_TYPE [2:0] $end
$var reg 1 E JUMP $end
$var reg 1 D JUMP_AND_LINK $end
$var reg 1 B MEMORY_ACCESS $end
$var reg 1 > MEM_READ $end
$var reg 1 ; MEM_WRITE $end
$var reg 1 8 OFFSET_GENARATOR $end
$var reg 1 & WRITE_ENABLE $end
$upscope $end
$scope module datamemory1 $end
$var wire 32 J" ADDRESS [31:0] $end
$var wire 1 ! CLK $end
$var wire 3 K" FUNCT3 [2:0] $end
$var wire 1 = READ $end
$var wire 1 " RESET $end
$var wire 1 : WRITE $end
$var wire 32 L" WRITEDATA [31:0] $end
$var reg 1 Y BUSYWAIT $end
$var reg 32 M" READDATA [31:0] $end
$var integer 32 N" i [31:0] $end
$upscope $end
$scope module imidiateGenarator1 $end
$var wire 3 O" IMMEDIATE_TYPE [2:0] $end
$var wire 32 P" INSTRUCTION [31:0] $end
$var reg 32 Q" IMMEDIATE_VALUE [31:0] $end
$upscope $end
$scope module instructionmem1 $end
$var wire 1 ! CLK $end
$var wire 1 " RESET $end
$var wire 32 R" PC [31:0] $end
$var reg 32 S" INSTRUCTION [31:0] $end
$upscope $end
$scope module pc1 $end
$var wire 1 ! CLK $end
$var wire 32 T" PCIN [31:0] $end
$var wire 1 " RESET $end
$var reg 32 U" PCOUT [31:0] $end
$upscope $end
$scope module pc_4_adder $end
$var wire 32 V" PC [31:0] $end
$var wire 32 W" PCPLUS4 [31:0] $end
$upscope $end
$scope module registerfile1 $end
$var wire 1 ! CLK $end
$var wire 1 " RESET $end
$var wire 5 X" RS1 [4:0] $end
$var wire 5 Y" RS2 [4:0] $end
$var wire 5 Z" WRITEADDRESS [4:0] $end
$var wire 32 [" WRITEDATA [31:0] $end
$var wire 1 # WRITEENABLE $end
$var reg 32 \" DATA1 [31:0] $end
$var reg 32 ]" DATA2 [31:0] $end
$upscope $end
$upscope $end
$upscope $end
$enddefinitions $end
$comment Show the parameter values. $end
$dumpall
$end
#0
$dumpvars
bx ]"
bx \"
bx ["
bx Z"
bx Y"
bx X"
bx W"
bx V"
bx U"
bx T"
bx S"
bx R"
bx Q"
bx P"
bx O"
b10000000000 N"
bx M"
bx L"
bx K"
bx J"
bx I"
bx H"
bx G"
bx F"
bx E"
bx D"
bx C"
bx B"
bx A"
bx @"
bx ?"
bx >"
bx ="
bx <"
bx ;"
bx :"
bx 9"
bx 8"
bx 7"
bx 6"
bx 5"
bx 4"
bx 3"
bx 2"
bx 1"
bx 0"
bx /"
bx ."
bx -"
bx ,"
bx +"
bx *"
bx )"
bx ("
bx '"
bx &"
bx %"
bx $"
bx #"
bx ""
bx !"
bx ~
bx }
bx |
bx {
bx z
bx y
bx x
bx w
bx v
bx u
bx t
bx s
bx r
bx q
bx p
bx o
bx n
bx m
bx l
bx k
bx j
bx i
bx h
bx g
bx f
bx e
bx d
bx c
bx b
bx a
bx `
bx _
bx ^
bx ]
bx \
x[
xZ
xY
bx X
bx W
bx V
bx U
bx T
bx S
bx R
bx Q
bx P
bx O
xN
xM
bx L
bx K
bx J
bx I
bx H
xG
bx F
xE
xD
xC
xB
xA
x@
x?
x>
x=
x<
x;
x:
x9
x8
x7
06
bx 5
bx 4
bx 3
bx 2
bx 1
bx 0
bx /
bx .
bx -
bx ,
bx +
bx *
bx )
bx (
bx '
x&
x%
x$
x#
1"
0!
$end
#1
b0 I
b0 1"
b0 S"
#4
1!
#5
b0 E"
b0 G"
b0 F"
b0 ,
b0 Y"
b0 -
b0 X"
b0 5
b0 0"
b0 R"
b0 U"
b0 V"
b0 /
b0 !"
b0 4"
b0 2
b0 ""
b0 3"
b0 H
b0 ~
b0 2"
b0 D"
b0 P"
bx I
bx 1"
bx S"
0"
#6
b100 3
b100 C"
b100 T"
b100 1
b100 /"
b100 B"
b100 W"
#8
0!
#12
1!
#13
b100 5
b100 0"
b100 R"
b100 U"
b100 V"
b10001111000100001000000010010011 I
b10001111000100001000000010010011 1"
b10001111000100001000000010010011 S"
#14
b0 F
b0 y
b0 7"
b0 R
b0 e
b0 n
b0 r
b10011 E"
b1000111 F"
b10001 ,
b10001 Y"
b1 -
b1 X"
b0 O
b0 l
b0 w
b0 ."
b0 )
b0 v
b0 -"
b0 0
b0 ,"
b0 6"
b0 4
b0 p
b0 +"
b100 /
b100 !"
b100 4"
b100 2
b100 ""
b100 3"
b10001111000100001000000010010011 H
b10001111000100001000000010010011 ~
b10001111000100001000000010010011 2"
b10001111000100001000000010010011 D"
b10001111000100001000000010010011 P"
b1000 3
b1000 C"
b1000 T"
b1000 1
b1000 /"
b1000 B"
b1000 W"
#15
b0 `
b0 j
b0 k
b0 5"
b0 ]
b0 &"
b0 H"
0E
0[
08
1N
0D
0>
0;
0B
1&
b0 L
b0 I"
b0 O"
#16
b0 V
b0 $"
b0 ]"
b0 X
b0 %"
b0 \"
b11111111111111111111100011110001 K
b11111111111111111111100011110001 #"
b11111111111111111111100011110001 Q"
0!
#20
1!
#21
b1000 5
b1000 0"
b1000 R"
b1000 U"
b1000 V"
b1111011000010011 I
b1111011000010011 1"
b1111011000010011 S"
#22
b0 h
b0 g
b0 f
b111 G"
b0 F"
b0 ,
b0 Y"
b0 b
b0 a
b0 c
b11111111111111111111100011110001 Q
b11111111111111111111100011110001 d
b11111111111111111111100011110001 m
b11111111111111111111100011110001 u
b1000 /
b1000 !"
b1000 4"
b1000 2
b1000 ""
b1000 3"
b1111011000010011 H
b1111011000010011 ~
b1111011000010011 2"
b1111011000010011 D"
b1111011000010011 P"
b11111111111111111111100011110001 J
b11111111111111111111100011110001 s
b11111111111111111111100011110001 *"
b1 )
b1 v
b1 -"
b0 T
b0 t
b0 x
b0 )"
b0 W
b0 q
b0 ("
b100 0
b100 ,"
b100 6"
b100 4
b100 p
b100 +"
b0 \
b0 i
b0 '"
0C
0Z
07
1M
0G
0<
09
0@
1$
b0 P
b0 |
b0 K"
b0 *
b0 }
b0 9"
b0 _
b0 z
b0 8"
b0 J"
b1100 3
b1100 C"
b1100 T"
b1100 1
b1100 /"
b1100 B"
b1100 W"
#23
b100 ]
b100 &"
b100 H"
#24
bx V
bx $"
bx ]"
b11111111111111111111100011110001 F
b11111111111111111111100011110001 y
b11111111111111111111100011110001 7"
b0 K
b0 #"
b0 Q"
b11111111111111111111100011110001 `
b11111111111111111111100011110001 j
b11111111111111111111100011110001 k
b11111111111111111111100011110001 5"
0!
#28
1!
#29
b1100 5
b1100 0"
b1100 R"
b1100 U"
b1100 V"
b11110010001101100000000100000011 I
b11110010001101100000000100000011 1"
b11110010001101100000000100000011 S"
#30
0Y
b0 Q
b0 d
b0 m
b0 u
b11 E"
b0 G"
b1111001 F"
b11 ,
b11 Y"
b1100 -
b1100 X"
b0 (
b0 ="
b0 Z"
b0 ^
b0 ;"
b0 >"
b0 U
b0 {
b0 L"
b1 *
b1 }
b1 9"
b11111111111111111111100011110001 _
b11111111111111111111100011110001 z
b11111111111111111111100011110001 8"
b11111111111111111111100011110001 J"
0=
0:
0A
1%
b0 J
b0 s
b0 *"
b111 O
b111 l
b111 w
b111 ."
b1100 )
b1100 v
b1100 -"
bx T
bx t
bx x
bx )"
b1000 0
b1000 ,"
b1000 6"
b1000 4
b1000 p
b1000 +"
b100 \
b100 i
b100 '"
b1100 /
b1100 !"
b1100 4"
b1100 2
b1100 ""
b1100 3"
b11110010001101100000000100000011 H
b11110010001101100000000100000011 ~
b11110010001101100000000100000011 2"
b11110010001101100000000100000011 D"
b11110010001101100000000100000011 P"
b10000 3
b10000 C"
b10000 T"
b10000 1
b10000 /"
b10000 B"
b10000 W"
#31
b0 F
b0 y
b0 7"
b0 ]
b0 &"
b0 H"
1>
1B
b0 `
b0 j
b0 k
b0 5"
#32
b0 V
b0 $"
b0 ]"
b11111111111111111111111100100011 K
b11111111111111111111111100100011 #"
b11111111111111111111111100100011 Q"
0!
#36
1!
#37
b10000 5
b10000 0"
b10000 R"
b10000 U"
b10000 V"
b11110010110000001010000110100011 I
b11110010110000001010000110100011 1"
b11110010110000001010000110100011 S"
#38
b100011 E"
b10 G"
b1100 ,
b1100 Y"
b1 -
b1 X"
b11111111111111111111111100100011 Q
b11111111111111111111111100100011 d
b11111111111111111111111100100011 m
b11111111111111111111111100100011 u
b11111111111111111111100011110001 '
b11111111111111111111100011110001 @"
b11111111111111111111100011110001 ["
b10000 /
b10000 !"
b10000 4"
b10000 2
b10000 ""
b10000 3"
b11110010110000001010000110100011 H
b11110010110000001010000110100011 ~
b11110010110000001010000110100011 2"
b11110010110000001010000110100011 D"
b11110010110000001010000110100011 P"
b11111111111111111111111100100011 J
b11111111111111111111111100100011 s
b11111111111111111111111100100011 *"
b0 O
b0 l
b0 w
b0 ."
b10 )
b10 v
b10 -"
b0 T
b0 t
b0 x
b0 )"
b1100 0
b1100 ,"
b1100 6"
b1100 4
b1100 p
b1100 +"
b0 \
b0 i
b0 '"
1<
1@
bx U
bx {
bx L"
b111 P
b111 |
b111 K"
b1100 *
b1100 }
b1100 9"
b0 _
b0 z
b0 8"
b0 J"
b1 (
b1 ="
b1 Z"
b11111111111111111111100011110001 ^
b11111111111111111111100011110001 ;"
b11111111111111111111100011110001 >"
0?
1#
b10100 3
b10100 C"
b10100 T"
b10100 1
b10100 /"
b10100 B"
b10100 W"
#39
0>
1;
0&
b1 L
b1 I"
b1 O"
#40
b11111111111111111111111100100011 F
b11111111111111111111111100100011 y
b11111111111111111111111100100011 7"
b11111111111111111111111100100011 `
b11111111111111111111111100100011 j
b11111111111111111111111100100011 k
b11111111111111111111111100100011 5"
0!
#44
1!
#45
b10100 5
b10100 0"
b10100 R"
b10100 U"
b10100 V"
bx I
bx 1"
bx S"
#46
b0 '
b0 @"
b0 ["
1Y
bx E"
bx G"
bx F"
bx ,
bx Y"
bx -
bx X"
b1100 (
b1100 ="
b1100 Z"
b0 ^
b0 ;"
b0 >"
b0 U
b0 {
b0 L"
b0 P
b0 |
b0 K"
b10 *
b10 }
b10 9"
b11111111111111111111111100100011 _
b11111111111111111111111100100011 z
b11111111111111111111111100100011 8"
b11111111111111111111111100100011 J"
1=
1A
b10 O
b10 l
b10 w
b10 ."
b11 )
b11 v
b11 -"
b10000 0
b10000 ,"
b10000 6"
b10000 4
b10000 p
b10000 +"
0<
19
0$
b10100 /
b10100 !"
b10100 4"
b10100 2
b10100 ""
b10100 3"
bx H
bx ~
bx 2"
bx D"
bx P"
b11000 3
b11000 C"
b11000 T"
b11000 1
b11000 /"
b11000 B"
b11000 W"
#48
bx V
bx $"
bx ]"
bx X
bx %"
bx \"
bx K
bx #"
bx Q"
0!
#52
1!
#53
b11000 5
b11000 0"
b11000 R"
b11000 U"
b11000 V"
#54
bx h
bx g
bx f
bx Q
bx d
bx m
bx u
bx b
bx a
bx c
bx R
bx e
bx n
bx r
bx '
bx @"
bx ["
b11000 /
b11000 !"
b11000 4"
b11000 2
b11000 ""
b11000 3"
bx J
bx s
bx *"
bx O
bx l
bx w
bx ."
bx )
bx v
bx -"
bx T
bx t
bx x
bx )"
bx W
bx q
bx ("
b10100 0
b10100 ,"
b10100 6"
b10100 4
b10100 p
b10100 +"
b10 P
b10 |
b10 K"
b11 *
b11 }
b11 9"
0=
1:
0%
b10 (
b10 ="
b10 Z"
b11111111111111111111111100100011 ^
b11111111111111111111111100100011 ;"
b11111111111111111111111100100011 >"
1?
b11100 3
b11100 C"
b11100 T"
b11100 1
b11100 /"
b11100 B"
b11100 W"
#56
bx F
bx y
bx 7"
bx `
bx j
bx k
bx 5"
0!
#60
1!
#61
b11100 5
b11100 0"
b11100 R"
b11100 U"
b11100 V"
#62
b11 (
b11 ="
b11 Z"
0#
bx U
bx {
bx L"
bx P
bx |
bx K"
bx *
bx }
bx 9"
bx _
bx z
bx 8"
bx J"
b11000 0
b11000 ,"
b11000 6"
b11000 4
b11000 p
b11000 +"
b11100 /
b11100 !"
b11100 4"
b11100 2
b11100 ""
b11100 3"
b100000 3
b100000 C"
b100000 T"
b100000 1
b100000 /"
b100000 B"
b100000 W"
#64
0!
#68
1!
#69
b100000 5
b100000 0"
b100000 R"
b100000 U"
b100000 V"
#70
b100000 /
b100000 !"
b100000 4"
b100000 2
b100000 ""
b100000 3"
b11100 0
b11100 ,"
b11100 6"
b11100 4
b11100 p
b11100 +"
bx (
bx ="
bx Z"
bx ^
bx ;"
bx >"
b100100 3
b100100 C"
b100100 T"
b100100 1
b100100 /"
b100100 B"
b100100 W"
#72
0!
#76
1!
#77
b100100 5
b100100 0"
b100100 R"
b100100 U"
b100100 V"
#78
b100000 0
b100000 ,"
b100000 6"
b100000 4
b100000 p
b100000 +"
b100100 /
b100100 !"
b100100 4"
b100100 2
b100100 ""
b100100 3"
b101000 3
b101000 C"
b101000 T"
b101000 1
b101000 /"
b101000 B"
b101000 W"
#80
0!
#84
1!
#85
b101000 5
b101000 0"
b101000 R"
b101000 U"
b101000 V"
#86
b101000 /
b101000 !"
b101000 4"
b101000 2
b101000 ""
b101000 3"
b100100 0
b100100 ,"
b100100 6"
b100100 4
b100100 p
b100100 +"
b101100 3
b101100 C"
b101100 T"
b101100 1
b101100 /"
b101100 B"
b101100 W"
#88
0!
#92
1!
#93
b101100 5
b101100 0"
b101100 R"
b101100 U"
b101100 V"
#94
b101000 0
b101000 ,"
b101000 6"
b101000 4
b101000 p
b101000 +"
b101100 /
b101100 !"
b101100 4"
b101100 2
b101100 ""
b101100 3"
b110000 3
b110000 C"
b110000 T"
b110000 1
b110000 /"
b110000 B"
b110000 W"
#96
0!
#100
1!
#101
b110000 5
b110000 0"
b110000 R"
b110000 U"
b110000 V"
#102
b110000 /
b110000 !"
b110000 4"
b110000 2
b110000 ""
b110000 3"
b101100 0
b101100 ,"
b101100 6"
b101100 4
b101100 p
b101100 +"
b110100 3
b110100 C"
b110100 T"
b110100 1
b110100 /"
b110100 B"
b110100 W"
#104
0!
#108
1!
#109
b110100 5
b110100 0"
b110100 R"
b110100 U"
b110100 V"
#110
b110000 0
b110000 ,"
b110000 6"
b110000 4
b110000 p
b110000 +"
b110100 /
b110100 !"
b110100 4"
b110100 2
b110100 ""
b110100 3"
b111000 3
b111000 C"
b111000 T"
b111000 1
b111000 /"
b111000 B"
b111000 W"
#112
0!
#116
1!
#117
b111000 5
b111000 0"
b111000 R"
b111000 U"
b111000 V"
#118
b111000 /
b111000 !"
b111000 4"
b111000 2
b111000 ""
b111000 3"
b110100 0
b110100 ,"
b110100 6"
b110100 4
b110100 p
b110100 +"
b111100 3
b111100 C"
b111100 T"
b111100 1
b111100 /"
b111100 B"
b111100 W"
#120
0!
#124
1!
#125
b111100 5
b111100 0"
b111100 R"
b111100 U"
b111100 V"
#126
b111000 0
b111000 ,"
b111000 6"
b111000 4
b111000 p
b111000 +"
b111100 /
b111100 !"
b111100 4"
b111100 2
b111100 ""
b111100 3"
b1000000 3
b1000000 C"
b1000000 T"
b1000000 1
b1000000 /"
b1000000 B"
b1000000 W"
#128
0!
#132
1!
#133
b1000000 5
b1000000 0"
b1000000 R"
b1000000 U"
b1000000 V"
#134
b1000000 /
b1000000 !"
b1000000 4"
b1000000 2
b1000000 ""
b1000000 3"
b111100 0
b111100 ,"
b111100 6"
b111100 4
b111100 p
b111100 +"
b1000100 3
b1000100 C"
b1000100 T"
b1000100 1
b1000100 /"
b1000100 B"
b1000100 W"
#136
0!
#140
1!
#141
b1000100 5
b1000100 0"
b1000100 R"
b1000100 U"
b1000100 V"
#142
b1000000 0
b1000000 ,"
b1000000 6"
b1000000 4
b1000000 p
b1000000 +"
b1000100 /
b1000100 !"
b1000100 4"
b1000100 2
b1000100 ""
b1000100 3"
b1001000 3
b1001000 C"
b1001000 T"
b1001000 1
b1001000 /"
b1001000 B"
b1001000 W"
#144
0!
#148
1!
#149
b1001000 5
b1001000 0"
b1001000 R"
b1001000 U"
b1001000 V"
#150
b1001000 /
b1001000 !"
b1001000 4"
b1001000 2
b1001000 ""
b1001000 3"
b1000100 0
b1000100 ,"
b1000100 6"
b1000100 4
b1000100 p
b1000100 +"
b1001100 3
b1001100 C"
b1001100 T"
b1001100 1
b1001100 /"
b1001100 B"
b1001100 W"
#152
0!
#156
1!
#157
b1001100 5
b1001100 0"
b1001100 R"
b1001100 U"
b1001100 V"
#158
b1001000 0
b1001000 ,"
b1001000 6"
b1001000 4
b1001000 p
b1001000 +"
b1001100 /
b1001100 !"
b1001100 4"
b1001100 2
b1001100 ""
b1001100 3"
b1010000 3
b1010000 C"
b1010000 T"
b1010000 1
b1010000 /"
b1010000 B"
b1010000 W"
#160
0!
#164
1!
#165
b1010000 5
b1010000 0"
b1010000 R"
b1010000 U"
b1010000 V"
#166
b1010000 /
b1010000 !"
b1010000 4"
b1010000 2
b1010000 ""
b1010000 3"
b1001100 0
b1001100 ,"
b1001100 6"
b1001100 4
b1001100 p
b1001100 +"
b1010100 3
b1010100 C"
b1010100 T"
b1010100 1
b1010100 /"
b1010100 B"
b1010100 W"
#168
0!
#172
1!
#173
b1010100 5
b1010100 0"
b1010100 R"
b1010100 U"
b1010100 V"
#174
b1010000 0
b1010000 ,"
b1010000 6"
b1010000 4
b1010000 p
b1010000 +"
b1010100 /
b1010100 !"
b1010100 4"
b1010100 2
b1010100 ""
b1010100 3"
b1011000 3
b1011000 C"
b1011000 T"
b1011000 1
b1011000 /"
b1011000 B"
b1011000 W"
#176
0!
#180
1!
#181
b1011000 5
b1011000 0"
b1011000 R"
b1011000 U"
b1011000 V"
#182
b1011000 /
b1011000 !"
b1011000 4"
b1011000 2
b1011000 ""
b1011000 3"
b1010100 0
b1010100 ,"
b1010100 6"
b1010100 4
b1010100 p
b1010100 +"
b1011100 3
b1011100 C"
b1011100 T"
b1011100 1
b1011100 /"
b1011100 B"
b1011100 W"
#184
0!
#188
1!
#189
b1011100 5
b1011100 0"
b1011100 R"
b1011100 U"
b1011100 V"
#190
b1011000 0
b1011000 ,"
b1011000 6"
b1011000 4
b1011000 p
b1011000 +"
b1011100 /
b1011100 !"
b1011100 4"
b1011100 2
b1011100 ""
b1011100 3"
b1100000 3
b1100000 C"
b1100000 T"
b1100000 1
b1100000 /"
b1100000 B"
b1100000 W"
#192
0!
#196
1!
#197
b1100000 5
b1100000 0"
b1100000 R"
b1100000 U"
b1100000 V"
#198
b1100000 /
b1100000 !"
b1100000 4"
b1100000 2
b1100000 ""
b1100000 3"
b1011100 0
b1011100 ,"
b1011100 6"
b1011100 4
b1011100 p
b1011100 +"
b1100100 3
b1100100 C"
b1100100 T"
b1100100 1
b1100100 /"
b1100100 B"
b1100100 W"
#200
0!
#204
1!
#205
b1100100 5
b1100100 0"
b1100100 R"
b1100100 U"
b1100100 V"
#206
b1100000 0
b1100000 ,"
b1100000 6"
b1100000 4
b1100000 p
b1100000 +"
b1100100 /
b1100100 !"
b1100100 4"
b1100100 2
b1100100 ""
b1100100 3"
b1101000 3
b1101000 C"
b1101000 T"
b1101000 1
b1101000 /"
b1101000 B"
b1101000 W"
#208
0!
#212
1!
#213
b1101000 5
b1101000 0"
b1101000 R"
b1101000 U"
b1101000 V"
#214
b1101000 /
b1101000 !"
b1101000 4"
b1101000 2
b1101000 ""
b1101000 3"
b1100100 0
b1100100 ,"
b1100100 6"
b1100100 4
b1100100 p
b1100100 +"
b1101100 3
b1101100 C"
b1101100 T"
b1101100 1
b1101100 /"
b1101100 B"
b1101100 W"
#216
0!
#220
1!
#221
b1101100 5
b1101100 0"
b1101100 R"
b1101100 U"
b1101100 V"
#222
b1101000 0
b1101000 ,"
b1101000 6"
b1101000 4
b1101000 p
b1101000 +"
b1101100 /
b1101100 !"
b1101100 4"
b1101100 2
b1101100 ""
b1101100 3"
b1110000 3
b1110000 C"
b1110000 T"
b1110000 1
b1110000 /"
b1110000 B"
b1110000 W"
#224
0!
#228
1!
#229
b1110000 5
b1110000 0"
b1110000 R"
b1110000 U"
b1110000 V"
#230
b1110000 /
b1110000 !"
b1110000 4"
b1110000 2
b1110000 ""
b1110000 3"
b1101100 0
b1101100 ,"
b1101100 6"
b1101100 4
b1101100 p
b1101100 +"
b1110100 3
b1110100 C"
b1110100 T"
b1110100 1
b1110100 /"
b1110100 B"
b1110100 W"
#232
0!
#236
1!
#237
b1110100 5
b1110100 0"
b1110100 R"
b1110100 U"
b1110100 V"
#238
b1110000 0
b1110000 ,"
b1110000 6"
b1110000 4
b1110000 p
b1110000 +"
b1110100 /
b1110100 !"
b1110100 4"
b1110100 2
b1110100 ""
b1110100 3"
b1111000 3
b1111000 C"
b1111000 T"
b1111000 1
b1111000 /"
b1111000 B"
b1111000 W"
#240
0!
#244
1!
#245
b1111000 5
b1111000 0"
b1111000 R"
b1111000 U"
b1111000 V"
