CPU/cpu_pipeline.vcd
$date
	Mon Jan 27 08:39:41 2025
$end
$version
	Icarus Verilog
$end
$timescale
	1s
$end
$scope module cpu_testbench $end
$var reg 1 ! CLK $end
$var reg 1 " RESET $end
$scope module cpu_inst $end
$var wire 1 ! CLK $end
$var wire 1 " RESET $end
$var wire 1 # WRITEENABLE_MEMOUT $end
$var wire 1 $ WRITEENABLE_IDOUT $end
$var wire 1 % WRITEENABLE_EXOUT $end
$var wire 1 & WRITEENABLE $end
$var wire 32 ' WRITEDATA [31:0] $end
$var wire 5 ( WRITEADDRESS_MEMOUT [4:0] $end
$var wire 5 ) WRITEADDRESS_IDOUT [4:0] $end
$var wire 5 * WRITEADDRESS_EXOUT [4:0] $end
$var wire 32 + TARGETEDADDRESS [31:0] $end
$var wire 5 , RS2 [4:0] $end
$var wire 5 - RS1 [4:0] $end
$var wire 32 . READDATA_MEMOUT [31:0] $end
$var wire 32 / PC_PLUS_4_OUT [31:0] $end
$var wire 32 0 PC_PLUS_4_IDOUT [31:0] $end
$var wire 32 1 PC_PLUS_4 [31:0] $end
$var wire 32 2 PC_OUT [31:0] $end
$var wire 32 3 PC_MUX_OUT [31:0] $end
$var wire 32 4 PC_IDOUT [31:0] $end
$var wire 32 5 PCOUT [31:0] $end
$var wire 1 6 PCADDRESSCONTROLLER $end
$var wire 1 7 OFFSETGENARATOR_IDOUT $end
$var wire 1 8 OFFSETGENARATOR $end
$var wire 1 9 MEMWRITE_IDOUT $end
$var wire 1 : MEMWRITE_EXOUT $end
$var wire 1 ; MEMWRITE $end
$var wire 1 < MEMREAD_IDOUT $end
$var wire 1 = MEMREAD_EXOUT $end
$var wire 1 > MEMREAD $end
$var wire 1 ? MEMORYACCESS_MEMOUT $end
$var wire 1 @ MEMORYACCESS_IDOUT $end
$var wire 1 A MEMORYACCESS_EXOUT $end
$var wire 1 B MEMORYACCESS $end
$var wire 1 C JUMP_IDOUT $end
$var wire 1 D JUMPANDLINK $end
$var wire 1 E JUMP $end
$var wire 32 F JAL_MUX_OUT [31:0] $end
$var wire 1 G JAL_IDOUT $end
$var wire 32 H INSTRUCTION_OUT [31:0] $end
$var wire 32 I INSTRUCTION [31:0] $end
$var wire 32 J IMMEDIATE_VALUE_IDOUT [31:0] $end
$var wire 32 K IMMEDIATE_VALUE [31:0] $end
$var wire 3 L IMMEDIATE_TYPE [2:0] $end
$var wire 1 M IMMEDIATESELECT_IDOUT $end
$var wire 1 N IMMEDIATESELECT $end
$var wire 3 O FUNCT3_IDOUT [2:0] $end
$var wire 3 P FUNCT3_EXOUT [2:0] $end
$var wire 32 Q Data2_MUX_OUT [31:0] $end
$var wire 32 R Data1_MUX_OUT [31:0] $end
$var wire 32 S DATA_OUT [31:0] $end
$var wire 32 T DATA2_IDOUT [31:0] $end
$var wire 32 U DATA2_EXOUT [31:0] $end
$var wire 32 V DATA2 [31:0] $end
$var wire 32 W DATA1_IDOUT [31:0] $end
$var wire 32 X DATA1 [31:0] $end
$var wire 1 Y BUSYWAIT $end
$var wire 1 Z BRANCH_IDOUT $end
$var wire 1 [ BRANCH $end
$var wire 5 \ ALU_OPCODE_IDOUT [4:0] $end
$var wire 5 ] ALU_OPCODE [4:0] $end
$var wire 32 ^ ALURESULT_MEMOUT [31:0] $end
$var wire 32 _ ALURESULT_EXOUT [31:0] $end
$var wire 32 ` ALURESULT [31:0] $end
$scope module ALU $end
$var wire 64 a mulhu_result [63:0] $end
$var wire 64 b mulhsu_result [63:0] $end
$var wire 64 c mulh_result [63:0] $end
$var wire 32 d data2 [31:0] $end
$var wire 32 e data1 [31:0] $end
$var wire 32 f MULH_result [31:0] $end
$var wire 32 g MULHU_result [31:0] $end
$var wire 32 h MULHSU_result [31:0] $end
$var wire 5 i ALU_OPCODE [4:0] $end
$var reg 32 j Output [31:0] $end
$upscope $end
$scope module BranchController1 $end
$var wire 32 k ALUresult [31:0] $end
$var wire 3 l func3 [2:0] $end
$var wire 32 m data2 [31:0] $end
$var wire 32 n data1 [31:0] $end
$var wire 1 C Jump $end
$var wire 1 Z Branch $end
$var reg 1 6 PCAddressController $end
$var reg 32 o TargetedAddress [31:0] $end
$upscope $end
$scope module Data1_MUX $end
$var wire 1 7 SELECT $end
$var wire 32 p INPUT_1 [31:0] $end
$var wire 32 q INPUT_0 [31:0] $end
$var reg 32 r OUTPUT [31:0] $end
$upscope $end
$scope module Data2_MUX $end
$var wire 1 M SELECT $end
$var wire 32 s INPUT_1 [31:0] $end
$var wire 32 t INPUT_0 [31:0] $end
$var reg 32 u OUTPUT [31:0] $end
$upscope $end
$scope module EX_MEM_pipeline1 $end
$var wire 1 ! CLK $end
$var wire 1 " RESET $end
$var wire 1 $ WRITE_ENABLE $end
$var wire 5 v WRITE_ADDRESS [4:0] $end
$var wire 1 9 MEM_WRITE $end
$var wire 1 < MEM_READ $end
$var wire 1 @ MEM_ACCESS $end
$var wire 3 w FUNCT3 [2:0] $end
$var wire 32 x DATA2 [31:0] $end
$var wire 32 y ALU_OUTPUT [31:0] $end
$var reg 32 z ALU_OUTPUT_OUT [31:0] $end
$var reg 32 { DATA2_OUT [31:0] $end
$var reg 3 | FUNCT3_OUT [2:0] $end
$var reg 1 A MEM_ACCESS_OUT $end
$var reg 1 = MEM_READ_OUT $end
$var reg 1 : MEM_WRITE_OUT $end
$var reg 5 } WRITE_ADDRESS_OUT [4:0] $end
$var reg 1 % WRITE_ENABLE_OUT $end
$upscope $end
$scope module ID_EXPipeline1 $end
$var wire 1 ! CLK $end
$var wire 1 " Reset $end
$var wire 32 ~ instruction [31:0] $end
$var wire 1 & Write_Enable $end
$var wire 32 !" PC_next [31:0] $end
$var wire 32 "" PC [31:0] $end
$var wire 1 8 Offset_Generate $end
$var wire 1 B Memory_Access $end
$var wire 1 ; Mem_Write $end
$var wire 1 > Mem_Read $end
$var wire 1 D Jump_and_Link $end
$var wire 1 E Jump $end
$var wire 32 #" Immediate_value [31:0] $end
$var wire 1 N Immediate_Select $end
$var wire 32 $" Data2 [31:0] $end
$var wire 32 %" Data1 [31:0] $end
$var wire 1 [ Branch $end
$var wire 5 &" ALU_Opcode [4:0] $end
$var reg 5 '" Out_ALU_Opcode [4:0] $end
$var reg 1 Z Out_Branch $end
$var reg 32 (" Out_Data1 [31:0] $end
$var reg 32 )" Out_Data2 [31:0] $end
$var reg 1 M Out_Immediate_Select $end
$var reg 32 *" Out_Immediate_value [31:0] $end
$var reg 1 C Out_Jump $end
$var reg 1 G Out_Jump_and_Link $end
$var reg 1 < Out_Mem_Read $end
$var reg 1 9 Out_Mem_Write $end
$var reg 1 @ Out_Memory_Access $end
$var reg 1 7 Out_Offset_Generate $end
$var reg 32 +" Out_PC [31:0] $end
$var reg 32 ," Out_PC_next [31:0] $end
$var reg 5 -" Out_WriteAddress [4:0] $end
$var reg 1 $ Out_Write_Enable $end
$var reg 3 ." Out_func3 [2:0] $end
$upscope $end
$scope module ID_IF_register1 $end
$var wire 1 ! CLK $end
$var wire 1 " RESET $end
$var wire 32 /" PC_PLUS_4 [31:0] $end
$var wire 32 0" PC [31:0] $end
$var wire 32 1" INSTRUCTION [31:0] $end
$var reg 32 2" INSTRUCTION_OUT [31:0] $end
$var reg 32 3" PC_OUT [31:0] $end
$var reg 32 4" PC_PLUS_4_OUT [31:0] $end
$upscope $end
$scope module JAL_MUX $end
$var wire 32 5" INPUT_0 [31:0] $end
$var wire 32 6" INPUT_1 [31:0] $end
$var wire 1 G SELECT $end
$var reg 32 7" OUTPUT [31:0] $end
$upscope $end
$scope module MEM_WBPipeline1 $end
$var wire 32 8" ALU_Output [31:0] $end
$var wire 1 ! CLK $end
$var wire 1 A Memory_access $end
$var wire 1 " Reset $end
$var wire 5 9" Write_Address [4:0] $end
$var wire 1 % Write_enable $end
$var wire 32 :" Memory_Data [31:0] $end
$var reg 32 ;" ALU_Output_Out [31:0] $end
$var reg 32 <" Memory_Data_Out [31:0] $end
$var reg 1 ? Memory_access_Out $end
$var reg 5 =" Write_Address_out [4:0] $end
$var reg 1 # Write_Enable_Out $end
$upscope $end
$scope module Memory_access_MUX $end
$var wire 32 >" INPUT_0 [31:0] $end
$var wire 32 ?" INPUT_1 [31:0] $end
$var wire 1 ? SELECT $end
$var reg 32 @" OUTPUT [31:0] $end
$upscope $end
$scope module PC_MUX $end
$var wire 32 A" INPUT_1 [31:0] $end
$var wire 1 6 SELECT $end
$var wire 32 B" INPUT_0 [31:0] $end
$var reg 32 C" OUTPUT [31:0] $end
$upscope $end
$scope module controlunit1 $end
$var wire 32 D" INSTRUCTION [31:0] $end
$var wire 7 E" OPCODE [6:0] $end
$var wire 7 F" FUNCT7 [6:0] $end
$var wire 3 G" FUNCT3 [2:0] $end
$var reg 5 H" ALU_OPCODE [4:0] $end
$var reg 1 [ BRANCH $end
$var reg 1 N IMMEDIATE_SELECT $end
$var reg 3 I" IMMEDIATE_TYPE [2:0] $end
$var reg 1 E JUMP $end
$var reg 1 D JUMP_AND_LINK $end
$var reg 1 B MEMORY_ACCESS $end
$var reg 1 > MEM_READ $end
$var reg 1 ; MEM_WRITE $end
$var reg 1 8 OFFSET_GENARATOR $end
$var reg 1 & WRITE_ENABLE $end
$upscope $end
$scope module datamemory1 $end
$var wire 32 J" ADDRESS [31:0] $end
$var wire 1 ! CLK $end
$var wire 3 K" FUNCT3 [2:0] $end
$var wire 1 = READ $end
$var wire 1 " RESET $end
$var wire 1 : WRITE $end
$var wire 32 L" WRITEDATA [31:0] $end
$var reg 1 Y BUSYWAIT $end
$var reg 32 M" READDATA [31:0] $end
$var integer 32 N" i [31:0] $end
$upscope $end
$scope module imidiateGenarator1 $end
$var wire 3 O" IMMEDIATE_TYPE [2:0] $end
$var wire 32 P" INSTRUCTION [31:0] $end
$var reg 32 Q" IMMEDIATE_VALUE [31:0] $end
$upscope $end
$scope module instructionmem1 $end
$var wire 1 " RESET $end
$var wire 32 R" PC [31:0] $end
$var reg 32 S" INSTRUCTION [31:0] $end
$upscope $end
$scope module pc1 $end
$var wire 1 ! CLK $end
$var wire 32 T" PCIN [31:0] $end
$var wire 1 " RESET $end
$var reg 32 U" PCOUT [31:0] $end
$upscope $end
$scope module pc_4_adder $end
$var wire 32 V" PC [31:0] $end
$var wire 32 W" PCPLUS4 [31:0] $end
$upscope $end
$scope module registerfile1 $end
$var wire 1 ! CLK $end
$var wire 1 " RESET $end
$var wire 5 X" RS1 [4:0] $end
$var wire 5 Y" RS2 [4:0] $end
$var wire 5 Z" WRITEADDRESS [4:0] $end
$var wire 32 [" WRITEDATA [31:0] $end
$var wire 1 # WRITEENABLE $end
$var reg 32 \" DATA1 [31:0] $end
$var reg 32 ]" DATA2 [31:0] $end
$upscope $end
$upscope $end
$scope begin $ivl_for_loop0 $end
$var integer 32 ^" i [31:0] $end
$upscope $end
$scope begin $ivl_for_loop1 $end
$var integer 32 _" i [31:0] $end
$upscope $end
$upscope $end
$scope module cpu_testbench $end
$scope module cpu_inst $end
$scope module registerfile1 $end
$var reg 32 `" \registers[0] [31:0] $end
$upscope $end
$upscope $end
$upscope $end
$scope module cpu_testbench $end
$scope module cpu_inst $end
$scope module registerfile1 $end
$var reg 32 a" \registers[1] [31:0] $end
$upscope $end
$upscope $end
$upscope $end
$scope module cpu_testbench $end
$scope module cpu_inst $end
$scope module registerfile1 $end
$var reg 32 b" \registers[2] [31:0] $end
$upscope $end
$upscope $end
$upscope $end
$scope module cpu_testbench $end
$scope module cpu_inst $end
$scope module registerfile1 $end
$var reg 32 c" \registers[3] [31:0] $end
$upscope $end
$upscope $end
$upscope $end
$scope module cpu_testbench $end
$scope module cpu_inst $end
$scope module registerfile1 $end
$var reg 32 d" \registers[4] [31:0] $end
$upscope $end
$upscope $end
$upscope $end
$scope module cpu_testbench $end
$scope module cpu_inst $end
$scope module registerfile1 $end
$var reg 32 e" \registers[5] [31:0] $end
$upscope $end
$upscope $end
$upscope $end
$scope module cpu_testbench $end
$scope module cpu_inst $end
$scope module registerfile1 $end
$var reg 32 f" \registers[6] [31:0] $end
$upscope $end
$upscope $end
$upscope $end
$scope module cpu_testbench $end
$scope module cpu_inst $end
$scope module registerfile1 $end
$var reg 32 g" \registers[7] [31:0] $end
$upscope $end
$upscope $end
$upscope $end
$scope module cpu_testbench $end
$scope module cpu_inst $end
$scope module registerfile1 $end
$var reg 32 h" \registers[8] [31:0] $end
$upscope $end
$upscope $end
$upscope $end
$scope module cpu_testbench $end
$scope module cpu_inst $end
$scope module registerfile1 $end
$var reg 32 i" \registers[9] [31:0] $end
$upscope $end
$upscope $end
$upscope $end
$scope module cpu_testbench $end
$scope module cpu_inst $end
$scope module registerfile1 $end
$var reg 32 j" \registers[10] [31:0] $end
$upscope $end
$upscope $end
$upscope $end
$scope module cpu_testbench $end
$scope module cpu_inst $end
$scope module registerfile1 $end
$var reg 32 k" \registers[11] [31:0] $end
$upscope $end
$upscope $end
$upscope $end
$scope module cpu_testbench $end
$scope module cpu_inst $end
$scope module registerfile1 $end
$var reg 32 l" \registers[12] [31:0] $end
$upscope $end
$upscope $end
$upscope $end
$scope module cpu_testbench $end
$scope module cpu_inst $end
$scope module registerfile1 $end
$var reg 32 m" \registers[13] [31:0] $end
$upscope $end
$upscope $end
$upscope $end
$scope module cpu_testbench $end
$scope module cpu_inst $end
$scope module registerfile1 $end
$var reg 32 n" \registers[14] [31:0] $end
$upscope $end
$upscope $end
$upscope $end
$scope module cpu_testbench $end
$scope module cpu_inst $end
$scope module registerfile1 $end
$var reg 32 o" \registers[15] [31:0] $end
$upscope $end
$upscope $end
$upscope $end
$scope module cpu_testbench $end
$scope module cpu_inst $end
$scope module registerfile1 $end
$var reg 32 p" \registers[16] [31:0] $end
$upscope $end
$upscope $end
$upscope $end
$scope module cpu_testbench $end
$scope module cpu_inst $end
$scope module registerfile1 $end
$var reg 32 q" \registers[17] [31:0] $end
$upscope $end
$upscope $end
$upscope $end
$scope module cpu_testbench $end
$scope module cpu_inst $end
$scope module registerfile1 $end
$var reg 32 r" \registers[18] [31:0] $end
$upscope $end
$upscope $end
$upscope $end
$scope module cpu_testbench $end
$scope module cpu_inst $end
$scope module registerfile1 $end
$var reg 32 s" \registers[19] [31:0] $end
$upscope $end
$upscope $end
$upscope $end
$scope module cpu_testbench $end
$scope module cpu_inst $end
$scope module registerfile1 $end
$var reg 32 t" \registers[20] [31:0] $end
$upscope $end
$upscope $end
$upscope $end
$scope module cpu_testbench $end
$scope module cpu_inst $end
$scope module registerfile1 $end
$var reg 32 u" \registers[21] [31:0] $end
$upscope $end
$upscope $end
$upscope $end
$scope module cpu_testbench $end
$scope module cpu_inst $end
$scope module registerfile1 $end
$var reg 32 v" \registers[22] [31:0] $end
$upscope $end
$upscope $end
$upscope $end
$scope module cpu_testbench $end
$scope module cpu_inst $end
$scope module registerfile1 $end
$var reg 32 w" \registers[23] [31:0] $end
$upscope $end
$upscope $end
$upscope $end
$scope module cpu_testbench $end
$scope module cpu_inst $end
$scope module registerfile1 $end
$var reg 32 x" \registers[24] [31:0] $end
$upscope $end
$upscope $end
$upscope $end
$scope module cpu_testbench $end
$scope module cpu_inst $end
$scope module registerfile1 $end
$var reg 32 y" \registers[25] [31:0] $end
$upscope $end
$upscope $end
$upscope $end
$scope module cpu_testbench $end
$scope module cpu_inst $end
$scope module registerfile1 $end
$var reg 32 z" \registers[26] [31:0] $end
$upscope $end
$upscope $end
$upscope $end
$scope module cpu_testbench $end
$scope module cpu_inst $end
$scope module registerfile1 $end
$var reg 32 {" \registers[27] [31:0] $end
$upscope $end
$upscope $end
$upscope $end
$scope module cpu_testbench $end
$scope module cpu_inst $end
$scope module registerfile1 $end
$var reg 32 |" \registers[28] [31:0] $end
$upscope $end
$upscope $end
$upscope $end
$scope module cpu_testbench $end
$scope module cpu_inst $end
$scope module registerfile1 $end
$var reg 32 }" \registers[29] [31:0] $end
$upscope $end
$upscope $end
$upscope $end
$scope module cpu_testbench $end
$scope module cpu_inst $end
$scope module registerfile1 $end
$var reg 32 ~" \registers[30] [31:0] $end
$upscope $end
$upscope $end
$upscope $end
$scope module cpu_testbench $end
$scope module cpu_inst $end
$scope module registerfile1 $end
$var reg 32 !# \registers[31] [31:0] $end
$upscope $end
$upscope $end
$upscope $end
$scope module cpu_testbench $end
$scope module cpu_inst $end
$scope module datamemory1 $end
$var reg 8 "# \memory_array[0] [7:0] $end
$upscope $end
$upscope $end
$upscope $end
$scope module cpu_testbench $end
$scope module cpu_inst $end
$scope module datamemory1 $end
$var reg 8 ## \memory_array[1] [7:0] $end
$upscope $end
$upscope $end
$upscope $end
$scope module cpu_testbench $end
$scope module cpu_inst $end
$scope module datamemory1 $end
$var reg 8 $# \memory_array[2] [7:0] $end
$upscope $end
$upscope $end
$upscope $end
$scope module cpu_testbench $end
$scope module cpu_inst $end
$scope module datamemory1 $end
$var reg 8 %# \memory_array[3] [7:0] $end
$upscope $end
$upscope $end
$upscope $end
$scope module cpu_testbench $end
$scope module cpu_inst $end
$scope module datamemory1 $end
$var reg 8 &# \memory_array[4] [7:0] $end
$upscope $end
$upscope $end
$upscope $end
$scope module cpu_testbench $end
$scope module cpu_inst $end
$scope module datamemory1 $end
$var reg 8 '# \memory_array[5] [7:0] $end
$upscope $end
$upscope $end
$upscope $end
$scope module cpu_testbench $end
$scope module cpu_inst $end
$scope module datamemory1 $end
$var reg 8 (# \memory_array[6] [7:0] $end
$upscope $end
$upscope $end
$upscope $end
$scope module cpu_testbench $end
$scope module cpu_inst $end
$scope module datamemory1 $end
$var reg 8 )# \memory_array[7] [7:0] $end
$upscope $end
$upscope $end
$upscope $end
$scope module cpu_testbench $end
$scope module cpu_inst $end
$scope module datamemory1 $end
$var reg 8 *# \memory_array[8] [7:0] $end
$upscope $end
$upscope $end
$upscope $end
$scope module cpu_testbench $end
$scope module cpu_inst $end
$scope module datamemory1 $end
$var reg 8 +# \memory_array[9] [7:0] $end
$upscope $end
$upscope $end
$upscope $end
$scope module cpu_testbench $end
$scope module cpu_inst $end
$scope module datamemory1 $end
$var reg 8 ,# \memory_array[10] [7:0] $end
$upscope $end
$upscope $end
$upscope $end
$scope module cpu_testbench $end
$scope module cpu_inst $end
$scope module datamemory1 $end
$var reg 8 -# \memory_array[11] [7:0] $end
$upscope $end
$upscope $end
$upscope $end
$scope module cpu_testbench $end
$scope module cpu_inst $end
$scope module datamemory1 $end
$var reg 8 .# \memory_array[12] [7:0] $end
$upscope $end
$upscope $end
$upscope $end
$scope module cpu_testbench $end
$scope module cpu_inst $end
$scope module datamemory1 $end
$var reg 8 /# \memory_array[13] [7:0] $end
$upscope $end
$upscope $end
$upscope $end
$scope module cpu_testbench $end
$scope module cpu_inst $end
$scope module datamemory1 $end
$var reg 8 0# \memory_array[14] [7:0] $end
$upscope $end
$upscope $end
$upscope $end
$scope module cpu_testbench $end
$scope module cpu_inst $end
$scope module datamemory1 $end
$var reg 8 1# \memory_array[15] [7:0] $end
$upscope $end
$upscope $end
$upscope $end
$scope module cpu_testbench $end
$scope module cpu_inst $end
$scope module datamemory1 $end
$var reg 8 2# \memory_array[16] [7:0] $end
$upscope $end
$upscope $end
$upscope $end
$scope module cpu_testbench $end
$scope module cpu_inst $end
$scope module datamemory1 $end
$var reg 8 3# \memory_array[17] [7:0] $end
$upscope $end
$upscope $end
$upscope $end
$scope module cpu_testbench $end
$scope module cpu_inst $end
$scope module datamemory1 $end
$var reg 8 4# \memory_array[18] [7:0] $end
$upscope $end
$upscope $end
$upscope $end
$scope module cpu_testbench $end
$scope module cpu_inst $end
$scope module datamemory1 $end
$var reg 8 5# \memory_array[19] [7:0] $end
$upscope $end
$upscope $end
$upscope $end
$enddefinitions $end
$comment Show the parameter values. $end
$dumpall
$end
#0
$dumpvars
b0 5#
b0 4#
b0 3#
b0 2#
b0 1#
b0 0#
b0 /#
b0 .#
b0 -#
b0 ,#
b0 +#
b0 *#
b0 )#
b0 (#
b0 '#
b0 &#
b0 %#
b0 $#
b0 ##
b0 "#
bx !#
bx ~"
bx }"
bx |"
bx {"
bx z"
bx y"
bx x"
bx w"
bx v"
bx u"
bx t"
bx s"
bx r"
bx q"
bx p"
bx o"
bx n"
bx m"
bx l"
bx k"
bx j"
bx i"
bx h"
bx g"
bx f"
bx e"
bx d"
bx c"
bx b"
bx a"
bx `"
b10100 _"
b100000 ^"
bx ]"
bx \"
bx ["
bx Z"
bx Y"
bx X"
bx W"
bx V"
bx U"
bx T"
bx S"
bx R"
bx Q"
bx P"
bx O"
b10000000000 N"
bx M"
bx L"
bx K"
bx J"
bx I"
bx H"
bx G"
bx F"
bx E"
bx D"
bx C"
bx B"
bx A"
bx @"
bx ?"
bx >"
bx ="
bx <"
bx ;"
bx :"
bx 9"
bx 8"
bx 7"
bx 6"
bx 5"
bx 4"
bx 3"
bx 2"
bx 1"
bx 0"
bx /"
bx ."
bx -"
bx ,"
bx +"
bx *"
bx )"
bx ("
bx '"
bx &"
bx %"
bx $"
bx #"
bx ""
bx !"
bx ~
bx }
bx |
bx {
bx z
bx y
bx x
bx w
bx v
bx u
bx t
bx s
bx r
bx q
bx p
bx o
bx n
bx m
bx l
bx k
bx j
bx i
bx h
bx g
bx f
bx e
bx d
bx c
bx b
bx a
bx `
bx _
bx ^
bx ]
bx \
x[
xZ
xY
bx X
bx W
bx V
bx U
bx T
bx S
bx R
bx Q
bx P
bx O
xN
xM
bx L
bx K
bx J
bx I
bx H
xG
bx F
xE
xD
xC
xB
xA
x@
x?
x>
x=
x<
x;
x:
x9
x8
x7
x6
bx 5
bx 4
bx 3
bx 2
bx 1
bx 0
bx /
bx .
bx -
bx ,
bx +
bx *
bx )
bx (
bx '
x&
x%
x$
x#
1"
0!
$end
#1
b0 I
b0 1"
b0 S"
#2
06
#4
1!
#5
b0 E"
b0 G"
b0 F"
b0 ,
b0 Y"
b0 -
b0 X"
b0 /
b0 !"
b0 4"
b0 2
b0 ""
b0 3"
b0 H
b0 ~
b0 2"
b0 D"
b0 P"
b0 !#
b0 ~"
b0 }"
b0 |"
b0 {"
b0 z"
b0 y"
b0 x"
b0 w"
b0 v"
b0 u"
b0 t"
b0 s"
b0 r"
b0 q"
b0 p"
b0 o"
b0 n"
b0 m"
b0 l"
b0 k"
b0 j"
b0 i"
b0 h"
b0 g"
b0 f"
b0 e"
b0 d"
b0 c"
b0 b"
b0 a"
b0 `"
0"
#6
bx I
bx 1"
bx S"
b0 5
b0 0"
b0 R"
b0 U"
b0 V"
#7
b110000000000001010010011 I
b110000000000001010010011 1"
b110000000000001010010011 S"
b0 V
b0 $"
b0 ]"
b0 X
b0 %"
b0 \"
b100 3
b100 C"
b100 T"
b100 1
b100 /"
b100 B"
b100 W"
#8
0!
#12
1!
#14
b0 F
b0 y
b0 7"
b0 R
b0 e
b0 r
b10011 E"
b1100 ,
b1100 Y"
b0 O
b0 l
b0 w
b0 ."
b0 )
b0 v
b0 -"
b0 T
b0 m
b0 t
b0 x
b0 )"
b0 W
b0 n
b0 q
b0 ("
b0 0
b0 ,"
b0 6"
b0 4
b0 p
b0 +"
b100 /
b100 !"
b100 4"
b110000000000001010010011 H
b110000000000001010010011 ~
b110000000000001010010011 2"
b110000000000001010010011 D"
b110000000000001010010011 P"
b100 5
b100 0"
b100 R"
b100 U"
b100 V"
#15
b10100000000001100010011 I
b10100000000001100010011 1"
b10100000000001100010011 S"
b1000 3
b1000 C"
b1000 T"
b0 `
b0 j
b0 k
b0 5"
b0 ]
b0 &"
b0 H"
0E
0[
08
1N
0D
0>
0;
0B
1&
b0 L
b0 I"
b0 O"
b1000 1
b1000 /"
b1000 B"
b1000 W"
#16
b0 +
b0 o
b0 A"
b1100 K
b1100 #"
b1100 Q"
0!
#20
1!
#22
b0 h
b0 g
b0 f
b101 ,
b101 Y"
b0 b
b0 a
b0 c
b1100 Q
b1100 d
b1100 u
b1000 5
b1000 0"
b1000 R"
b1000 U"
b1000 V"
b1000 /
b1000 !"
b1000 4"
b100 2
b100 ""
b100 3"
b10100000000001100010011 H
b10100000000001100010011 ~
b10100000000001100010011 2"
b10100000000001100010011 D"
b10100000000001100010011 P"
b1100 J
b1100 s
b1100 *"
b101 )
b101 v
b101 -"
b100 0
b100 ,"
b100 6"
b0 \
b0 i
b0 '"
0C
0Z
07
1M
0G
0<
09
0@
1$
b0 U
b0 {
b0 L"
b0 P
b0 |
b0 K"
b0 *
b0 }
b0 9"
b0 _
b0 z
b0 8"
b0 J"
#23
b110000000000001000010011 I
b110000000000001000010011 1"
b110000000000001000010011 S"
b1100 3
b1100 C"
b1100 T"
b1100 1
b1100 /"
b1100 B"
b1100 W"
#24
b1100 F
b1100 y
b1100 7"
b101 K
b101 #"
b101 Q"
b1100 `
b1100 j
b1100 k
b1100 5"
0!
#25
b1100 +
b1100 o
b1100 A"
#28
1!
#30
0Y
b101 Q
b101 d
b101 u
b1100 ,
b1100 Y"
b0 (
b0 ="
b0 Z"
b0 ^
b0 ;"
b0 >"
b101 *
b101 }
b101 9"
b1100 _
b1100 z
b1100 8"
b1100 J"
0=
0:
0A
1%
b101 J
b101 s
b101 *"
b110 )
b110 v
b110 -"
b1000 0
b1000 ,"
b1000 6"
b100 4
b100 p
b100 +"
b1100 /
b1100 !"
b1100 4"
b1000 2
b1000 ""
b1000 3"
b110000000000001000010011 H
b110000000000001000010011 ~
b110000000000001000010011 2"
b110000000000001000010011 D"
b110000000000001000010011 P"
b1100 5
b1100 0"
b1100 R"
b1100 U"
b1100 V"
#31
b110000000110011 I
b110000000110011 1"
b110000000110011 S"
b10000 3
b10000 C"
b10000 T"
b10000 1
b10000 /"
b10000 B"
b10000 W"
#32
b101 F
b101 y
b101 7"
b101 `
b101 j
b101 k
b101 5"
b1100 K
b1100 #"
b1100 Q"
0!
#33
b101 +
b101 o
b101 A"
#36
1!
#38
b110011 E"
b110 G"
b0 ,
b0 Y"
b1100 Q
b1100 d
b1100 u
b1100 '
b1100 @"
b1100 ["
b10000 5
b10000 0"
b10000 R"
b10000 U"
b10000 V"
b10000 /
b10000 !"
b10000 4"
b1100 2
b1100 ""
b1100 3"
b110000000110011 H
b110000000110011 ~
b110000000110011 2"
b110000000110011 D"
b110000000110011 P"
b1100 J
b1100 s
b1100 *"
b100 )
b100 v
b100 -"
b1100 0
b1100 ,"
b1100 6"
b1000 4
b1000 p
b1000 +"
b110 *
b110 }
b110 9"
b101 _
b101 z
b101 8"
b101 J"
b101 (
b101 ="
b101 Z"
b1100 ^
b1100 ;"
b1100 >"
0?
1#
#39
b10100 3
b10100 C"
b10100 T"
b10 ]
b10 &"
b10 H"
0N
bx L
bx I"
bx O"
b10100 1
b10100 /"
b10100 B"
b10100 W"
#40
b1100 F
b1100 y
b1100 7"
b1100 `
b1100 j
b1100 k
b1100 5"
0!
#41
b1100 +
b1100 o
b1100 A"
#44
1!
#45
b1100 e"
#46
b101 '
b101 @"
b101 ["
b0 Q
b0 d
b0 u
b110 (
b110 ="
b110 Z"
b101 ^
b101 ;"
b101 >"
b100 *
b100 }
b100 9"
b1100 _
b1100 z
b1100 8"
b1100 J"
b110 O
b110 l
b110 w
b110 ."
b0 )
b0 v
b0 -"
b10000 0
b10000 ,"
b10000 6"
b1100 4
b1100 p
b1100 +"
b10 \
b10 i
b10 '"
0M
b10100 /
b10100 !"
b10100 4"
b10000 2
b10000 ""
b10000 3"
b10100 5
b10100 0"
b10100 R"
b10100 U"
b10100 V"
#47
b0 F
b0 y
b0 7"
b11000 3
b11000 C"
b11000 T"
b0 +
b0 o
b0 A"
b0 `
b0 j
b0 k
b0 5"
b11000 1
b11000 /"
b11000 B"
b11000 W"
#48
0!
#52
1!
#53
b101 f"
#54
b1100 '
b1100 @"
b1100 ["
b11000 5
b11000 0"
b11000 R"
b11000 U"
b11000 V"
b11000 /
b11000 !"
b11000 4"
b10100 2
b10100 ""
b10100 3"
b10100 0
b10100 ,"
b10100 6"
b10000 4
b10000 p
b10000 +"
b110 P
b110 |
b110 K"
b0 *
b0 }
b0 9"
b0 _
b0 z
b0 8"
b0 J"
b100 (
b100 ="
b100 Z"
b1100 ^
b1100 ;"
b1100 >"
#55
b10100100000100001100011 I
b10100100000100001100011 1"
b10100100000100001100011 S"
b11100 3
b11100 C"
b11100 T"
b11100 1
b11100 /"
b11100 B"
b11100 W"
#56
0!
#60
1!
#61
b1100 d"
#62
b0 '
b0 @"
b0 ["
b1100011 E"
b0 G"
b101 ,
b101 Y"
b100 -
b100 X"
b0 (
b0 ="
b0 Z"
b0 ^
b0 ;"
b0 >"
b11000 0
b11000 ,"
b11000 6"
b10100 4
b10100 p
b10100 +"
b11100 /
b11100 !"
b11100 4"
b11000 2
b11000 ""
b11000 3"
b10100100000100001100011 H
b10100100000100001100011 ~
b10100100000100001100011 2"
b10100100000100001100011 D"
b10100100000100001100011 P"
b11100 5
b11100 0"
b11100 R"
b11100 U"
b11100 V"
#63
b110000000110011 I
b110000000110011 1"
b110000000110011 S"
b100000 3
b100000 C"
b100000 T"
b0 ]
b0 &"
b0 H"
1[
18
1N
0&
b100 L
b100 I"
b100 O"
b100000 1
b100000 /"
b100000 B"
b100000 W"
#64
b1100 V
b1100 $"
b1100 ]"
b1100 X
b1100 %"
b1100 \"
b10000 K
b10000 #"
b10000 Q"
0!
#68
1!
