CPU/cpu_pipeline.vcd
$date
	Sat Feb 15 21:58:06 2025
$end
$version
	Icarus Verilog
$end
$timescale
	1s
$end
$scope module cpu_testbench $end
$var reg 1 ! CLK $end
$var reg 1 " RESET $end
$scope module cpu_inst $end
$var wire 1 ! CLK $end
$var wire 1 " RESET $end
$var wire 1 # WRITEENABLE_MEMOUT $end
$var wire 1 $ WRITEENABLE_IDOUT $end
$var wire 1 % WRITEENABLE_EXOUT $end
$var wire 1 & WRITEENABLE $end
$var wire 32 ' WRITEDATA [31:0] $end
$var wire 5 ( WRITEADDRESS_MEMOUT [4:0] $end
$var wire 5 ) WRITEADDRESS_IDOUT [4:0] $end
$var wire 5 * WRITEADDRESS_EXOUT [4:0] $end
$var wire 32 + TARGETEDADDRESS [31:0] $end
$var wire 5 , RS2 [4:0] $end
$var wire 5 - RS1 [4:0] $end
$var wire 32 . READDATA_MEMOUT [31:0] $end
$var wire 32 / PC_PLUS_4_OUT [31:0] $end
$var wire 32 0 PC_PLUS_4_IDOUT [31:0] $end
$var wire 32 1 PC_PLUS_4 [31:0] $end
$var wire 32 2 PC_OUT [31:0] $end
$var wire 32 3 PC_MUX_OUT [31:0] $end
$var wire 32 4 PC_IDOUT [31:0] $end
$var wire 32 5 PCOUT [31:0] $end
$var wire 1 6 PCADDRESSCONTROLLER $end
$var wire 2 7 Out_Load_Use_Hazard_RS2 [1:0] $end
$var wire 2 8 Out_Load_Use_Hazard_RS1 [1:0] $end
$var wire 2 9 OFFSETGENARATOR_IDOUT [1:0] $end
$var wire 2 : OFFSETGENARATOR [1:0] $end
$var wire 1 ; MEMWRITE_IDOUT $end
$var wire 1 < MEMWRITE_EXOUT $end
$var wire 1 = MEMWRITE $end
$var wire 1 > MEMREAD_IDOUT $end
$var wire 1 ? MEMREAD_EXOUT $end
$var wire 1 @ MEMREAD $end
$var wire 1 A MEMORYACCESS_MEMOUT $end
$var wire 1 B MEMORYACCESS_IDOUT $end
$var wire 1 C MEMORYACCESS_EXOUT $end
$var wire 1 D MEMORYACCESS $end
$var wire 1 E JUMP_IDOUT $end
$var wire 1 F JUMPANDLINK $end
$var wire 1 G JUMP $end
$var wire 32 H JAL_MUX_OUT [31:0] $end
$var wire 1 I JAL_IDOUT $end
$var wire 32 J INSTRUCTION_OUT [31:0] $end
$var wire 32 K INSTRUCTION [31:0] $end
$var wire 32 L IMMEDIATE_VALUE_IDOUT [31:0] $end
$var wire 32 M IMMEDIATE_VALUE [31:0] $end
$var wire 3 N IMMEDIATE_TYPE [2:0] $end
$var wire 2 O IMMEDIATESELECT_IDOUT [1:0] $end
$var wire 2 P IMMEDIATESELECT [1:0] $end
$var wire 3 Q FUNCT3_IDOUT [2:0] $end
$var wire 3 R FUNCT3_EXOUT [2:0] $end
$var wire 2 S FRWD_RS2_WB [1:0] $end
$var wire 2 T FRWD_RS1_WB [1:0] $end
$var wire 2 U FORWARD_RS2 [1:0] $end
$var wire 2 V FORWARD_RS1 [1:0] $end
$var wire 1 W FORWARD_MEMORY_IDOUT $end
$var wire 1 X FORWARD_MEMORY_EXOUT $end
$var wire 1 Y FORWARD_MEMORY $end
$var wire 32 Z Data2_MUX_OUT [31:0] $end
$var wire 32 [ Data1_MUX_OUT [31:0] $end
$var wire 32 \ DATA_OUT [31:0] $end
$var wire 32 ] DATA2_IDOUT [31:0] $end
$var wire 32 ^ DATA2_FORWARD [31:0] $end
$var wire 32 _ DATA2_EXOUT [31:0] $end
$var wire 32 ` DATA2 [31:0] $end
$var wire 32 a DATA1_IDOUT [31:0] $end
$var wire 32 b DATA1 [31:0] $end
$var wire 2 c ControlUnitOFFSETGENARATOR [1:0] $end
$var wire 2 d ControlUnitIMMEDIATESELECT [1:0] $end
$var wire 1 e BUSYWAIT $end
$var wire 1 f BUBBLE $end
$var wire 1 g BRANCH_IDOUT $end
$var wire 1 h BRANCH $end
$var wire 5 i ALU_OPCODE_IDOUT [4:0] $end
$var wire 5 j ALU_OPCODE [4:0] $end
$var wire 32 k ALURESULT_MEMOUT [31:0] $end
$var wire 32 l ALURESULT_EXOUT [31:0] $end
$var wire 32 m ALURESULT [31:0] $end
$scope module ALU $end
$var wire 64 n mulhu_result [63:0] $end
$var wire 64 o mulhsu_result [63:0] $end
$var wire 64 p mulh_result [63:0] $end
$var wire 32 q data2 [31:0] $end
$var wire 32 r data1 [31:0] $end
$var wire 32 s MULH_result [31:0] $end
$var wire 32 t MULHU_result [31:0] $end
$var wire 32 u MULHSU_result [31:0] $end
$var wire 5 v ALU_OPCODE [4:0] $end
$var reg 32 w Output [31:0] $end
$upscope $end
$scope module BranchController1 $end
$var wire 32 x ALUresult [31:0] $end
$var wire 3 y func3 [2:0] $end
$var wire 32 z data2 [31:0] $end
$var wire 32 { data1 [31:0] $end
$var wire 1 E Jump $end
$var wire 1 g Branch $end
$var reg 1 6 PCAddressController $end
$var reg 32 | TargetedAddress [31:0] $end
$upscope $end
$scope module Data1_MUX $end
$var wire 2 } SELECT [1:0] $end
$var wire 32 ~ INPUT_3 [31:0] $end
$var wire 32 !" INPUT_2 [31:0] $end
$var wire 32 "" INPUT_1 [31:0] $end
$var wire 32 #" INPUT_0 [31:0] $end
$var reg 32 $" OUTPUT [31:0] $end
$upscope $end
$scope module Data2_MUX $end
$var wire 2 %" SELECT [1:0] $end
$var wire 32 &" INPUT_3 [31:0] $end
$var wire 32 '" INPUT_2 [31:0] $end
$var wire 32 (" INPUT_1 [31:0] $end
$var wire 32 )" INPUT_0 [31:0] $end
$var reg 32 *" OUTPUT [31:0] $end
$upscope $end
$scope module EX_MEM_pipeline1 $end
$var wire 1 ! CLK $end
$var wire 1 " RESET $end
$var wire 1 $ WRITE_ENABLE $end
$var wire 5 +" WRITE_ADDRESS [4:0] $end
$var wire 1 ; MEM_WRITE $end
$var wire 1 > MEM_READ $end
$var wire 1 B MEM_ACCESS $end
$var wire 3 ," FUNCT3 [2:0] $end
$var wire 1 W FORWARD_MEMORY $end
$var wire 32 -" DATA2 [31:0] $end
$var wire 32 ." ALU_OUTPUT [31:0] $end
$var reg 32 /" ALU_OUTPUT_OUT [31:0] $end
$var reg 32 0" DATA2_OUT [31:0] $end
$var reg 3 1" FUNCT3_OUT [2:0] $end
$var reg 1 C MEM_ACCESS_OUT $end
$var reg 1 ? MEM_READ_OUT $end
$var reg 1 < MEM_WRITE_OUT $end
$var reg 1 X OUT_FORWARD_MEMORY $end
$var reg 5 2" WRITE_ADDRESS_OUT [4:0] $end
$var reg 1 % WRITE_ENABLE_OUT $end
$upscope $end
$scope module ID_EXPipeline1 $end
$var wire 1 ! CLK $end
$var wire 1 " Reset $end
$var wire 1 3" STALL $end
$var wire 32 4" instruction [31:0] $end
$var wire 1 & Write_Enable $end
$var wire 32 5" PC_next [31:0] $end
$var wire 32 6" PC [31:0] $end
$var wire 2 7" Offset_Generate [1:0] $end
$var wire 1 D Memory_Access $end
$var wire 1 = Mem_Write $end
$var wire 1 @ Mem_Read $end
$var wire 2 8" Load_Use_Hazard_RS2 [1:0] $end
$var wire 2 9" Load_Use_Hazard_RS1 [1:0] $end
$var wire 1 F Jump_and_Link $end
$var wire 1 G Jump $end
$var wire 32 :" Immediate_value [31:0] $end
$var wire 2 ;" Immediate_Select [1:0] $end
$var wire 1 Y FORWARD_MEMORY $end
$var wire 32 <" Data2 [31:0] $end
$var wire 32 =" Data1 [31:0] $end
$var wire 1 h Branch $end
$var wire 1 f BUBBLE $end
$var wire 5 >" ALU_Opcode [4:0] $end
$var reg 1 W OUT_FORWARD_MEMORY $end
$var reg 5 ?" Out_ALU_Opcode [4:0] $end
$var reg 1 g Out_Branch $end
$var reg 32 @" Out_Data1 [31:0] $end
$var reg 32 A" Out_Data2 [31:0] $end
$var reg 2 B" Out_Immediate_Select [1:0] $end
$var reg 32 C" Out_Immediate_value [31:0] $end
$var reg 1 E Out_Jump $end
$var reg 1 I Out_Jump_and_Link $end
$var reg 2 D" Out_Load_Use_Hazard_RS1 [1:0] $end
$var reg 2 E" Out_Load_Use_Hazard_RS2 [1:0] $end
$var reg 1 > Out_Mem_Read $end
$var reg 1 ; Out_Mem_Write $end
$var reg 1 B Out_Memory_Access $end
$var reg 2 F" Out_Offset_Generate [1:0] $end
$var reg 32 G" Out_PC [31:0] $end
$var reg 32 H" Out_PC_next [31:0] $end
$var reg 5 I" Out_WriteAddress [4:0] $end
$var reg 1 $ Out_Write_Enable $end
$var reg 3 J" Out_func3 [2:0] $end
$upscope $end
$scope module ID_IF_register1 $end
$var wire 1 ! CLK $end
$var wire 1 " RESET $end
$var wire 32 K" PC_PLUS_4 [31:0] $end
$var wire 32 L" PC [31:0] $end
$var wire 32 M" INSTRUCTION [31:0] $end
$var wire 1 f BUBBLE $end
$var reg 32 N" INSTRUCTION_OUT [31:0] $end
$var reg 32 O" PC_OUT [31:0] $end
$var reg 32 P" PC_PLUS_4_OUT [31:0] $end
$upscope $end
$scope module JAL_MUX $end
$var wire 32 Q" INPUT_0 [31:0] $end
$var wire 32 R" INPUT_1 [31:0] $end
$var wire 1 I SELECT $end
$var reg 32 S" OUTPUT [31:0] $end
$upscope $end
$scope module LoadUseComparator1 $end
$var wire 2 T" FORWARD_RS1 [1:0] $end
$var wire 2 U" FORWARD_RS2 [1:0] $end
$var wire 2 V" LOAD_USE_RS1 [1:0] $end
$var wire 2 W" LOAD_USE_RS2 [1:0] $end
$var reg 2 X" CORRECT_FORWARD_RS1 [1:0] $end
$var reg 2 Y" CORRECT_FORWARD_RS2 [1:0] $end
$upscope $end
$scope module MEM_WBPipeline1 $end
$var wire 32 Z" ALU_Output [31:0] $end
$var wire 1 ! CLK $end
$var wire 1 C Memory_access $end
$var wire 1 " Reset $end
$var wire 5 [" Write_Address [4:0] $end
$var wire 1 % Write_enable $end
$var wire 32 \" Memory_Data [31:0] $end
$var reg 32 ]" ALU_Output_Out [31:0] $end
$var reg 32 ^" Memory_Data_Out [31:0] $end
$var reg 1 A Memory_access_Out $end
$var reg 5 _" Write_Address_out [4:0] $end
$var reg 1 # Write_Enable_Out $end
$upscope $end
$scope module Memory_access_MUX $end
$var wire 32 `" INPUT_0 [31:0] $end
$var wire 32 a" INPUT_1 [31:0] $end
$var wire 1 A SELECT $end
$var reg 32 b" OUTPUT [31:0] $end
$upscope $end
$scope module PC_MUX $end
$var wire 32 c" INPUT_1 [31:0] $end
$var wire 1 6 SELECT $end
$var wire 32 d" INPUT_0 [31:0] $end
$var reg 32 e" OUTPUT [31:0] $end
$upscope $end
$scope module controlunit1 $end
$var wire 32 f" INSTRUCTION [31:0] $end
$var wire 7 g" OPCODE [6:0] $end
$var wire 7 h" FUNCT7 [6:0] $end
$var wire 3 i" FUNCT3 [2:0] $end
$var reg 5 j" ALU_OPCODE [4:0] $end
$var reg 1 h BRANCH $end
$var reg 2 k" IMMEDIATE_SELECT [1:0] $end
$var reg 3 l" IMMEDIATE_TYPE [2:0] $end
$var reg 1 G JUMP $end
$var reg 1 F JUMP_AND_LINK $end
$var reg 1 D MEMORY_ACCESS $end
$var reg 1 @ MEM_READ $end
$var reg 1 = MEM_WRITE $end
$var reg 2 m" OFFSET_GENARATOR [1:0] $end
$var reg 1 & WRITE_ENABLE $end
$upscope $end
$scope module datamemory1 $end
$var wire 32 n" ADDRESS [31:0] $end
$var wire 1 ! CLK $end
$var wire 3 o" FUNCT3 [2:0] $end
$var wire 1 ? READ $end
$var wire 1 " RESET $end
$var wire 1 < WRITE $end
$var wire 32 p" WRITEDATA [31:0] $end
$var reg 1 e BUSYWAIT $end
$var reg 32 q" READDATA [31:0] $end
$var integer 32 r" i [31:0] $end
$upscope $end
$scope module datamemory_MUX $end
$var wire 32 s" INPUT_0 [31:0] $end
$var wire 32 t" INPUT_1 [31:0] $end
$var wire 1 X SELECT $end
$var reg 32 u" OUTPUT [31:0] $end
$upscope $end
$scope module imidiateGenarator1 $end
$var wire 3 v" IMMEDIATE_TYPE [2:0] $end
$var wire 32 w" INSTRUCTION [31:0] $end
$var reg 32 x" IMMEDIATE_VALUE [31:0] $end
$upscope $end
$scope module immForwarding $end
$var wire 2 y" ControlUnit_IMMEDIATE_SELECT [1:0] $end
$var wire 2 z" ControlUnit_OFFSET_GENARATOR [1:0] $end
$var wire 32 {" INSTRUCTION [31:0] $end
$var wire 5 |" RD_imm_old [4:0] $end
$var wire 5 }" RD_old_old [4:0] $end
$var wire 5 ~" SR2 [4:0] $end
$var wire 5 !# SR1 [4:0] $end
$var wire 5 "# RD [4:0] $end
$var wire 7 ## OPCODE [6:0] $end
$var reg 2 $# Data1_OffsetGenarator [1:0] $end
$var reg 2 %# Data2_ImmediateSelect [1:0] $end
$upscope $end
$scope module instructionmem1 $end
$var wire 1 " RESET $end
$var wire 32 &# PC [31:0] $end
$var reg 32 '# INSTRUCTION [31:0] $end
$upscope $end
$scope module load_use_hazard1 $end
$var wire 1 > EX_MEMREAD $end
$var wire 1 = MEM_WRITE $end
$var wire 5 (# RS1 [4:0] $end
$var wire 5 )# RS2 [4:0] $end
$var wire 5 *# WRITEADDRESS_IDOUT [4:0] $end
$var reg 1 f BUBBLE $end
$var reg 1 Y FORWARD_MEMORY $end
$var reg 2 +# FRWD_RS1_WB [1:0] $end
$var reg 2 ,# FRWD_RS2_WB [1:0] $end
$upscope $end
$scope module pc1 $end
$var wire 1 f BUBBLE $end
$var wire 1 ! CLK $end
$var wire 32 -# PCIN [31:0] $end
$var wire 1 " RESET $end
$var reg 32 .# PCOUT [31:0] $end
$upscope $end
$scope module pc_4_adder $end
$var wire 32 /# PC [31:0] $end
$var wire 32 0# PCPLUS4 [31:0] $end
$upscope $end
$scope module registerfile1 $end
$var wire 1 ! CLK $end
$var wire 1 " RESET $end
$var wire 5 1# RS1 [4:0] $end
$var wire 5 2# RS2 [4:0] $end
$var wire 5 3# WRITEADDRESS [4:0] $end
$var wire 32 4# WRITEDATA [31:0] $end
$var wire 1 # WRITEENABLE $end
$var reg 32 5# DATA1 [31:0] $end
$var reg 32 6# DATA2 [31:0] $end
$upscope $end
$upscope $end
$scope begin $ivl_for_loop0 $end
$var integer 32 7# i [31:0] $end
$upscope $end
$scope begin $ivl_for_loop1 $end
$var integer 32 8# i [31:0] $end
$upscope $end
$upscope $end
$scope module cpu_testbench $end
$scope module cpu_inst $end
$scope module registerfile1 $end
$var reg 32 9# \registers[0] [31:0] $end
$upscope $end
$upscope $end
$upscope $end
$scope module cpu_testbench $end
$scope module cpu_inst $end
$scope module registerfile1 $end
$var reg 32 :# \registers[1] [31:0] $end
$upscope $end
$upscope $end
$upscope $end
$scope module cpu_testbench $end
$scope module cpu_inst $end
$scope module registerfile1 $end
$var reg 32 ;# \registers[2] [31:0] $end
$upscope $end
$upscope $end
$upscope $end
$scope module cpu_testbench $end
$scope module cpu_inst $end
$scope module registerfile1 $end
$var reg 32 <# \registers[3] [31:0] $end
$upscope $end
$upscope $end
$upscope $end
$scope module cpu_testbench $end
$scope module cpu_inst $end
$scope module registerfile1 $end
$var reg 32 =# \registers[4] [31:0] $end
$upscope $end
$upscope $end
$upscope $end
$scope module cpu_testbench $end
$scope module cpu_inst $end
$scope module registerfile1 $end
$var reg 32 ># \registers[5] [31:0] $end
$upscope $end
$upscope $end
$upscope $end
$scope module cpu_testbench $end
$scope module cpu_inst $end
$scope module registerfile1 $end
$var reg 32 ?# \registers[6] [31:0] $end
$upscope $end
$upscope $end
$upscope $end
$scope module cpu_testbench $end
$scope module cpu_inst $end
$scope module registerfile1 $end
$var reg 32 @# \registers[7] [31:0] $end
$upscope $end
$upscope $end
$upscope $end
$scope module cpu_testbench $end
$scope module cpu_inst $end
$scope module registerfile1 $end
$var reg 32 A# \registers[8] [31:0] $end
$upscope $end
$upscope $end
$upscope $end
$scope module cpu_testbench $end
$scope module cpu_inst $end
$scope module registerfile1 $end
$var reg 32 B# \registers[9] [31:0] $end
$upscope $end
$upscope $end
$upscope $end
$scope module cpu_testbench $end
$scope module cpu_inst $end
$scope module registerfile1 $end
$var reg 32 C# \registers[10] [31:0] $end
$upscope $end
$upscope $end
$upscope $end
$scope module cpu_testbench $end
$scope module cpu_inst $end
$scope module registerfile1 $end
$var reg 32 D# \registers[11] [31:0] $end
$upscope $end
$upscope $end
$upscope $end
$scope module cpu_testbench $end
$scope module cpu_inst $end
$scope module registerfile1 $end
$var reg 32 E# \registers[12] [31:0] $end
$upscope $end
$upscope $end
$upscope $end
$scope module cpu_testbench $end
$scope module cpu_inst $end
$scope module registerfile1 $end
$var reg 32 F# \registers[13] [31:0] $end
$upscope $end
$upscope $end
$upscope $end
$scope module cpu_testbench $end
$scope module cpu_inst $end
$scope module registerfile1 $end
$var reg 32 G# \registers[14] [31:0] $end
$upscope $end
$upscope $end
$upscope $end
$scope module cpu_testbench $end
$scope module cpu_inst $end
$scope module registerfile1 $end
$var reg 32 H# \registers[15] [31:0] $end
$upscope $end
$upscope $end
$upscope $end
$scope module cpu_testbench $end
$scope module cpu_inst $end
$scope module registerfile1 $end
$var reg 32 I# \registers[16] [31:0] $end
$upscope $end
$upscope $end
$upscope $end
$scope module cpu_testbench $end
$scope module cpu_inst $end
$scope module registerfile1 $end
$var reg 32 J# \registers[17] [31:0] $end
$upscope $end
$upscope $end
$upscope $end
$scope module cpu_testbench $end
$scope module cpu_inst $end
$scope module registerfile1 $end
$var reg 32 K# \registers[18] [31:0] $end
$upscope $end
$upscope $end
$upscope $end
$scope module cpu_testbench $end
$scope module cpu_inst $end
$scope module registerfile1 $end
$var reg 32 L# \registers[19] [31:0] $end
$upscope $end
$upscope $end
$upscope $end
$scope module cpu_testbench $end
$scope module cpu_inst $end
$scope module registerfile1 $end
$var reg 32 M# \registers[20] [31:0] $end
$upscope $end
$upscope $end
$upscope $end
$scope module cpu_testbench $end
$scope module cpu_inst $end
$scope module registerfile1 $end
$var reg 32 N# \registers[21] [31:0] $end
$upscope $end
$upscope $end
$upscope $end
$scope module cpu_testbench $end
$scope module cpu_inst $end
$scope module registerfile1 $end
$var reg 32 O# \registers[22] [31:0] $end
$upscope $end
$upscope $end
$upscope $end
$scope module cpu_testbench $end
$scope module cpu_inst $end
$scope module registerfile1 $end
$var reg 32 P# \registers[23] [31:0] $end
$upscope $end
$upscope $end
$upscope $end
$scope module cpu_testbench $end
$scope module cpu_inst $end
$scope module registerfile1 $end
$var reg 32 Q# \registers[24] [31:0] $end
$upscope $end
$upscope $end
$upscope $end
$scope module cpu_testbench $end
$scope module cpu_inst $end
$scope module registerfile1 $end
$var reg 32 R# \registers[25] [31:0] $end
$upscope $end
$upscope $end
$upscope $end
$scope module cpu_testbench $end
$scope module cpu_inst $end
$scope module registerfile1 $end
$var reg 32 S# \registers[26] [31:0] $end
$upscope $end
$upscope $end
$upscope $end
$scope module cpu_testbench $end
$scope module cpu_inst $end
$scope module registerfile1 $end
$var reg 32 T# \registers[27] [31:0] $end
$upscope $end
$upscope $end
$upscope $end
$scope module cpu_testbench $end
$scope module cpu_inst $end
$scope module registerfile1 $end
$var reg 32 U# \registers[28] [31:0] $end
$upscope $end
$upscope $end
$upscope $end
$scope module cpu_testbench $end
$scope module cpu_inst $end
$scope module registerfile1 $end
$var reg 32 V# \registers[29] [31:0] $end
$upscope $end
$upscope $end
$upscope $end
$scope module cpu_testbench $end
$scope module cpu_inst $end
$scope module registerfile1 $end
$var reg 32 W# \registers[30] [31:0] $end
$upscope $end
$upscope $end
$upscope $end
$scope module cpu_testbench $end
$scope module cpu_inst $end
$scope module registerfile1 $end
$var reg 32 X# \registers[31] [31:0] $end
$upscope $end
$upscope $end
$upscope $end
$scope module cpu_testbench $end
$scope module cpu_inst $end
$scope module datamemory1 $end
$var reg 8 Y# \memory_array[0] [7:0] $end
$upscope $end
$upscope $end
$upscope $end
$scope module cpu_testbench $end
$scope module cpu_inst $end
$scope module datamemory1 $end
$var reg 8 Z# \memory_array[1] [7:0] $end
$upscope $end
$upscope $end
$upscope $end
$scope module cpu_testbench $end
$scope module cpu_inst $end
$scope module datamemory1 $end
$var reg 8 [# \memory_array[2] [7:0] $end
$upscope $end
$upscope $end
$upscope $end
$scope module cpu_testbench $end
$scope module cpu_inst $end
$scope module datamemory1 $end
$var reg 8 \# \memory_array[3] [7:0] $end
$upscope $end
$upscope $end
$upscope $end
$scope module cpu_testbench $end
$scope module cpu_inst $end
$scope module datamemory1 $end
$var reg 8 ]# \memory_array[4] [7:0] $end
$upscope $end
$upscope $end
$upscope $end
$scope module cpu_testbench $end
$scope module cpu_inst $end
$scope module datamemory1 $end
$var reg 8 ^# \memory_array[5] [7:0] $end
$upscope $end
$upscope $end
$upscope $end
$scope module cpu_testbench $end
$scope module cpu_inst $end
$scope module datamemory1 $end
$var reg 8 _# \memory_array[6] [7:0] $end
$upscope $end
$upscope $end
$upscope $end
$scope module cpu_testbench $end
$scope module cpu_inst $end
$scope module datamemory1 $end
$var reg 8 `# \memory_array[7] [7:0] $end
$upscope $end
$upscope $end
$upscope $end
$scope module cpu_testbench $end
$scope module cpu_inst $end
$scope module datamemory1 $end
$var reg 8 a# \memory_array[8] [7:0] $end
$upscope $end
$upscope $end
$upscope $end
$scope module cpu_testbench $end
$scope module cpu_inst $end
$scope module datamemory1 $end
$var reg 8 b# \memory_array[9] [7:0] $end
$upscope $end
$upscope $end
$upscope $end
$scope module cpu_testbench $end
$scope module cpu_inst $end
$scope module datamemory1 $end
$var reg 8 c# \memory_array[10] [7:0] $end
$upscope $end
$upscope $end
$upscope $end
$scope module cpu_testbench $end
$scope module cpu_inst $end
$scope module datamemory1 $end
$var reg 8 d# \memory_array[11] [7:0] $end
$upscope $end
$upscope $end
$upscope $end
$scope module cpu_testbench $end
$scope module cpu_inst $end
$scope module datamemory1 $end
$var reg 8 e# \memory_array[12] [7:0] $end
$upscope $end
$upscope $end
$upscope $end
$scope module cpu_testbench $end
$scope module cpu_inst $end
$scope module datamemory1 $end
$var reg 8 f# \memory_array[13] [7:0] $end
$upscope $end
$upscope $end
$upscope $end
$scope module cpu_testbench $end
$scope module cpu_inst $end
$scope module datamemory1 $end
$var reg 8 g# \memory_array[14] [7:0] $end
$upscope $end
$upscope $end
$upscope $end
$scope module cpu_testbench $end
$scope module cpu_inst $end
$scope module datamemory1 $end
$var reg 8 h# \memory_array[15] [7:0] $end
$upscope $end
$upscope $end
$upscope $end
$scope module cpu_testbench $end
$scope module cpu_inst $end
$scope module datamemory1 $end
$var reg 8 i# \memory_array[16] [7:0] $end
$upscope $end
$upscope $end
$upscope $end
$scope module cpu_testbench $end
$scope module cpu_inst $end
$scope module datamemory1 $end
$var reg 8 j# \memory_array[17] [7:0] $end
$upscope $end
$upscope $end
$upscope $end
$scope module cpu_testbench $end
$scope module cpu_inst $end
$scope module datamemory1 $end
$var reg 8 k# \memory_array[18] [7:0] $end
$upscope $end
$upscope $end
$upscope $end
$scope module cpu_testbench $end
$scope module cpu_inst $end
$scope module datamemory1 $end
$var reg 8 l# \memory_array[19] [7:0] $end
$upscope $end
$upscope $end
$upscope $end
$enddefinitions $end
$comment Show the parameter values. $end
$dumpall
$end
#0
$dumpvars
b0 l#
b0 k#
b0 j#
b0 i#
b0 h#
b0 g#
b0 f#
b0 e#
b0 d#
b0 c#
b0 b#
b0 a#
b0 `#
b0 _#
b0 ^#
b0 ]#
b0 \#
b0 [#
b0 Z#
b0 Y#
bx X#
bx W#
bx V#
bx U#
bx T#
bx S#
bx R#
bx Q#
bx P#
bx O#
bx N#
bx M#
bx L#
bx K#
bx J#
bx I#
bx H#
bx G#
bx F#
bx E#
bx D#
bx C#
bx B#
bx A#
bx @#
bx ?#
bx >#
bx =#
bx <#
bx ;#
bx :#
bx 9#
b10100 8#
b100000 7#
bx 6#
bx 5#
bx 4#
bx 3#
bx 2#
bx 1#
bx 0#
bx /#
bx .#
bx -#
bx ,#
bx +#
bx *#
bx )#
bx (#
bx '#
bx &#
bx %#
bx $#
bx ##
bx "#
bx !#
bx ~"
bx }"
bx |"
bx {"
bx z"
bx y"
bx x"
bx w"
bx v"
bx u"
bx t"
bx s"
b10000000000 r"
bx q"
bx p"
bx o"
bx n"
bx m"
bx l"
bx k"
bx j"
bx i"
bx h"
bx g"
bx f"
bx e"
bx d"
bx c"
bx b"
bx a"
bx `"
bx _"
bx ^"
bx ]"
bx \"
bx ["
bx Z"
bx Y"
bx X"
bx W"
bx V"
bx U"
bx T"
bx S"
bx R"
bx Q"
bx P"
bx O"
bx N"
bx M"
bx L"
bx K"
bx J"
bx I"
bx H"
bx G"
bx F"
bx E"
bx D"
bx C"
bx B"
bx A"
bx @"
bx ?"
bx >"
bx ="
bx <"
bx ;"
bx :"
bx 9"
bx 8"
bx 7"
bx 6"
bx 5"
bx 4"
z3"
bx 2"
bx 1"
bx 0"
bx /"
bx ."
bx -"
bx ,"
bx +"
bx *"
bx )"
bx ("
bx '"
bx &"
bx %"
bx $"
bx #"
bx ""
bx !"
bx ~
bx }
bx |
bx {
bx z
bx y
bx x
bx w
bx v
bx u
bx t
bx s
bx r
bx q
bx p
bx o
bx n
bx m
bx l
bx k
bx j
bx i
xh
xg
xf
xe
bx d
bx c
bx b
bx a
bx `
bx _
bx ^
bx ]
bx \
bx [
bx Z
xY
xX
xW
bx V
bx U
bx T
bx S
bx R
bx Q
bx P
bx O
bx N
bx M
bx L
bx K
bx J
xI
bx H
xG
xF
xE
xD
xC
xB
xA
x@
x?
x>
x=
x<
x;
bx :
bx 9
bx 8
bx 7
x6
bx 5
bx 4
bx 3
bx 2
bx 1
bx 0
bx /
bx .
bx -
bx ,
bx +
bx *
bx )
bx (
bx '
x&
x%
x$
x#
1"
0!
$end
#1
b0 S
b0 8"
b0 ,#
b0 T
b0 9"
b0 +#
0f
0Y
b0 g"
b0 i"
b0 h"
b0 ##
b0 !#
b0 ~"
b0 "#
b0 ,
b0 )#
b0 2#
b0 -
b0 (#
b0 1#
b0 /
b0 5"
b0 P"
b0 2
b0 6"
b0 O"
b0 J
b0 4"
b0 N"
b0 f"
b0 w"
b0 {"
b0 K
b0 M"
b0 '#
b0 X#
b0 W#
b0 V#
b0 U#
b0 T#
b0 S#
b0 R#
b0 Q#
b0 P#
b0 O#
b0 N#
b0 M#
b0 L#
b0 K#
b0 J#
b0 I#
b0 H#
b0 G#
b0 F#
b0 E#
b0 D#
b0 C#
b0 B#
b0 A#
b0 @#
b0 ?#
b0 >#
b0 =#
b0 <#
b0 ;#
b0 :#
b0 9#
#2
06
#3
b0 `
b0 <"
b0 6#
b0 b
b0 ="
b0 5#
#4
1!
#5
0"
#6
bx K
bx M"
bx '#
b0 5
b0 L"
b0 &#
b0 .#
b0 /#
#7
b11100000000001100010011 K
b11100000000001100010011 M"
b11100000000001100010011 '#
b100 3
b100 e"
b100 -#
b100 1
b100 K"
b100 d"
b100 0#
#8
0!
#12
1!
#14
b0 H
b0 ."
b0 S"
b0 [
b0 r
b0 $"
b10011 g"
b10011 ##
b111 ~"
b110 "#
b111 ,
b111 )#
b111 2#
b0 7
b0 E"
b0 W"
b0 8
b0 D"
b0 V"
0W
b0 Q
b0 y
b0 ,"
b0 J"
b0 )
b0 +"
b0 I"
b0 |"
b0 *#
b0 ]
b0 z
b0 )"
b0 -"
b0 A"
b0 a
b0 {
b0 #"
b0 @"
b0 0
b0 H"
b0 R"
b0 4
b0 ""
b0 G"
b100 5
b100 L"
b100 &#
b100 .#
b100 /#
b100 /
b100 5"
b100 P"
b11100000000001100010011 J
b11100000000001100010011 4"
b11100000000001100010011 N"
b11100000000001100010011 f"
b11100000000001100010011 w"
b11100000000001100010011 {"
#15
b101100000000001000010011 K
b101100000000001000010011 M"
b101100000000001000010011 '#
b10 P
b10 ;"
b10 %#
b0 :
b0 7"
b0 $#
b1000 3
b1000 e"
b1000 -#
b0 m
b0 w
b0 x
b0 Q"
b0 j
b0 >"
b0 j"
0G
0h
b0 c
b0 m"
b0 z"
b10 d
b10 k"
b10 y"
0F
0@
0=
0D
1&
b0 N
b0 l"
b0 v"
b1000 1
b1000 K"
b1000 d"
b1000 0#
#16
b0 +
b0 |
b0 c"
b111 M
b111 :"
b111 x"
0!
#20
1!
#22
b0 u
b0 t
b0 s
b10 U
b10 %"
b10 Y"
b0 V
b0 }
b0 X"
b0 ^
b0 p"
b0 u"
b0 o
b0 n
b0 p
b111 Z
b111 q
b111 *"
b1011 ~"
b100 "#
b1011 ,
b1011 )#
b1011 2#
b1000 5
b1000 L"
b1000 &#
b1000 .#
b1000 /#
b111 L
b111 ("
b111 C"
b110 )
b110 +"
b110 I"
b110 |"
b110 *#
b100 0
b100 H"
b100 R"
b0 i
b0 v
b0 ?"
0E
0g
b0 9
b0 F"
b0 T"
b10 O
b10 B"
b10 U"
0I
0>
0;
0B
1$
0X
b0 _
b0 0"
b0 s"
b0 R
b0 1"
b0 o"
b0 *
b0 2"
b0 ["
b0 }"
b0 l
b0 !"
b0 '"
b0 /"
b0 Z"
b0 n"
b1000 /
b1000 5"
b1000 P"
b100 2
b100 6"
b100 O"
b101100000000001000010011 J
b101100000000001000010011 4"
b101100000000001000010011 N"
b101100000000001000010011 f"
b101100000000001000010011 w"
b101100000000001000010011 {"
#23
b110000000000001010010011 K
b110000000000001010010011 M"
b110000000000001010010011 '#
b1100 3
b1100 e"
b1100 -#
b1100 1
b1100 K"
b1100 d"
b1100 0#
#24
b111 H
b111 ."
b111 S"
b111 m
b111 w
b111 x
b111 Q"
b1011 M
b1011 :"
b1011 x"
0!
#25
b111 +
b111 |
b111 c"
#28
1!
