CPU/reg_wavedata.vcd
$date
	Mon Jan 06 13:55:16 2025
$end
$version
	Icarus Verilog
$end
$timescale
	1s
$end
$scope module cpu_testbench $end
$scope module cpu_inst $end
$scope module registerfile1 $end
$var reg 32 ! \registers[0] [31:0] $end
$upscope $end
$upscope $end
$upscope $end
$scope module cpu_testbench $end
$scope module cpu_inst $end
$scope module registerfile1 $end
$var reg 32 " \registers[1] [31:0] $end
$upscope $end
$upscope $end
$upscope $end
$scope module cpu_testbench $end
$scope module cpu_inst $end
$scope module registerfile1 $end
$var reg 32 # \registers[2] [31:0] $end
$upscope $end
$upscope $end
$upscope $end
$scope module cpu_testbench $end
$scope module cpu_inst $end
$scope module registerfile1 $end
$var reg 32 $ \registers[3] [31:0] $end
$upscope $end
$upscope $end
$upscope $end
$scope module cpu_testbench $end
$scope module cpu_inst $end
$scope module registerfile1 $end
$var reg 32 % \registers[4] [31:0] $end
$upscope $end
$upscope $end
$upscope $end
$scope module cpu_testbench $end
$scope module cpu_inst $end
$scope module registerfile1 $end
$var reg 32 & \registers[5] [31:0] $end
$upscope $end
$upscope $end
$upscope $end
$scope module cpu_testbench $end
$scope module cpu_inst $end
$scope module registerfile1 $end
$var reg 32 ' \registers[6] [31:0] $end
$upscope $end
$upscope $end
$upscope $end
$scope module cpu_testbench $end
$scope module cpu_inst $end
$scope module registerfile1 $end
$var reg 32 ( \registers[7] [31:0] $end
$upscope $end
$upscope $end
$upscope $end
$scope module cpu_testbench $end
$scope module cpu_inst $end
$scope module registerfile1 $end
$var reg 32 ) \registers[8] [31:0] $end
$upscope $end
$upscope $end
$upscope $end
$scope module cpu_testbench $end
$scope module cpu_inst $end
$scope module registerfile1 $end
$var reg 32 * \registers[9] [31:0] $end
$upscope $end
$upscope $end
$upscope $end
$scope module cpu_testbench $end
$scope module cpu_inst $end
$scope module registerfile1 $end
$var reg 32 + \registers[10] [31:0] $end
$upscope $end
$upscope $end
$upscope $end
$scope module cpu_testbench $end
$scope module cpu_inst $end
$scope module registerfile1 $end
$var reg 32 , \registers[11] [31:0] $end
$upscope $end
$upscope $end
$upscope $end
$scope module cpu_testbench $end
$scope module cpu_inst $end
$scope module registerfile1 $end
$var reg 32 - \registers[12] [31:0] $end
$upscope $end
$upscope $end
$upscope $end
$scope module cpu_testbench $end
$scope module cpu_inst $end
$scope module registerfile1 $end
$var reg 32 . \registers[13] [31:0] $end
$upscope $end
$upscope $end
$upscope $end
$scope module cpu_testbench $end
$scope module cpu_inst $end
$scope module registerfile1 $end
$var reg 32 / \registers[14] [31:0] $end
$upscope $end
$upscope $end
$upscope $end
$scope module cpu_testbench $end
$scope module cpu_inst $end
$scope module registerfile1 $end
$var reg 32 0 \registers[15] [31:0] $end
$upscope $end
$upscope $end
$upscope $end
$scope module cpu_testbench $end
$scope module cpu_inst $end
$scope module registerfile1 $end
$var reg 32 1 \registers[16] [31:0] $end
$upscope $end
$upscope $end
$upscope $end
$scope module cpu_testbench $end
$scope module cpu_inst $end
$scope module registerfile1 $end
$var reg 32 2 \registers[17] [31:0] $end
$upscope $end
$upscope $end
$upscope $end
$scope module cpu_testbench $end
$scope module cpu_inst $end
$scope module registerfile1 $end
$var reg 32 3 \registers[18] [31:0] $end
$upscope $end
$upscope $end
$upscope $end
$scope module cpu_testbench $end
$scope module cpu_inst $end
$scope module registerfile1 $end
$var reg 32 4 \registers[19] [31:0] $end
$upscope $end
$upscope $end
$upscope $end
$scope module cpu_testbench $end
$scope module cpu_inst $end
$scope module registerfile1 $end
$var reg 32 5 \registers[20] [31:0] $end
$upscope $end
$upscope $end
$upscope $end
$scope module cpu_testbench $end
$scope module cpu_inst $end
$scope module registerfile1 $end
$var reg 32 6 \registers[21] [31:0] $end
$upscope $end
$upscope $end
$upscope $end
$scope module cpu_testbench $end
$scope module cpu_inst $end
$scope module registerfile1 $end
$var reg 32 7 \registers[22] [31:0] $end
$upscope $end
$upscope $end
$upscope $end
$scope module cpu_testbench $end
$scope module cpu_inst $end
$scope module registerfile1 $end
$var reg 32 8 \registers[23] [31:0] $end
$upscope $end
$upscope $end
$upscope $end
$scope module cpu_testbench $end
$scope module cpu_inst $end
$scope module registerfile1 $end
$var reg 32 9 \registers[24] [31:0] $end
$upscope $end
$upscope $end
$upscope $end
$scope module cpu_testbench $end
$scope module cpu_inst $end
$scope module registerfile1 $end
$var reg 32 : \registers[25] [31:0] $end
$upscope $end
$upscope $end
$upscope $end
$scope module cpu_testbench $end
$scope module cpu_inst $end
$scope module registerfile1 $end
$var reg 32 ; \registers[26] [31:0] $end
$upscope $end
$upscope $end
$upscope $end
$scope module cpu_testbench $end
$scope module cpu_inst $end
$scope module registerfile1 $end
$var reg 32 < \registers[27] [31:0] $end
$upscope $end
$upscope $end
$upscope $end
$scope module cpu_testbench $end
$scope module cpu_inst $end
$scope module registerfile1 $end
$var reg 32 = \registers[28] [31:0] $end
$upscope $end
$upscope $end
$upscope $end
$scope module cpu_testbench $end
$scope module cpu_inst $end
$scope module registerfile1 $end
$var reg 32 > \registers[29] [31:0] $end
$upscope $end
$upscope $end
$upscope $end
$scope module cpu_testbench $end
$scope module cpu_inst $end
$scope module registerfile1 $end
$var reg 32 ? \registers[30] [31:0] $end
$upscope $end
$upscope $end
$upscope $end
$scope module cpu_testbench $end
$scope module cpu_inst $end
$scope module registerfile1 $end
$var reg 32 @ \registers[31] [31:0] $end
$upscope $end
$upscope $end
$upscope $end
$scope module cpu_testbench $end
$var reg 1 A CLK $end
$var reg 1 B RESET $end
$scope module cpu_inst $end
$var wire 1 A CLK $end
$var wire 1 B RESET $end
$var wire 1 C WRITEENABLE_MEMOUT $end
$var wire 1 D WRITEENABLE_IDOUT $end
$var wire 1 E WRITEENABLE_EXOUT $end
$var wire 1 F WRITEENABLE $end
$var wire 32 G WRITEDATA [31:0] $end
$var wire 5 H WRITEADDRESS_MEMOUT [4:0] $end
$var wire 5 I WRITEADDRESS_IDOUT [4:0] $end
$var wire 5 J WRITEADDRESS_EXOUT [4:0] $end
$var wire 32 K TARGETEDADDRESS [31:0] $end
$var wire 5 L RS2 [4:0] $end
$var wire 5 M RS1 [4:0] $end
$var wire 32 N READDATA_MEMOUT [31:0] $end
$var wire 32 O PC_PLUS_4_OUT [31:0] $end
$var wire 32 P PC_PLUS_4_IDOUT [31:0] $end
$var wire 32 Q PC_PLUS_4 [31:0] $end
$var wire 32 R PC_OUT [31:0] $end
$var wire 32 S PC_MUX_OUT [31:0] $end
$var wire 32 T PC_IDOUT [31:0] $end
$var wire 32 U PCOUT [31:0] $end
$var wire 1 V PCADDRESSCONTROLLER $end
$var wire 1 W OFFSETGENARATOR_IDOUT $end
$var wire 1 X OFFSETGENARATOR $end
$var wire 1 Y MEMWRITE_IDOUT $end
$var wire 1 Z MEMWRITE_EXOUT $end
$var wire 1 [ MEMWRITE $end
$var wire 1 \ MEMREAD_IDOUT $end
$var wire 1 ] MEMREAD_EXOUT $end
$var wire 1 ^ MEMREAD $end
$var wire 1 _ MEMORYACCESS_MEMOUT $end
$var wire 1 ` MEMORYACCESS_IDOUT $end
$var wire 1 a MEMORYACCESS_EXOUT $end
$var wire 1 b MEMORYACCESS $end
$var wire 1 c JUMP_IDOUT $end
$var wire 1 d JUMPANDLINK $end
$var wire 1 e JUMP $end
$var wire 32 f JAL_MUX_OUT [31:0] $end
$var wire 1 g JAL_IDOUT $end
$var wire 32 h INSTRUCTION_OUT [31:0] $end
$var wire 32 i INSTRUCTION [31:0] $end
$var wire 32 j IMMEDIATE_VALUE_IDOUT [31:0] $end
$var wire 32 k IMMEDIATE_VALUE [31:0] $end
$var wire 3 l IMMEDIATE_TYPE [2:0] $end
$var wire 1 m IMMEDIATESELECT_IDOUT $end
$var wire 1 n IMMEDIATESELECT $end
$var wire 3 o FUNCT3_IDOUT [2:0] $end
$var wire 3 p FUNCT3_EXOUT [2:0] $end
$var wire 32 q Data2_MUX_OUT [31:0] $end
$var wire 32 r Data1_MUX_OUT [31:0] $end
$var wire 32 s DATA_OUT [31:0] $end
$var wire 32 t DATA2_IDOUT [31:0] $end
$var wire 32 u DATA2_EXOUT [31:0] $end
$var wire 32 v DATA2 [31:0] $end
$var wire 32 w DATA1_IDOUT [31:0] $end
$var wire 32 x DATA1 [31:0] $end
$var wire 1 y BUSYWAIT $end
$var wire 1 z BRANCH_IDOUT $end
$var wire 1 { BRANCH $end
$var wire 5 | ALU_OPCODE_IDOUT [4:0] $end
$var wire 5 } ALU_OPCODE [4:0] $end
$var wire 32 ~ ALURESULT_MEMOUT [31:0] $end
$var wire 32 !" ALURESULT_EXOUT [31:0] $end
$var wire 32 "" ALURESULT [31:0] $end
$scope module ALU $end
$var wire 64 #" mulhu_result [63:0] $end
$var wire 64 $" mulhsu_result [63:0] $end
$var wire 64 %" mulh_result [63:0] $end
$var wire 32 &" data2 [31:0] $end
$var wire 32 '" data1 [31:0] $end
$var wire 32 (" MULH_result [31:0] $end
$var wire 32 )" MULHU_result [31:0] $end
$var wire 32 *" MULHSU_result [31:0] $end
$var wire 5 +" ALU_OPCODE [4:0] $end
$var reg 32 ," Output [31:0] $end
$upscope $end
$scope module BranchController1 $end
$var wire 32 -" ALUresult [31:0] $end
$var wire 3 ." func3 [2:0] $end
$var wire 32 /" data2 [31:0] $end
$var wire 32 0" data1 [31:0] $end
$var wire 1 c Jump $end
$var wire 1 z Branch $end
$var reg 1 V PCAddressController $end
$var reg 32 1" TargetedAddress [31:0] $end
$upscope $end
$scope module Data1_MUX $end
$var wire 1 W SELECT $end
$var wire 32 2" INPUT_1 [31:0] $end
$var wire 32 3" INPUT_0 [31:0] $end
$var reg 32 4" OUTPUT [31:0] $end
$upscope $end
$scope module Data2_MUX $end
$var wire 1 m SELECT $end
$var wire 32 5" INPUT_1 [31:0] $end
$var wire 32 6" INPUT_0 [31:0] $end
$var reg 32 7" OUTPUT [31:0] $end
$upscope $end
$scope module EX_MEM_pipeline1 $end
$var wire 1 A CLK $end
$var wire 1 B RESET $end
$var wire 1 D WRITE_ENABLE $end
$var wire 5 8" WRITE_ADDRESS [4:0] $end
$var wire 1 Y MEM_WRITE $end
$var wire 1 \ MEM_READ $end
$var wire 1 ` MEM_ACCESS $end
$var wire 3 9" FUNCT3 [2:0] $end
$var wire 32 :" DATA2 [31:0] $end
$var wire 32 ;" ALU_OUTPUT [31:0] $end
$var reg 32 <" ALU_OUTPUT_OUT [31:0] $end
$var reg 32 =" DATA2_OUT [31:0] $end
$var reg 3 >" FUNCT3_OUT [2:0] $end
$var reg 1 a MEM_ACCESS_OUT $end
$var reg 1 ] MEM_READ_OUT $end
$var reg 1 Z MEM_WRITE_OUT $end
$var reg 5 ?" WRITE_ADDRESS_OUT [4:0] $end
$var reg 1 E WRITE_ENABLE_OUT $end
$upscope $end
$scope module ID_EXPipeline1 $end
$var wire 1 A CLK $end
$var wire 1 B Reset $end
$var wire 32 @" instruction [31:0] $end
$var wire 1 F Write_Enable $end
$var wire 32 A" PC_next [31:0] $end
$var wire 32 B" PC [31:0] $end
$var wire 1 X Offset_Generate $end
$var wire 1 b Memory_Access $end
$var wire 1 [ Mem_Write $end
$var wire 1 ^ Mem_Read $end
$var wire 1 d Jump_and_Link $end
$var wire 1 e Jump $end
$var wire 32 C" Immediate_value [31:0] $end
$var wire 1 n Immediate_Select $end
$var wire 32 D" Data2 [31:0] $end
$var wire 32 E" Data1 [31:0] $end
$var wire 1 { Branch $end
$var wire 5 F" ALU_Opcode [4:0] $end
$var reg 5 G" Out_ALU_Opcode [4:0] $end
$var reg 1 z Out_Branch $end
$var reg 32 H" Out_Data1 [31:0] $end
$var reg 32 I" Out_Data2 [31:0] $end
$var reg 1 m Out_Immediate_Select $end
$var reg 32 J" Out_Immediate_value [31:0] $end
$var reg 1 c Out_Jump $end
$var reg 1 g Out_Jump_and_Link $end
$var reg 1 \ Out_Mem_Read $end
$var reg 1 Y Out_Mem_Write $end
$var reg 1 ` Out_Memory_Access $end
$var reg 1 W Out_Offset_Generate $end
$var reg 32 K" Out_PC [31:0] $end
$var reg 32 L" Out_PC_next [31:0] $end
$var reg 5 M" Out_WriteAddress [4:0] $end
$var reg 1 D Out_Write_Enable $end
$var reg 3 N" Out_func3 [2:0] $end
$upscope $end
$scope module ID_IF_register1 $end
$var wire 1 A CLK $end
$var wire 1 B RESET $end
$var wire 32 O" PC_PLUS_4 [31:0] $end
$var wire 32 P" PC [31:0] $end
$var wire 32 Q" INSTRUCTION [31:0] $end
$var reg 32 R" INSTRUCTION_OUT [31:0] $end
$var reg 32 S" PC_OUT [31:0] $end
$var reg 32 T" PC_PLUS_4_OUT [31:0] $end
$upscope $end
$scope module JAL_MUX $end
$var wire 32 U" INPUT_0 [31:0] $end
$var wire 32 V" INPUT_1 [31:0] $end
$var wire 1 g SELECT $end
$var reg 32 W" OUTPUT [31:0] $end
$upscope $end
$scope module MEM_WBPipeline1 $end
$var wire 32 X" ALU_Output [31:0] $end
$var wire 1 A CLK $end
$var wire 1 a Memory_access $end
$var wire 1 B Reset $end
$var wire 5 Y" Write_Address [4:0] $end
$var wire 1 E Write_enable $end
$var wire 32 Z" Memory_Data [31:0] $end
$var reg 32 [" ALU_Output_Out [31:0] $end
$var reg 32 \" Memory_Data_Out [31:0] $end
$var reg 1 _ Memory_access_Out $end
$var reg 5 ]" Write_Address_out [4:0] $end
$var reg 1 C Write_Enable_Out $end
$upscope $end
$scope module Memory_access_MUX $end
$var wire 32 ^" INPUT_0 [31:0] $end
$var wire 32 _" INPUT_1 [31:0] $end
$var wire 1 _ SELECT $end
$var reg 32 `" OUTPUT [31:0] $end
$upscope $end
$scope module PC_MUX $end
$var wire 32 a" INPUT_1 [31:0] $end
$var wire 1 V SELECT $end
$var wire 32 b" INPUT_0 [31:0] $end
$var reg 32 c" OUTPUT [31:0] $end
$upscope $end
$scope module controlunit1 $end
$var wire 32 d" INSTRUCTION [31:0] $end
$var wire 7 e" OPCODE [6:0] $end
$var wire 7 f" FUNCT7 [6:0] $end
$var wire 3 g" FUNCT3 [2:0] $end
$var reg 5 h" ALU_OPCODE [4:0] $end
$var reg 1 { BRANCH $end
$var reg 1 n IMMEDIATE_SELECT $end
$var reg 3 i" IMMEDIATE_TYPE [2:0] $end
$var reg 1 e JUMP $end
$var reg 1 d JUMP_AND_LINK $end
$var reg 1 b MEMORY_ACCESS $end
$var reg 1 ^ MEM_READ $end
$var reg 1 [ MEM_WRITE $end
$var reg 1 X OFFSET_GENARATOR $end
$var reg 1 F WRITE_ENABLE $end
$upscope $end
$scope module datamemory1 $end
$var wire 32 j" ADDRESS [31:0] $end
$var wire 1 A CLK $end
$var wire 3 k" FUNCT3 [2:0] $end
$var wire 1 ] READ $end
$var wire 1 B RESET $end
$var wire 1 Z WRITE $end
$var wire 32 l" WRITEDATA [31:0] $end
$var reg 1 y BUSYWAIT $end
$var reg 32 m" READDATA [31:0] $end
$var integer 32 n" i [31:0] $end
$upscope $end
$scope module imidiateGenarator1 $end
$var wire 3 o" IMMEDIATE_TYPE [2:0] $end
$var wire 32 p" INSTRUCTION [31:0] $end
$var reg 32 q" IMMEDIATE_VALUE [31:0] $end
$upscope $end
$scope module instructionmem1 $end
$var wire 1 A CLK $end
$var wire 1 B RESET $end
$var wire 32 r" PC [31:0] $end
$var reg 32 s" INSTRUCTION [31:0] $end
$upscope $end
$scope module pc1 $end
$var wire 1 A CLK $end
$var wire 32 t" PCIN [31:0] $end
$var wire 1 B RESET $end
$var reg 32 u" PCOUT [31:0] $end
$upscope $end
$scope module pc_4_adder $end
$var wire 32 v" PC [31:0] $end
$var wire 32 w" PCPLUS4 [31:0] $end
$upscope $end
$scope module registerfile1 $end
$var wire 1 A CLK $end
$var wire 1 B RESET $end
$var wire 5 x" RS1 [4:0] $end
$var wire 5 y" RS2 [4:0] $end
$var wire 5 z" WRITEADDRESS [4:0] $end
$var wire 32 {" WRITEDATA [31:0] $end
$var wire 1 C WRITEENABLE $end
$var reg 32 |" DATA1 [31:0] $end
$var reg 32 }" DATA2 [31:0] $end
$var integer 32 ~" i [31:0] $end
$upscope $end
$upscope $end
$upscope $end
$enddefinitions $end
$comment Show the parameter values. $end
$dumpall
$end
#0
$dumpvars
b100000 ~"
bx }"
bx |"
bx {"
bx z"
bx y"
bx x"
bx w"
bx v"
bx u"
bx t"
bx s"
bx r"
bx q"
bx p"
bx o"
b10000000000 n"
bx m"
bx l"
bx k"
bx j"
bx i"
bx h"
bx g"
bx f"
bx e"
bx d"
bx c"
bx b"
bx a"
bx `"
bx _"
bx ^"
bx ]"
bx \"
bx ["
bx Z"
bx Y"
bx X"
bx W"
bx V"
bx U"
bx T"
bx S"
bx R"
bx Q"
bx P"
bx O"
bx N"
bx M"
bx L"
bx K"
bx J"
bx I"
bx H"
bx G"
bx F"
bx E"
bx D"
bx C"
bx B"
bx A"
bx @"
bx ?"
bx >"
bx ="
bx <"
bx ;"
bx :"
bx 9"
bx 8"
bx 7"
bx 6"
bx 5"
bx 4"
bx 3"
bx 2"
bx 1"
bx 0"
bx /"
bx ."
bx -"
bx ,"
bx +"
bx *"
bx )"
bx ("
bx '"
bx &"
bx %"
bx $"
bx #"
bx ""
bx !"
bx ~
bx }
bx |
x{
xz
xy
bx x
bx w
bx v
bx u
bx t
bx s
bx r
bx q
bx p
bx o
xn
xm
bx l
bx k
bx j
bx i
bx h
xg
bx f
xe
xd
xc
xb
xa
x`
x_
x^
x]
x\
x[
xZ
xY
xX
xW
0V
bx U
bx T
bx S
bx R
bx Q
bx P
bx O
bx N
bx M
bx L
bx K
bx J
bx I
bx H
bx G
xF
xE
xD
xC
1B
0A
bx @
bx ?
bx >
bx =
bx <
bx ;
bx :
bx 9
bx 8
bx 7
bx 6
bx 5
bx 4
bx 3
bx 2
bx 1
bx 0
bx /
bx .
bx -
bx ,
bx +
bx *
bx )
bx (
bx '
bx &
bx %
bx $
bx #
bx "
bx !
$end
#1
b0 i
b0 Q"
b0 s"
#4
1A
#5
b0 e"
b0 g"
b0 f"
b0 L
b0 y"
b0 M
b0 x"
b0 U
b0 P"
b0 r"
b0 u"
b0 v"
b0 O
b0 A"
b0 T"
b0 R
b0 B"
b0 S"
b0 h
b0 @"
b0 R"
b0 d"
b0 p"
b0 @
b0 ?
b0 >
b0 =
b0 <
b0 ;
b0 :
b0 9
b0 8
b0 7
b0 6
b0 5
b0 4
b0 3
b0 2
b0 1
b0 0
b0 /
b0 .
b0 -
b0 ,
b0 +
b0 *
b0 )
b0 (
b0 '
b0 &
b0 %
b0 $
b0 #
b0 "
b0 !
bx i
bx Q"
bx s"
0B
#6
b100 S
b100 c"
b100 t"
b100 Q
b100 O"
b100 b"
b100 w"
#7
b0 v
b0 D"
b0 }"
b0 x
b0 E"
b0 |"
#8
0A
#12
1A
#13
b100 U
b100 P"
b100 r"
b100 u"
b100 v"
b100000000001010010011 i
b100000000001010010011 Q"
b100000000001010010011 s"
#14
b0 f
b0 ;"
b0 W"
b0 r
b0 '"
b0 0"
b0 4"
b10011 e"
b1 L
b1 y"
b0 o
b0 ."
b0 9"
b0 N"
b0 I
b0 8"
b0 M"
b0 t
b0 6"
b0 :"
b0 I"
b0 w
b0 3"
b0 H"
b0 P
b0 L"
b0 V"
b0 T
b0 2"
b0 K"
b100 O
b100 A"
b100 T"
b100 R
b100 B"
b100 S"
b100000000001010010011 h
b100000000001010010011 @"
b100000000001010010011 R"
b100000000001010010011 d"
b100000000001010010011 p"
b1000 S
b1000 c"
b1000 t"
b1000 Q
b1000 O"
b1000 b"
b1000 w"
#15
b0 ""
b0 ,"
b0 -"
b0 U"
b0 }
b0 F"
b0 h"
0e
0{
0X
1n
0d
0^
0[
0b
1F
b0 l
b0 i"
b0 o"
#16
b1 k
b1 C"
b1 q"
0A
#20
1A
#21
b1000 U
b1000 P"
b1000 r"
b1000 u"
b1000 v"
b1100000000001100010011 i
b1100000000001100010011 Q"
b1100000000001100010011 s"
#22
b0 *"
b0 )"
b0 ("
b11 L
b11 y"
b0 $"
b0 #"
b0 %"
b1 q
b1 &"
b1 /"
b1 7"
b1000 O
b1000 A"
b1000 T"
b1000 R
b1000 B"
b1000 S"
b1100000000001100010011 h
b1100000000001100010011 @"
b1100000000001100010011 R"
b1100000000001100010011 d"
b1100000000001100010011 p"
b1 j
b1 5"
b1 J"
b101 I
b101 8"
b101 M"
b100 P
b100 L"
b100 V"
b100 T
b100 2"
b100 K"
b0 |
b0 +"
b0 G"
0c
0z
0W
1m
0g
0\
0Y
0`
1D
b0 u
b0 ="
b0 l"
b0 p
b0 >"
b0 k"
b0 J
b0 ?"
b0 Y"
b0 !"
b0 <"
b0 X"
b0 j"
b1100 S
b1100 c"
b1100 t"
b1100 Q
b1100 O"
b1100 b"
b1100 w"
#24
b1 f
b1 ;"
b1 W"
b11 k
b11 C"
b11 q"
b1 ""
b1 ,"
b1 -"
b1 U"
0A
#28
1A
#29
b1100 U
b1100 P"
b1100 r"
b1100 u"
b1100 v"
b11000101000001110110011 i
b11000101000001110110011 Q"
b11000101000001110110011 s"
#30
0y
b11 q
b11 &"
b11 /"
b11 7"
b110011 e"
b110 L
b110 y"
b101 M
b101 x"
b0 H
b0 ]"
b0 z"
b0 ~
b0 ["
b0 ^"
b101 J
b101 ?"
b101 Y"
b1 !"
b1 <"
b1 X"
b1 j"
0]
0Z
0a
1E
b11 j
b11 5"
b11 J"
b110 I
b110 8"
b110 M"
b1000 P
b1000 L"
b1000 V"
b1000 T
b1000 2"
b1000 K"
b1100 O
b1100 A"
b1100 T"
b1100 R
b1100 B"
b1100 S"
b11000101000001110110011 h
b11000101000001110110011 @"
b11000101000001110110011 R"
b11000101000001110110011 d"
b11000101000001110110011 p"
b10000 S
b10000 c"
b10000 t"
b10000 Q
b10000 O"
b10000 b"
b10000 w"
#31
0n
bx l
bx i"
bx o"
#32
b11 f
b11 ;"
b11 W"
b11 ""
b11 ,"
b11 -"
b11 U"
0A
#36
1A
#37
b10000 U
b10000 P"
b10000 r"
b10000 u"
b10000 v"
bx i
bx Q"
bx s"
#38
bx e"
bx g"
bx f"
bx L
bx y"
bx M
bx x"
b0 q
b0 &"
b0 /"
b0 7"
b1 G
b1 `"
b1 {"
b10000 O
b10000 A"
b10000 T"
b10000 R
b10000 B"
b10000 S"
bx h
bx @"
bx R"
bx d"
bx p"
b111 I
b111 8"
b111 M"
b1100 P
b1100 L"
b1100 V"
b1100 T
b1100 2"
b1100 K"
0m
b110 J
b110 ?"
b110 Y"
b11 !"
b11 <"
b11 X"
b11 j"
b101 H
b101 ]"
b101 z"
b1 ~
b1 ["
b1 ^"
0_
1C
b10100 S
b10100 c"
b10100 t"
b10100 Q
b10100 O"
b10100 b"
b10100 w"
#40
bx v
bx D"
bx }"
bx x
bx E"
bx |"
b0 f
b0 ;"
b0 W"
b0 ""
b0 ,"
b0 -"
b0 U"
0A
#44
1A
#45
b1 &
b10100 U
b10100 P"
b10100 r"
b10100 u"
b10100 v"
#46
bx *"
bx )"
bx ("
b11 G
b11 `"
b11 {"
bx q
bx &"
bx /"
bx 7"
bx $"
bx #"
bx %"
bx r
bx '"
bx 0"
bx 4"
b110 H
b110 ]"
b110 z"
b11 ~
b11 ["
b11 ^"
b111 J
b111 ?"
b111 Y"
b0 !"
b0 <"
b0 X"
b0 j"
bx o
bx ."
bx 9"
bx N"
bx I
bx 8"
bx M"
bx t
bx 6"
bx :"
bx I"
bx w
bx 3"
bx H"
b10000 P
b10000 L"
b10000 V"
b10000 T
b10000 2"
b10000 K"
b10100 O
b10100 A"
b10100 T"
b10100 R
b10100 B"
b10100 S"
b11000 S
b11000 c"
b11000 t"
b11000 Q
b11000 O"
b11000 b"
b11000 w"
#48
bx f
bx ;"
bx W"
bx ""
bx ,"
bx -"
bx U"
0A
#52
1A
#53
b11000 U
b11000 P"
b11000 r"
b11000 u"
b11000 v"
b11 '
#54
b0 G
b0 `"
b0 {"
b11000 O
b11000 A"
b11000 T"
b11000 R
b11000 B"
b11000 S"
b10100 P
b10100 L"
b10100 V"
b10100 T
b10100 2"
b10100 K"
bx u
bx ="
bx l"
bx p
bx >"
bx k"
bx J
bx ?"
bx Y"
bx !"
bx <"
bx X"
bx j"
b111 H
b111 ]"
b111 z"
b0 ~
b0 ["
b0 ^"
b11100 S
b11100 c"
b11100 t"
b11100 Q
b11100 O"
b11100 b"
b11100 w"
#56
0A
#60
1A
#61
b0 (
b11100 U
b11100 P"
b11100 r"
b11100 u"
b11100 v"
#62
bx G
bx `"
bx {"
bx H
bx ]"
bx z"
bx ~
bx ["
bx ^"
b11000 P
b11000 L"
b11000 V"
b11000 T
b11000 2"
b11000 K"
b11100 O
b11100 A"
b11100 T"
b11100 R
b11100 B"
b11100 S"
b100000 S
b100000 c"
b100000 t"
b100000 Q
b100000 O"
b100000 b"
b100000 w"
#64
0A
#68
1A
#69
b100000 U
b100000 P"
b100000 r"
b100000 u"
b100000 v"
#70
b100000 O
b100000 A"
b100000 T"
b100000 R
b100000 B"
b100000 S"
b11100 P
b11100 L"
b11100 V"
b11100 T
b11100 2"
b11100 K"
b100100 S
b100100 c"
b100100 t"
b100100 Q
b100100 O"
b100100 b"
b100100 w"
#72
0A
#76
1A
#77
b100100 U
b100100 P"
b100100 r"
b100100 u"
b100100 v"
#78
b100000 P
b100000 L"
b100000 V"
b100000 T
b100000 2"
b100000 K"
b100100 O
b100100 A"
b100100 T"
b100100 R
b100100 B"
b100100 S"
b101000 S
b101000 c"
b101000 t"
b101000 Q
b101000 O"
b101000 b"
b101000 w"
#80
0A
#84
1A
#85
b101000 U
b101000 P"
b101000 r"
b101000 u"
b101000 v"
#86
b101000 O
b101000 A"
b101000 T"
b101000 R
b101000 B"
b101000 S"
b100100 P
b100100 L"
b100100 V"
b100100 T
b100100 2"
b100100 K"
b101100 S
b101100 c"
b101100 t"
b101100 Q
b101100 O"
b101100 b"
b101100 w"
#88
0A
#92
1A
#93
b101100 U
b101100 P"
b101100 r"
b101100 u"
b101100 v"
#94
b101000 P
b101000 L"
b101000 V"
b101000 T
b101000 2"
b101000 K"
b101100 O
b101100 A"
b101100 T"
b101100 R
b101100 B"
b101100 S"
b110000 S
b110000 c"
b110000 t"
b110000 Q
b110000 O"
b110000 b"
b110000 w"
#96
0A
#100
1A
#101
b110000 U
b110000 P"
b110000 r"
b110000 u"
b110000 v"
#102
b110000 O
b110000 A"
b110000 T"
b110000 R
b110000 B"
b110000 S"
b101100 P
b101100 L"
b101100 V"
b101100 T
b101100 2"
b101100 K"
b110100 S
b110100 c"
b110100 t"
b110100 Q
b110100 O"
b110100 b"
b110100 w"
#104
0A
#108
1A
#109
b110100 U
b110100 P"
b110100 r"
b110100 u"
b110100 v"
#110
b110000 P
b110000 L"
b110000 V"
b110000 T
b110000 2"
b110000 K"
b110100 O
b110100 A"
b110100 T"
b110100 R
b110100 B"
b110100 S"
b111000 S
b111000 c"
b111000 t"
b111000 Q
b111000 O"
b111000 b"
b111000 w"
#112
0A
#116
1A
#117
b111000 U
b111000 P"
b111000 r"
b111000 u"
b111000 v"
#118
b111000 O
b111000 A"
b111000 T"
b111000 R
b111000 B"
b111000 S"
b110100 P
b110100 L"
b110100 V"
b110100 T
b110100 2"
b110100 K"
b111100 S
b111100 c"
b111100 t"
b111100 Q
b111100 O"
b111100 b"
b111100 w"
#120
0A
#124
1A
#125
b111100 U
b111100 P"
b111100 r"
b111100 u"
b111100 v"
#126
b111000 P
b111000 L"
b111000 V"
b111000 T
b111000 2"
b111000 K"
b111100 O
b111100 A"
b111100 T"
b111100 R
b111100 B"
b111100 S"
b1000000 S
b1000000 c"
b1000000 t"
b1000000 Q
b1000000 O"
b1000000 b"
b1000000 w"
#128
0A
#132
1A
#133
b1000000 U
b1000000 P"
b1000000 r"
b1000000 u"
b1000000 v"
#134
b1000000 O
b1000000 A"
b1000000 T"
b1000000 R
b1000000 B"
b1000000 S"
b111100 P
b111100 L"
b111100 V"
b111100 T
b111100 2"
b111100 K"
b1000100 S
b1000100 c"
b1000100 t"
b1000100 Q
b1000100 O"
b1000100 b"
b1000100 w"
#136
0A
#140
1A
#141
b1000100 U
b1000100 P"
b1000100 r"
b1000100 u"
b1000100 v"
#142
b1000000 P
b1000000 L"
b1000000 V"
b1000000 T
b1000000 2"
b1000000 K"
b1000100 O
b1000100 A"
b1000100 T"
b1000100 R
b1000100 B"
b1000100 S"
b1001000 S
b1001000 c"
b1001000 t"
b1001000 Q
b1001000 O"
b1001000 b"
b1001000 w"
#144
0A
#148
1A
#149
b1001000 U
b1001000 P"
b1001000 r"
b1001000 u"
b1001000 v"
#150
b1001000 O
b1001000 A"
b1001000 T"
b1001000 R
b1001000 B"
b1001000 S"
b1000100 P
b1000100 L"
b1000100 V"
b1000100 T
b1000100 2"
b1000100 K"
b1001100 S
b1001100 c"
b1001100 t"
b1001100 Q
b1001100 O"
b1001100 b"
b1001100 w"
#152
0A
#156
1A
#157
b1001100 U
b1001100 P"
b1001100 r"
b1001100 u"
b1001100 v"
#158
b1001000 P
b1001000 L"
b1001000 V"
b1001000 T
b1001000 2"
b1001000 K"
b1001100 O
b1001100 A"
b1001100 T"
b1001100 R
b1001100 B"
b1001100 S"
b1010000 S
b1010000 c"
b1010000 t"
b1010000 Q
b1010000 O"
b1010000 b"
b1010000 w"
#160
0A
#164
1A
#165
b1010000 U
b1010000 P"
b1010000 r"
b1010000 u"
b1010000 v"
#166
b1010000 O
b1010000 A"
b1010000 T"
b1010000 R
b1010000 B"
b1010000 S"
b1001100 P
b1001100 L"
b1001100 V"
b1001100 T
b1001100 2"
b1001100 K"
b1010100 S
b1010100 c"
b1010100 t"
b1010100 Q
b1010100 O"
b1010100 b"
b1010100 w"
#168
0A
#172
1A
